%!PS-Adobe-3.0 EPSF-3.0
%%Creator: cairo 1.10.2 (http://cairographics.org)
%%CreationDate: Tue Jul  8 07:16:25 2014
%%Pages: 1
%%BoundingBox: 0 -1 705 746
%%DocumentData: Clean7Bit
%%LanguageLevel: 2
%%EndComments
%%BeginProlog
/cairo_eps_state save def
/dict_count countdictstack def
/op_count count 1 sub def
userdict begin
/q { gsave } bind def
/Q { grestore } bind def
/cm { 6 array astore concat } bind def
/w { setlinewidth } bind def
/J { setlinecap } bind def
/j { setlinejoin } bind def
/M { setmiterlimit } bind def
/d { setdash } bind def
/m { moveto } bind def
/l { lineto } bind def
/c { curveto } bind def
/h { closepath } bind def
/re { exch dup neg 3 1 roll 5 3 roll moveto 0 rlineto
      0 exch rlineto 0 rlineto closepath } bind def
/S { stroke } bind def
/f { fill } bind def
/f* { eofill } bind def
/n { newpath } bind def
/W { clip } bind def
/W* { eoclip } bind def
/BT { } bind def
/ET { } bind def
/pdfmark where { pop globaldict /?pdfmark /exec load put }
    { globaldict begin /?pdfmark /pop load def /pdfmark
    /cleartomark load def end } ifelse
/BDC { mark 3 1 roll /BDC pdfmark } bind def
/EMC { mark /EMC pdfmark } bind def
/cairo_store_point { /cairo_point_y exch def /cairo_point_x exch def } def
/Tj { show currentpoint cairo_store_point } bind def
/TJ {
  {
    dup
    type /stringtype eq
    { show } { -0.001 mul 0 cairo_font_matrix dtransform rmoveto } ifelse
  } forall
  currentpoint cairo_store_point
} bind def
/cairo_selectfont { cairo_font_matrix aload pop pop pop 0 0 6 array astore
    cairo_font exch selectfont cairo_point_x cairo_point_y moveto } bind def
/Tf { pop /cairo_font exch def /cairo_font_matrix where
      { pop cairo_selectfont } if } bind def
/Td { matrix translate cairo_font_matrix matrix concatmatrix dup
      /cairo_font_matrix exch def dup 4 get exch 5 get cairo_store_point
      /cairo_font where { pop cairo_selectfont } if } bind def
/Tm { 2 copy 8 2 roll 6 array astore /cairo_font_matrix exch def
      cairo_store_point /cairo_font where { pop cairo_selectfont } if } bind def
/g { setgray } bind def
/rg { setrgbcolor } bind def
/d1 { setcachedevice } bind def
%%EndProlog
%%Page: 1 1
%%BeginPageSetup
%%PageBoundingBox: 0 -1 705 746
%%EndPageSetup
q 0 -1 705 747 rectclip q
0 745.36 705 -746 re W n
0 g
216.238 553.758 m 230.398 553.919 234.078 590.079 235.199 600.321 c 
237.52 622.321 233.039 644.321 223.199 664.079 c 204.879 701.04 166.398 
729.598 124.32 731.758 c 109.359 732.559 104.879 699.282 103.52 688.559 
c 100.801 666.161 105.121 643.282 114.879 623.04 c 132.719 586.399 
173.602 553.36 216.238 553.758 c h
216.238 553.758 m f
399.281 198.801 m 399.68 198.801 l 399.68 264.001 l 304.48 264.001 l 
304.48 198.801 l h
399.281 198.801 m f
170.398 30.001 m 170.398 13.438 183.84 0.001 200.398 0.001 c 503.84 
0.001 l 520.398 0.001 533.84 13.438 533.84 30.001 c 533.84 46.559 
520.398 60.001 503.84 60.001 c 431.281 60.001 l 431.359 60.641 431.359 
61.36 431.359 62.001 c 431.359 146.801 l 431.359 164.321 417.281 
178.559 399.762 178.801 c 304.559 178.801 l 287.039 178.559 272.961 
164.321 272.961 146.801 c 272.961 62.001 l 272.961 61.36 272.961 60.641 
273.039 60.001 c 200.48 60.001 l 183.84 60.001 170.398 46.641 170.398 
30.001 c h
170.398 30.001 m f
62 284.001 m 642.238 284.001 l 676.398 284.001 704.238 311.84 704.238 
346.001 c 704.238 715.36 l 704.238 731.919 690.801 745.36 674.238 
745.36 c 657.68 745.36 644.238 731.919 644.238 715.36 c 644.238 346.001 
l 644.238 344.88 643.359 344.001 642.238 344.001 c 62 344.001 l 60.879 
344.001 60 344.88 60 346.001 c 60 715.36 l 60 731.919 46.559 745.36 30 
745.36 c 13.441 745.36 0 731.919 0 715.36 c 0 346.001 l 0 311.758 
27.762 284.001 62 284.001 c h
62 284.001 m f
Q Q
showpage
%%Trailer
count op_count sub {pop} repeat
countdictstack dict_count sub {end} repeat
cairo_eps_state restore
%%EOF
