%!PS-Adobe-3.0 EPSF-3.0
%%Creator: cairo 1.10.2 (http://cairographics.org)
%%CreationDate: Mon Jul 14 07:17:16 2014
%%Pages: 1
%%BoundingBox: 0 -1 787 416
%%DocumentData: Clean7Bit
%%LanguageLevel: 2
%%EndComments
%%BeginProlog
/cairo_eps_state save def
/dict_count countdictstack def
/op_count count 1 sub def
userdict begin
/q { gsave } bind def
/Q { grestore } bind def
/cm { 6 array astore concat } bind def
/w { setlinewidth } bind def
/J { setlinecap } bind def
/j { setlinejoin } bind def
/M { setmiterlimit } bind def
/d { setdash } bind def
/m { moveto } bind def
/l { lineto } bind def
/c { curveto } bind def
/h { closepath } bind def
/re { exch dup neg 3 1 roll 5 3 roll moveto 0 rlineto
      0 exch rlineto 0 rlineto closepath } bind def
/S { stroke } bind def
/f { fill } bind def
/f* { eofill } bind def
/n { newpath } bind def
/W { clip } bind def
/W* { eoclip } bind def
/BT { } bind def
/ET { } bind def
/pdfmark where { pop globaldict /?pdfmark /exec load put }
    { globaldict begin /?pdfmark /pop load def /pdfmark
    /cleartomark load def end } ifelse
/BDC { mark 3 1 roll /BDC pdfmark } bind def
/EMC { mark /EMC pdfmark } bind def
/cairo_store_point { /cairo_point_y exch def /cairo_point_x exch def } def
/Tj { show currentpoint cairo_store_point } bind def
/TJ {
  {
    dup
    type /stringtype eq
    { show } { -0.001 mul 0 cairo_font_matrix dtransform rmoveto } ifelse
  } forall
  currentpoint cairo_store_point
} bind def
/cairo_selectfont { cairo_font_matrix aload pop pop pop 0 0 6 array astore
    cairo_font exch selectfont cairo_point_x cairo_point_y moveto } bind def
/Tf { pop /cairo_font exch def /cairo_font_matrix where
      { pop cairo_selectfont } if } bind def
/Td { matrix translate cairo_font_matrix matrix concatmatrix dup
      /cairo_font_matrix exch def dup 4 get exch 5 get cairo_store_point
      /cairo_font where { pop cairo_selectfont } if } bind def
/Tm { 2 copy 8 2 roll 6 array astore /cairo_font_matrix exch def
      cairo_store_point /cairo_font where { pop cairo_selectfont } if } bind def
/g { setgray } bind def
/rg { setrgbcolor } bind def
/d1 { setcachedevice } bind def
%%EndProlog
%%Page: 1 1
%%BeginPageSetup
%%PageBoundingBox: 0 -1 787 416
%%EndPageSetup
q 0 -1 787 417 rectclip q
0 415.68 787 -416 re W n
0 g
145.324 243.121 m 149.164 243.039 152.766 243.039 156.125 243.121 c 
155.324 246.801 153.246 250.078 150.207 252.399 c 43.484 334.559 l 
41.887 335.758 l 40.926 337.039 l 20.844 320.399 -2.434 291.68 0.207 
248.879 c 4.844 175.121 28.844 246.481 145.324 243.121 c h
145.324 243.121 m f
245.887 0.078 m 375.324 0.078 l 379.805 0.078 383.645 3.039 384.926 
7.121 c 384.844 8.078 384.766 9.121 384.766 10.078 c 384.766 257.68 l 
383.164 258.879 l 367.406 270.321 353.004 289.36 340.285 315.282 c 
330.445 335.36 323.324 356 318.207 371.758 c 315.965 378.641 316.605 
385.918 319.965 392.078 c 275.004 399.68 l 275.566 391.121 272.844 
382.559 267.004 375.68 c 248.766 354.239 217.406 328.559 171.324 
328.559 c 158.926 328.559 146.207 330.481 133.164 334.239 c 127.484 
335.918 121.727 337.918 115.887 340.239 c 108.688 343.2 101.406 346.641 
94.047 350.641 c 86.367 354.879 80.766 361.68 78.125 369.602 c 57.887 
362.879 l 51.324 360.719 48.844 352.641 53.164 347.2 c 53.887 346.641 l 
159.887 265.039 l 166.445 260 170.688 252.719 171.965 244.641 c 172.207 
242.961 172.367 241.282 172.367 239.602 c 172.367 212.481 l 172.367 
210.16 173.164 207.918 174.766 206.16 c 235.086 136.879 l 235.566 
135.758 235.805 134.481 235.805 133.282 c 235.805 123.52 l 236.527 
123.602 237.246 123.602 238.047 123.602 c 283.086 123.602 l 302.766 
123.602 318.766 107.602 318.766 87.918 c 318.766 78.719 l 318.766 
59.039 302.766 43.039 283.086 43.039 c 283.086 43.039 236.605 43.039 
235.887 43.121 c 235.887 10.078 l 235.887 4.559 240.367 0.078 245.887 
0.078 c h
245.887 0.078 m f
101.727 364.719 m 128.125 350.239 151.246 344.559 171.246 344.559 c 
210.926 344.559 238.367 366.719 254.688 386 c 258.926 390.961 259.805 
397.039 258.285 402.481 c 257.246 406 255.164 409.282 252.285 411.602 c 
249.324 414 245.566 415.52 241.164 415.602 c 239.246 415.602 237.246 
415.68 235.324 415.68 c 233.164 415.68 231.004 415.68 228.844 415.602 c 
212.125 415.36 195.805 414.078 180.367 412.239 c 161.566 410 144.125 
406.801 128.844 403.52 c 120.445 401.68 112.688 399.84 105.727 398 c 
102.125 397.039 99.246 395.282 97.086 392.961 c 94.527 390.16 92.926 
386.641 92.445 382.961 c 92.125 380.239 92.367 377.442 93.246 374.801 c 
94.688 370.719 97.406 367.121 101.727 364.719 c h
101.727 364.719 m f
745.246 337.039 m 744.285 335.758 l 742.688 334.559 l 635.887 252.321 l 
632.926 250 630.844 246.719 629.965 243.039 c 633.324 242.961 636.844 
242.961 640.766 243.039 c 757.246 246.399 781.324 175.039 785.887 
248.879 c 788.605 291.68 765.324 320.399 745.246 337.039 c h
745.246 337.039 m f
732.926 347.2 m 737.246 352.641 734.766 360.719 728.207 362.879 c 
710.047 368.961 l 707.324 361.36 701.887 354.801 694.367 350.719 c 
688.926 347.68 683.484 345.039 678.047 342.641 c 669.164 338.719 
660.445 335.602 651.805 333.282 c 639.965 330.16 628.445 328.559 
617.164 328.559 c 571.086 328.559 539.727 354.16 521.484 375.68 c 
515.566 382.641 512.844 391.36 513.484 400.078 c 465.246 391.84 l 
468.527 385.68 469.164 378.481 466.926 371.68 c 461.805 355.918 454.688 
335.282 444.844 315.2 c 432.125 289.282 417.727 270.321 401.965 258.801 
c 401.324 258.321 l 400.688 257.84 l 400.688 10 l 400.688 8.961 400.844 
7.918 401.164 7.039 c 402.445 2.961 406.207 0 410.766 0 c 540.207 0 l 
545.727 0 550.207 4.481 550.207 10 c 550.207 43.121 l 549.164 43.039 
501.965 42.961 501.965 42.961 c 482.285 42.961 466.285 58.961 466.285 
78.641 c 466.285 87.84 l 466.285 107.52 482.285 123.52 501.965 123.52 c 
547.004 123.52 l 548.047 123.52 549.164 123.442 550.207 123.36 c 
550.207 133.2 l 550.207 134.481 550.445 135.68 550.926 136.801 c 
611.246 206.078 l 612.766 207.84 613.645 210.078 613.645 212.399 c 
613.645 239.52 l 613.645 241.2 613.805 242.879 614.047 244.559 c 
615.324 252.559 619.645 259.918 626.125 264.961 c 732.125 346.559 l h
732.926 347.2 m f
558.285 104.078 m 555.965 105.68 553.246 106.801 550.285 107.282 c 
549.246 107.442 548.207 107.52 547.086 107.52 c 502.047 107.52 l 
491.164 107.52 482.367 98.719 482.367 87.84 c 482.367 78.641 l 482.367 
67.758 491.164 58.961 502.047 58.961 c 547.086 58.961 l 548.207 58.961 
549.246 59.039 550.285 59.2 c 553.246 59.68 555.965 60.801 558.285 
62.399 c 562.285 65.2 565.164 69.36 566.285 74.239 c 566.605 75.602 
566.766 77.121 566.766 78.559 c 566.766 87.758 l 566.766 89.282 566.605 
90.719 566.285 92.078 c 565.164 97.121 562.285 101.36 558.285 104.078 c 
h
558.285 104.078 m f
238.125 59.039 m 283.164 59.039 l 294.047 59.039 302.844 67.84 302.844 
78.719 c 302.844 87.918 l 302.844 98.801 294.047 107.602 283.164 
107.602 c 238.125 107.602 l 237.406 107.602 236.688 107.52 235.887 
107.442 c 233.004 107.121 230.285 106.16 227.887 104.719 c 224.285 
102.559 221.484 99.282 219.887 95.36 c 218.926 93.039 218.445 90.559 
218.445 87.84 c 218.445 78.641 l 218.445 76 219.004 73.442 219.887 
71.121 c 221.484 67.2 224.285 63.918 227.887 61.758 c 230.285 60.321 
233.004 59.36 235.887 59.039 c h
238.125 59.039 m f
617.086 344.559 m 637.086 344.559 660.207 350.239 686.605 364.719 c 
690.688 366.961 693.406 370.321 694.844 374 c 695.805 376.559 696.207 
379.36 695.965 382.078 c 695.645 385.602 694.367 388.961 692.125 
391.758 c 689.887 394.559 686.688 396.801 682.605 397.84 c 673.965 
400.078 664.125 402.399 653.246 404.641 c 638.527 407.68 622.047 
410.481 604.445 412.481 c 589.406 414.16 573.566 415.282 557.406 415.52 
c 553.004 415.52 l 551.086 415.52 549.086 415.52 547.164 415.442 c 
543.086 415.36 539.566 414.078 536.688 411.918 c 533.566 409.602 
531.324 406.321 530.207 402.719 c 528.527 397.282 529.324 390.961 
533.645 385.84 c 549.965 366.801 577.406 344.559 617.086 344.559 c h
617.086 344.559 m f
384.766 278.321 m 385.406 277.68 l 387.727 275.52 392.688 271.84 
392.766 271.84 c 393.004 272 398.367 276.321 400.766 278.641 c 401.406 
279.282 l 427.566 304.879 443.566 351.282 451.805 376.641 c 453.484 
381.758 450.844 386.641 446.766 388.719 c 445.406 389.442 443.805 
389.84 442.207 389.84 c 440.766 389.84 439.246 389.52 437.727 388.801 c 
435.887 387.918 434.125 387.039 432.367 386.321 c 424.688 382.961 
416.766 380.399 408.527 378.961 c 389.805 375.68 370.367 378.641 
353.086 386.16 c 352.766 386.321 352.445 386.399 352.207 386.559 c 
350.688 387.282 349.086 388 347.484 388.801 c 345.965 389.52 344.445 
389.84 343.004 389.84 c 341.484 389.84 340.047 389.442 338.766 388.879 
c 334.527 386.879 331.727 381.918 333.484 376.641 c 341.727 350.961 
358.047 303.758 384.766 278.321 c h
384.766 278.321 m f
Q Q
showpage
%%Trailer
count op_count sub {pop} repeat
countdictstack dict_count sub {end} repeat
cairo_eps_state restore
%%EOF
