%!PS-Adobe-3.0 EPSF-3.0
%%Creator: cairo 1.10.2 (http://cairographics.org)
%%CreationDate: Thu Jul 10 14:00:12 2014
%%Pages: 1
%%BoundingBox: 0 -1 756 345
%%DocumentData: Clean7Bit
%%LanguageLevel: 2
%%EndComments
%%BeginProlog
/cairo_eps_state save def
/dict_count countdictstack def
/op_count count 1 sub def
userdict begin
/q { gsave } bind def
/Q { grestore } bind def
/cm { 6 array astore concat } bind def
/w { setlinewidth } bind def
/J { setlinecap } bind def
/j { setlinejoin } bind def
/M { setmiterlimit } bind def
/d { setdash } bind def
/m { moveto } bind def
/l { lineto } bind def
/c { curveto } bind def
/h { closepath } bind def
/re { exch dup neg 3 1 roll 5 3 roll moveto 0 rlineto
      0 exch rlineto 0 rlineto closepath } bind def
/S { stroke } bind def
/f { fill } bind def
/f* { eofill } bind def
/n { newpath } bind def
/W { clip } bind def
/W* { eoclip } bind def
/BT { } bind def
/ET { } bind def
/pdfmark where { pop globaldict /?pdfmark /exec load put }
    { globaldict begin /?pdfmark /pop load def /pdfmark
    /cleartomark load def end } ifelse
/BDC { mark 3 1 roll /BDC pdfmark } bind def
/EMC { mark /EMC pdfmark } bind def
/cairo_store_point { /cairo_point_y exch def /cairo_point_x exch def } def
/Tj { show currentpoint cairo_store_point } bind def
/TJ {
  {
    dup
    type /stringtype eq
    { show } { -0.001 mul 0 cairo_font_matrix dtransform rmoveto } ifelse
  } forall
  currentpoint cairo_store_point
} bind def
/cairo_selectfont { cairo_font_matrix aload pop pop pop 0 0 6 array astore
    cairo_font exch selectfont cairo_point_x cairo_point_y moveto } bind def
/Tf { pop /cairo_font exch def /cairo_font_matrix where
      { pop cairo_selectfont } if } bind def
/Td { matrix translate cairo_font_matrix matrix concatmatrix dup
      /cairo_font_matrix exch def dup 4 get exch 5 get cairo_store_point
      /cairo_font where { pop cairo_selectfont } if } bind def
/Tm { 2 copy 8 2 roll 6 array astore /cairo_font_matrix exch def
      cairo_store_point /cairo_font where { pop cairo_selectfont } if } bind def
/g { setgray } bind def
/rg { setrgbcolor } bind def
/d1 { setcachedevice } bind def
%%EndProlog
%%Page: 1 1
%%BeginPageSetup
%%PageBoundingBox: 0 -1 756 345
%%EndPageSetup
q 0 -1 756 346 rectclip q
0 344.163 756 -345 re W n
0 g
724.961 171.518 m 724.961 171.518 389.68 306.401 295.52 342.721 c 
283.359 347.362 269.84 340.401 266.801 327.678 c 266 324.401 265.199 
321.12 264.238 317.838 c 259.281 300.639 247.84 286.561 234.801 274.639 
c 194.719 238.159 131.68 235.76 89.121 269.518 c 82.719 274.639 76.16 
280.561 71.359 287.202 c 62.078 299.999 50.879 306.319 34.559 302.721 c 
21.121 299.76 11.039 289.28 11.039 275.12 c 11.039 274.96 10.719 
201.678 10.641 184.401 c 10.641 182.241 10 180.081 8.719 178.241 c 
3.199 170.639 0 161.202 0 151.042 c 0 103.838 l 0 77.76 21.121 56.639 
47.199 56.639 c 708 56.639 l 734.078 56.639 755.199 77.76 755.199 
103.838 c 755.199 127.44 l 755.199 147.28 742.961 164.241 724.961 
171.518 c h
724.961 171.518 m f
133.762 36.159 m 73.52 36.159 l 70.078 36.159 67.52 33.042 68.078 
29.678 c 71.121 12.799 85.922 0.081 103.602 0.081 c 121.359 0.081 
136.078 12.881 139.121 29.678 c 139.762 33.042 137.199 36.159 133.762 
36.159 c h
133.762 36.159 m f
212 -0.001 m 229.762 -0.001 244.48 12.799 247.52 29.6 c 248.16 32.96 
245.52 36.081 242.078 36.081 c 181.84 36.081 l 178.398 36.081 175.84 
32.96 176.398 29.6 c 179.52 12.799 194.238 -0.001 212 -0.001 c h
212 -0.001 m f
567.281 36.159 m 507.039 36.159 l 503.602 36.159 501.039 33.042 501.602 
29.678 c 504.641 12.799 519.441 0.081 537.121 0.081 c 554.879 0.081 
569.602 12.881 572.641 29.678 c 573.359 33.042 570.719 36.159 567.281 
36.159 c h
567.281 36.159 m f
645.602 -0.001 m 663.359 -0.001 678.078 12.799 681.121 29.6 c 681.762 
32.96 679.121 36.081 675.68 36.081 c 615.441 36.081 l 612 36.081 
609.441 32.96 610 29.6 c 613.121 12.799 627.84 -0.001 645.602 -0.001 c 
h
645.602 -0.001 m f
Q Q
showpage
%%Trailer
count op_count sub {pop} repeat
countdictstack dict_count sub {end} repeat
cairo_eps_state restore
%%EOF
