%!PS-Adobe-3.0 EPSF-3.0
%%Creator: cairo 1.10.2 (http://cairographics.org)
%%CreationDate: Mon Jul 14 07:17:23 2014
%%Pages: 1
%%BoundingBox: 0 -1 773 640
%%DocumentData: Clean7Bit
%%LanguageLevel: 2
%%EndComments
%%BeginProlog
/cairo_eps_state save def
/dict_count countdictstack def
/op_count count 1 sub def
userdict begin
/q { gsave } bind def
/Q { grestore } bind def
/cm { 6 array astore concat } bind def
/w { setlinewidth } bind def
/J { setlinecap } bind def
/j { setlinejoin } bind def
/M { setmiterlimit } bind def
/d { setdash } bind def
/m { moveto } bind def
/l { lineto } bind def
/c { curveto } bind def
/h { closepath } bind def
/re { exch dup neg 3 1 roll 5 3 roll moveto 0 rlineto
      0 exch rlineto 0 rlineto closepath } bind def
/S { stroke } bind def
/f { fill } bind def
/f* { eofill } bind def
/n { newpath } bind def
/W { clip } bind def
/W* { eoclip } bind def
/BT { } bind def
/ET { } bind def
/pdfmark where { pop globaldict /?pdfmark /exec load put }
    { globaldict begin /?pdfmark /pop load def /pdfmark
    /cleartomark load def end } ifelse
/BDC { mark 3 1 roll /BDC pdfmark } bind def
/EMC { mark /EMC pdfmark } bind def
/cairo_store_point { /cairo_point_y exch def /cairo_point_x exch def } def
/Tj { show currentpoint cairo_store_point } bind def
/TJ {
  {
    dup
    type /stringtype eq
    { show } { -0.001 mul 0 cairo_font_matrix dtransform rmoveto } ifelse
  } forall
  currentpoint cairo_store_point
} bind def
/cairo_selectfont { cairo_font_matrix aload pop pop pop 0 0 6 array astore
    cairo_font exch selectfont cairo_point_x cairo_point_y moveto } bind def
/Tf { pop /cairo_font exch def /cairo_font_matrix where
      { pop cairo_selectfont } if } bind def
/Td { matrix translate cairo_font_matrix matrix concatmatrix dup
      /cairo_font_matrix exch def dup 4 get exch 5 get cairo_store_point
      /cairo_font where { pop cairo_selectfont } if } bind def
/Tm { 2 copy 8 2 roll 6 array astore /cairo_font_matrix exch def
      cairo_store_point /cairo_font where { pop cairo_selectfont } if } bind def
/g { setgray } bind def
/rg { setrgbcolor } bind def
/d1 { setcachedevice } bind def
%%EndProlog
%%Page: 1 1
%%BeginPageSetup
%%PageBoundingBox: 0 -1 773 640
%%EndPageSetup
q 0 -1 773 641 rectclip q
0 639.206 773 -640 re W n
0 g
58.273 4.401 m 210.512 82.643 l 222.273 88.643 230.273 100.085 231.871 
113.202 c 270.273 261.284 l 397.473 182.245 l 372.992 49.202 l 368.992 
27.444 383.391 6.643 405.074 2.643 c 407.551 2.163 409.953 2.003 
412.352 2.003 c 431.312 2.003 448.113 15.522 451.633 34.804 c 480.352 
190.721 l 482.992 204.882 477.793 219.362 466.754 228.561 c 344.754 
330.964 l 554.992 346.245 l 642.832 151.522 l 648.512 138.964 660.914 
131.522 673.871 131.522 c 678.512 131.522 683.312 132.483 687.871 
134.561 c 704.992 142.323 712.594 162.401 704.914 179.522 c 704.914 
179.522 604.352 402.323 604.273 402.561 c 589.074 436.245 560.434 
531.042 507.391 513.764 c 204.113 414.804 l 189.473 410.003 179.391 
396.483 179.074 381.042 c 177.871 323.202 l 155.152 144.163 l 21.711 
75.522 l 2.031 65.444 -5.648 41.284 4.434 21.682 c 11.551 7.925 25.551 
0.003 40.031 0.003 c 46.191 -0.075 52.434 1.362 58.273 4.401 c h
58.273 4.401 m f
718.191 628.721 m 668.512 654.085 606.191 631.843 579.312 579.124 c 
568.031 557.042 563.711 532.163 568.113 508.401 c 568.512 506.245 
569.953 504.401 571.871 503.362 c 578.434 500.003 l 580.273 499.042 
582.434 498.882 584.352 499.682 c 585.473 500.163 587.074 500.245 
589.234 499.124 c 590.914 498.245 592.594 497.042 594.352 495.362 c 
600.191 489.843 603.793 482.483 607.234 475.362 c 611.312 467.042 
615.953 460.085 622.914 453.925 c 639.633 439.202 665.391 431.843 
683.074 449.202 c 684.914 450.964 686.512 452.882 687.953 454.804 c 
688.594 455.682 689.793 455.843 690.754 455.284 c 691.551 454.721 
692.434 454.163 693.234 453.604 c 694.031 453.042 694.352 452.085 
694.031 451.124 c 692.992 448.323 691.953 445.444 690.992 442.643 c 
688.754 435.604 687.152 428.085 688.672 420.721 c 690.273 412.964 
695.152 406.003 700.992 400.804 c 705.953 396.401 711.711 393.764 
717.871 391.604 c 719.551 390.964 721.391 391.604 722.434 393.124 c 
729.234 403.042 753.871 439.284 753.871 439.284 c 755.152 441.124 
754.832 443.682 753.152 445.202 c 705.871 486.643 l 704.754 487.522 
704.754 489.202 705.793 490.163 c 709.391 493.362 713.152 495.764 
717.871 496.804 c 729.473 499.444 740.113 494.483 751.633 495.362 c 
768.512 496.643 771.152 515.604 771.871 529.284 c 772.672 544.643 
770.191 560.323 764.992 574.804 c 756.754 598.003 740.191 617.522 
718.191 628.721 c h
717.391 525.522 m 714.031 518.882 705.953 516.323 699.312 519.682 c 
692.672 523.042 690.113 531.124 693.473 537.764 c 696.832 544.401 
704.914 546.964 711.551 543.604 c 718.191 540.245 720.754 532.085 
717.391 525.522 c h
717.391 525.522 m f
732.832 108.964 m 732.594 111.764 730.754 114.163 728.113 115.042 c 
696.113 126.003 660.914 122.085 633.953 101.124 c 606.992 80.163 
594.512 47.042 597.234 13.362 c 597.473 10.561 599.312 8.163 601.953 
7.284 c 633.953 -3.677 669.152 0.245 696.113 21.202 c 723.074 42.163 
735.551 75.202 732.832 108.964 c h
732.832 108.964 m f
Q Q
showpage
%%Trailer
count op_count sub {pop} repeat
countdictstack dict_count sub {end} repeat
cairo_eps_state restore
%%EOF
