%!PS-Adobe-3.0 EPSF-3.0
%%Creator: cairo 1.10.2 (http://cairographics.org)
%%CreationDate: Fri Jul 11 07:15:02 2014
%%Pages: 1
%%BoundingBox: 0 0 756 528
%%DocumentData: Clean7Bit
%%LanguageLevel: 2
%%EndComments
%%BeginProlog
/cairo_eps_state save def
/dict_count countdictstack def
/op_count count 1 sub def
userdict begin
/q { gsave } bind def
/Q { grestore } bind def
/cm { 6 array astore concat } bind def
/w { setlinewidth } bind def
/J { setlinecap } bind def
/j { setlinejoin } bind def
/M { setmiterlimit } bind def
/d { setdash } bind def
/m { moveto } bind def
/l { lineto } bind def
/c { curveto } bind def
/h { closepath } bind def
/re { exch dup neg 3 1 roll 5 3 roll moveto 0 rlineto
      0 exch rlineto 0 rlineto closepath } bind def
/S { stroke } bind def
/f { fill } bind def
/f* { eofill } bind def
/n { newpath } bind def
/W { clip } bind def
/W* { eoclip } bind def
/BT { } bind def
/ET { } bind def
/pdfmark where { pop globaldict /?pdfmark /exec load put }
    { globaldict begin /?pdfmark /pop load def /pdfmark
    /cleartomark load def end } ifelse
/BDC { mark 3 1 roll /BDC pdfmark } bind def
/EMC { mark /EMC pdfmark } bind def
/cairo_store_point { /cairo_point_y exch def /cairo_point_x exch def } def
/Tj { show currentpoint cairo_store_point } bind def
/TJ {
  {
    dup
    type /stringtype eq
    { show } { -0.001 mul 0 cairo_font_matrix dtransform rmoveto } ifelse
  } forall
  currentpoint cairo_store_point
} bind def
/cairo_selectfont { cairo_font_matrix aload pop pop pop 0 0 6 array astore
    cairo_font exch selectfont cairo_point_x cairo_point_y moveto } bind def
/Tf { pop /cairo_font exch def /cairo_font_matrix where
      { pop cairo_selectfont } if } bind def
/Td { matrix translate cairo_font_matrix matrix concatmatrix dup
      /cairo_font_matrix exch def dup 4 get exch 5 get cairo_store_point
      /cairo_font where { pop cairo_selectfont } if } bind def
/Tm { 2 copy 8 2 roll 6 array astore /cairo_font_matrix exch def
      cairo_store_point /cairo_font where { pop cairo_selectfont } if } bind def
/g { setgray } bind def
/rg { setrgbcolor } bind def
/d1 { setcachedevice } bind def
%%EndProlog
%%Page: 1 1
%%BeginPageSetup
%%PageBoundingBox: 0 0 756 528
%%EndPageSetup
q 0 0 756 528 rectclip q
0 g
79.199 82.48 m 676 82.48 l 676 445.52 l 79.199 445.52 l h
608.32 265.602 m 608.32 127.762 l 608.32 122.238 603.84 117.84 598.398 
117.84 c 502.801 117.84 l 497.281 117.84 492.879 122.32 492.879 127.762 
c 492.879 265.602 l 492.879 271.121 497.359 275.52 502.801 275.52 c 
598.398 275.52 l 603.84 275.52 608.32 271.121 608.32 265.602 c h
251.359 404.078 m 251.359 409.602 255.84 414 261.281 414 c 514.32 414 l 
519.84 414 524.238 409.52 524.238 404.078 c 524.238 324.16 l 524.238 
318.641 519.762 314.238 514.32 314.238 c 261.281 314.238 l 255.762 
314.238 251.359 318.719 251.359 324.16 c h
146.879 265.602 m 146.879 271.121 151.359 275.52 156.801 275.52 c 
252.32 275.52 l 257.84 275.52 262.238 271.039 262.238 265.602 c 262.238 
127.762 l 262.238 122.238 257.762 117.84 252.32 117.84 c 156.801 117.84 
l 151.281 117.84 146.879 122.32 146.879 127.762 c h
146.879 265.602 m f
702.801 528 m 52.398 528 l 23.441 528 0 504.559 0 475.602 c 0 52.398 l 
0 23.52 23.441 0 52.398 0 c 702.879 0 l 731.762 0 755.281 23.441 
755.281 52.398 c 755.281 475.602 l 755.199 504.559 731.762 528 702.801 
528 c h
716 73.68 m 716 56.48 702 42.48 684.801 42.48 c 70.398 42.48 l 53.199 
42.48 39.199 56.48 39.199 73.68 c 39.199 454.32 l 39.199 471.52 53.199 
485.52 70.398 485.52 c 684.801 485.52 l 702 485.52 716 471.52 716 
454.32 c h
716 73.68 m f
Q Q
showpage
%%Trailer
count op_count sub {pop} repeat
countdictstack dict_count sub {end} repeat
cairo_eps_state restore
%%EOF
