%!PS-Adobe-3.0 EPSF-3.0
%%Creator: cairo 1.10.2 (http://cairographics.org)
%%CreationDate: Mon Jul 14 07:17:18 2014
%%Pages: 1
%%BoundingBox: 0 -1 767 715
%%DocumentData: Clean7Bit
%%LanguageLevel: 2
%%EndComments
%%BeginProlog
/cairo_eps_state save def
/dict_count countdictstack def
/op_count count 1 sub def
userdict begin
/q { gsave } bind def
/Q { grestore } bind def
/cm { 6 array astore concat } bind def
/w { setlinewidth } bind def
/J { setlinecap } bind def
/j { setlinejoin } bind def
/M { setmiterlimit } bind def
/d { setdash } bind def
/m { moveto } bind def
/l { lineto } bind def
/c { curveto } bind def
/h { closepath } bind def
/re { exch dup neg 3 1 roll 5 3 roll moveto 0 rlineto
      0 exch rlineto 0 rlineto closepath } bind def
/S { stroke } bind def
/f { fill } bind def
/f* { eofill } bind def
/n { newpath } bind def
/W { clip } bind def
/W* { eoclip } bind def
/BT { } bind def
/ET { } bind def
/pdfmark where { pop globaldict /?pdfmark /exec load put }
    { globaldict begin /?pdfmark /pop load def /pdfmark
    /cleartomark load def end } ifelse
/BDC { mark 3 1 roll /BDC pdfmark } bind def
/EMC { mark /EMC pdfmark } bind def
/cairo_store_point { /cairo_point_y exch def /cairo_point_x exch def } def
/Tj { show currentpoint cairo_store_point } bind def
/TJ {
  {
    dup
    type /stringtype eq
    { show } { -0.001 mul 0 cairo_font_matrix dtransform rmoveto } ifelse
  } forall
  currentpoint cairo_store_point
} bind def
/cairo_selectfont { cairo_font_matrix aload pop pop pop 0 0 6 array astore
    cairo_font exch selectfont cairo_point_x cairo_point_y moveto } bind def
/Tf { pop /cairo_font exch def /cairo_font_matrix where
      { pop cairo_selectfont } if } bind def
/Td { matrix translate cairo_font_matrix matrix concatmatrix dup
      /cairo_font_matrix exch def dup 4 get exch 5 get cairo_store_point
      /cairo_font where { pop cairo_selectfont } if } bind def
/Tm { 2 copy 8 2 roll 6 array astore /cairo_font_matrix exch def
      cairo_store_point /cairo_font where { pop cairo_selectfont } if } bind def
/g { setgray } bind def
/rg { setrgbcolor } bind def
/d1 { setcachedevice } bind def
%%EndProlog
%%Page: 1 1
%%BeginPageSetup
%%PageBoundingBox: 0 -1 767 715
%%EndPageSetup
q 0 -1 767 716 rectclip q
0 714.923 767 -715 re W n
0 g
238.082 280.962 m 238.082 570.481 l 238.082 583.122 244.965 595.2 
256.965 603.68 c 266.562 610.399 278.645 614.239 290.082 614.239 c 
297.684 614.239 305.762 611.841 313.203 607.598 c 313.203 607.919 l 
313.203 620.559 320.082 632.641 332.082 641.122 c 341.684 647.841 
353.762 651.68 365.203 651.68 c 376.562 651.68 387.605 647.841 396.965 
640.559 c 397.125 640.399 l 402.645 636.001 409.125 628.641 411.363 
616.962 c 420.082 622.001 430.242 624.801 440.004 624.801 c 450.242 
624.801 461.203 620.88 470.082 614.001 c 481.043 605.52 487.285 593.52 
487.285 581.04 c 487.285 551.841 l 494.164 555.438 502.082 557.36 
510.164 557.36 c 521.922 557.36 533.203 553.122 542.004 545.438 c 
551.523 537.122 556.965 525.52 556.965 513.52 c 556.965 284.001 l 
636.965 316.88 707.203 373.2 760.242 445.68 c 767.844 456.001 768.562 
469.841 762.082 480.88 c 684.484 614.719 551.043 706.161 395.445 
714.321 c 239.762 722.559 97.523 645.68 6.242 520.801 c -1.355 510.481 
-2.078 496.641 4.402 485.598 c 58.805 392.001 140.562 319.122 238.082 
280.962 c h
238.082 280.962 m f
298.805 0.001 m 501.285 0.001 l 511.922 0.001 520.484 8.559 520.484 
19.2 c 520.484 101.2 l 520.645 101.2 l 533.125 111.919 536.965 132.001 
536.965 149.68 c 536.965 513.598 l 536.965 526.719 524.324 537.36 
510.164 537.36 c 495.125 537.36 483.363 526.719 483.363 513.598 c 
483.363 388.641 l 483.363 384.239 479.922 380.399 475.523 380.321 c 
475.363 380.321 l 470.402 380.321 467.285 384.321 467.285 389.2 c 
467.285 581.04 l 467.285 595.122 451.203 604.801 440.004 604.801 c 
424.965 604.801 408.324 594.161 408.324 581.04 c 408.324 388.641 l 
408.324 384.239 404.883 380.399 400.484 380.321 c 400.324 380.321 l 
395.363 380.321 392.242 384.321 392.242 389.2 c 392.242 607.841 l 
392.242 614.399 390.324 620.321 384.805 624.641 c 379.285 628.88 
372.723 631.598 365.285 631.598 c 350.242 631.598 333.285 620.962 
333.285 607.841 c 333.285 388.641 l 333.285 384.239 329.844 380.399 
325.445 380.321 c 325.285 380.321 l 320.324 380.321 317.203 384.321 
317.203 389.2 c 317.203 570.481 l 317.203 583.36 301.125 594.239 
290.164 594.239 c 275.125 594.239 258.164 583.598 258.164 570.481 c 
258.164 258.962 l 258.164 248.239 253.605 239.36 242.484 239.36 c 
233.363 239.36 227.285 245.68 226.164 254.719 c 226.004 255.919 225.445 
262.641 225.445 262.641 c 225.445 262.641 202.324 266.719 172.324 
287.52 c 172.324 226.559 l 172.324 217.122 174.484 200.801 190.562 
184.719 c 278.082 104.641 l 278.562 104.161 279.043 101.841 279.684 
101.36 c 279.684 19.2 l 279.605 8.559 288.242 0.001 298.805 0.001 c h
298.805 0.001 m f
Q Q
showpage
%%Trailer
count op_count sub {pop} repeat
countdictstack dict_count sub {end} repeat
cairo_eps_state restore
%%EOF
