%!PS-Adobe-3.0 EPSF-3.0
%%Creator: cairo 1.10.2 (http://cairographics.org)
%%CreationDate: Tue Jul  8 07:16:29 2014
%%Pages: 1
%%BoundingBox: 0 -1 745 673
%%DocumentData: Clean7Bit
%%LanguageLevel: 2
%%EndComments
%%BeginProlog
/cairo_eps_state save def
/dict_count countdictstack def
/op_count count 1 sub def
userdict begin
/q { gsave } bind def
/Q { grestore } bind def
/cm { 6 array astore concat } bind def
/w { setlinewidth } bind def
/J { setlinecap } bind def
/j { setlinejoin } bind def
/M { setmiterlimit } bind def
/d { setdash } bind def
/m { moveto } bind def
/l { lineto } bind def
/c { curveto } bind def
/h { closepath } bind def
/re { exch dup neg 3 1 roll 5 3 roll moveto 0 rlineto
      0 exch rlineto 0 rlineto closepath } bind def
/S { stroke } bind def
/f { fill } bind def
/f* { eofill } bind def
/n { newpath } bind def
/W { clip } bind def
/W* { eoclip } bind def
/BT { } bind def
/ET { } bind def
/pdfmark where { pop globaldict /?pdfmark /exec load put }
    { globaldict begin /?pdfmark /pop load def /pdfmark
    /cleartomark load def end } ifelse
/BDC { mark 3 1 roll /BDC pdfmark } bind def
/EMC { mark /EMC pdfmark } bind def
/cairo_store_point { /cairo_point_y exch def /cairo_point_x exch def } def
/Tj { show currentpoint cairo_store_point } bind def
/TJ {
  {
    dup
    type /stringtype eq
    { show } { -0.001 mul 0 cairo_font_matrix dtransform rmoveto } ifelse
  } forall
  currentpoint cairo_store_point
} bind def
/cairo_selectfont { cairo_font_matrix aload pop pop pop 0 0 6 array astore
    cairo_font exch selectfont cairo_point_x cairo_point_y moveto } bind def
/Tf { pop /cairo_font exch def /cairo_font_matrix where
      { pop cairo_selectfont } if } bind def
/Td { matrix translate cairo_font_matrix matrix concatmatrix dup
      /cairo_font_matrix exch def dup 4 get exch 5 get cairo_store_point
      /cairo_font where { pop cairo_selectfont } if } bind def
/Tm { 2 copy 8 2 roll 6 array astore /cairo_font_matrix exch def
      cairo_store_point /cairo_font where { pop cairo_selectfont } if } bind def
/g { setgray } bind def
/rg { setrgbcolor } bind def
/d1 { setcachedevice } bind def
%%EndProlog
%%Page: 1 1
%%BeginPageSetup
%%PageBoundingBox: 0 -1 745 673
%%EndPageSetup
q 0 -1 745 674 rectclip q
0 672.537 745 -673 re W n
0 g
710.336 471.92 m 511.293 471.92 l 509.535 471.92 507.855 472.4 506.336 
473.279 c 486.094 485.6 435.293 517.119 426.254 522.158 c 417.535 
527.041 410.254 531.439 400.016 531.439 c 239.855 525.201 l 227.695 
524.721 216.734 517.76 211.055 507.041 c 205.375 496.318 205.934 
483.279 212.414 473.041 c 273.535 376.639 l 237.613 336.881 l 232.016 
330.721 227.453 323.682 224.016 316.08 c 189.613 239.92 l 187.613 
235.521 182.652 233.279 178.016 234.721 c 52.016 274.24 l 30.895 
280.881 8.492 269.119 1.855 248.002 c -4.785 226.881 6.973 204.479 
28.094 197.842 c 196.094 145.201 l 200.094 143.92 204.094 143.361 
208.094 143.361 c 223.453 143.361 237.934 152.24 244.574 166.881 c 
282.492 250.881 l 285.133 256.721 292.574 258.4 297.453 254.24 c 
315.934 238.561 356.176 205.521 374.254 190.721 c 378.973 186.881 
378.973 179.682 374.176 175.842 c 244.574 71.041 l 227.375 57.119 
224.734 31.92 238.652 14.799 c 246.574 5.041 258.094 0.002 269.773 
0.002 c 278.574 0.002 287.535 2.881 294.895 8.881 c 472.176 152.4 l 
481.535 160.002 486.973 171.439 486.973 183.521 c 486.973 195.6 481.535 
207.041 472.094 214.639 c 388.734 282.002 l 384.414 285.521 383.934 
292.002 387.773 296.002 c 481.535 396.08 l 486.336 401.201 492.973 
404.08 499.934 404.08 c 710.895 404.08 l 729.855 404.08 745.215 419.6 
744.895 438.639 c 744.574 457.201 728.973 471.92 710.336 471.92 c h
406.492 401.521 m 392.812 377.6 360.895 365.76 334.734 368.002 c 
342.414 378.881 343.215 393.842 335.613 405.76 c 322.414 426.561 l 
316.016 436.721 l 310.492 445.439 l 306.492 451.682 310.812 459.92 
318.254 460.158 c 356.734 461.682 l 336.492 441.041 l 340.254 441.361 
344.016 441.361 347.773 441.119 c 361.855 440.158 375.453 435.521 
386.895 427.119 c 392.176 423.119 410.973 409.361 406.492 401.521 c h
406.492 401.521 m f
566.414 564.318 m 575.215 568.158 584.492 565.842 593.535 568.318 c 
606.734 571.92 606.016 587.439 604.492 598.4 c 602.812 610.721 598.414 
622.881 592.094 633.6 c 582.016 650.799 565.855 663.842 546.574 669.439 
c 503.133 682.08 456.895 654.881 443.453 608.799 c 437.855 589.521 
438.176 569.041 445.293 550.799 c 445.934 549.119 447.375 547.842 
449.055 547.361 c 454.812 545.682 l 456.414 545.201 458.176 545.439 
459.613 546.318 c 460.414 546.881 461.695 547.201 463.535 546.639 c 
464.973 546.24 466.574 545.439 468.176 544.479 c 473.695 540.959 
477.613 535.682 481.453 530.479 c 485.934 524.479 490.734 519.682 
497.215 515.76 c 512.734 506.561 534.414 504.639 545.855 521.119 c 
547.055 522.799 548.016 524.561 548.895 526.318 c 549.293 527.119 
550.254 527.439 551.055 527.119 c 551.773 526.799 552.574 526.479 
553.293 526.158 c 554.016 525.842 554.414 525.119 554.336 524.318 c 
553.934 521.92 553.535 519.521 553.215 517.119 c 552.492 511.201 
552.336 504.959 554.652 499.279 c 557.055 493.361 562.016 488.561 
567.453 485.279 c 572.094 482.561 577.055 481.279 582.336 480.479 c 
583.773 480.24 585.133 481.041 585.773 482.318 c 589.695 491.279 
603.773 523.842 603.773 523.842 c 604.492 525.521 603.855 527.521 
602.254 528.4 c 558.254 554.24 l 557.215 554.799 556.973 556.08 557.695 
557.041 c 560.176 560.24 562.812 562.721 566.414 564.318 c h
505.695 551.842 m 503.453 546.24 497.055 543.6 491.453 545.92 c 485.855 
548.24 483.215 554.561 485.535 560.158 c 487.855 565.76 494.176 568.4 
499.773 566.08 c 505.375 563.76 508.016 557.361 505.695 551.842 c h
505.695 551.842 m f
Q Q
showpage
%%Trailer
count op_count sub {pop} repeat
countdictstack dict_count sub {end} repeat
cairo_eps_state restore
%%EOF
