%!PS-Adobe-3.0 EPSF-3.0
%%Creator: cairo 1.10.2 (http://cairographics.org)
%%CreationDate: Thu Jul 10 14:00:35 2014
%%Pages: 1
%%BoundingBox: 0 -1 775 457
%%DocumentData: Clean7Bit
%%LanguageLevel: 2
%%EndComments
%%BeginProlog
/cairo_eps_state save def
/dict_count countdictstack def
/op_count count 1 sub def
userdict begin
/q { gsave } bind def
/Q { grestore } bind def
/cm { 6 array astore concat } bind def
/w { setlinewidth } bind def
/J { setlinecap } bind def
/j { setlinejoin } bind def
/M { setmiterlimit } bind def
/d { setdash } bind def
/m { moveto } bind def
/l { lineto } bind def
/c { curveto } bind def
/h { closepath } bind def
/re { exch dup neg 3 1 roll 5 3 roll moveto 0 rlineto
      0 exch rlineto 0 rlineto closepath } bind def
/S { stroke } bind def
/f { fill } bind def
/f* { eofill } bind def
/n { newpath } bind def
/W { clip } bind def
/W* { eoclip } bind def
/BT { } bind def
/ET { } bind def
/pdfmark where { pop globaldict /?pdfmark /exec load put }
    { globaldict begin /?pdfmark /pop load def /pdfmark
    /cleartomark load def end } ifelse
/BDC { mark 3 1 roll /BDC pdfmark } bind def
/EMC { mark /EMC pdfmark } bind def
/cairo_store_point { /cairo_point_y exch def /cairo_point_x exch def } def
/Tj { show currentpoint cairo_store_point } bind def
/TJ {
  {
    dup
    type /stringtype eq
    { show } { -0.001 mul 0 cairo_font_matrix dtransform rmoveto } ifelse
  } forall
  currentpoint cairo_store_point
} bind def
/cairo_selectfont { cairo_font_matrix aload pop pop pop 0 0 6 array astore
    cairo_font exch selectfont cairo_point_x cairo_point_y moveto } bind def
/Tf { pop /cairo_font exch def /cairo_font_matrix where
      { pop cairo_selectfont } if } bind def
/Td { matrix translate cairo_font_matrix matrix concatmatrix dup
      /cairo_font_matrix exch def dup 4 get exch 5 get cairo_store_point
      /cairo_font where { pop cairo_selectfont } if } bind def
/Tm { 2 copy 8 2 roll 6 array astore /cairo_font_matrix exch def
      cairo_store_point /cairo_font where { pop cairo_selectfont } if } bind def
/g { setgray } bind def
/rg { setrgbcolor } bind def
/d1 { setcachedevice } bind def
%%EndProlog
%%Page: 1 1
%%BeginPageSetup
%%PageBoundingBox: 0 -1 775 457
%%EndPageSetup
q 0 -1 775 458 rectclip q
0 456.854 775 -457 re W n
0 g
754.176 401.041 m 734.816 411.76 710.496 404.799 699.777 385.44 c 
629.137 257.998 l 626.336 256.401 l 644.176 320.721 l 648.258 335.44 
643.617 351.202 632.176 361.362 c 535.777 446.799 l 519.215 461.44 
493.938 459.92 479.297 443.362 c 464.656 426.799 466.176 401.522 
482.734 386.881 c 560.496 317.998 l 528.578 202.959 l 279.535 175.202 l 
273.617 174.799 267.938 172.799 263.137 169.522 c 236.656 151.44 l 
225.215 143.6 219.855 129.362 223.297 115.92 c 230.418 88.08 l 199.535 
70.959 l 100.734 103.678 l 100.977 105.6 101.137 107.522 101.297 
109.522 c 103.375 143.6 86.895 174.881 59.695 195.119 c 57.457 196.799 
54.418 196.959 52.016 195.6 c 22.578 178.881 2.336 149.838 0.176 115.76 
c -1.902 81.678 14.578 50.401 41.777 30.159 c 44.016 28.479 47.055 
28.319 49.457 29.678 c 56.098 33.44 62.336 37.92 67.938 42.881 c 
192.336 1.76 l 195.855 0.639 199.457 -0.002 202.977 -0.002 c 208.656 
-0.002 214.336 1.44 219.457 4.241 c 305.855 52.08 l 345.855 50.241 l 
350.258 49.998 354.656 50.721 358.734 52.241 c 398.418 66.799 438.098 
81.28 477.777 95.838 c 515.695 109.76 552.734 123.119 587.855 143.28 c 
606.578 154.08 625.617 164.319 644.496 174.799 c 655.777 181.041 
666.977 187.362 678.258 193.6 c 684.734 197.202 690.098 202.639 693.777 
209.119 c 769.938 346.561 l 780.496 365.998 773.535 390.319 754.176 
401.041 c h
754.176 401.041 m f
129.855 209.678 m 138.734 207.998 147.457 210.959 156.258 207.998 c 
159.855 206.799 162.578 204.561 165.055 201.76 c 165.777 200.959 
165.617 199.678 164.734 199.041 c 124.418 170.721 l 122.977 169.678 
122.496 167.76 123.297 166.159 c 123.297 166.159 139.457 135.92 143.938 
127.6 c 144.578 126.401 146.016 125.76 147.375 126.08 c 152.418 127.28 
157.055 128.881 161.297 131.838 c 166.258 135.362 170.656 140.401 
172.496 146.319 c 174.258 151.92 173.695 157.92 172.496 163.6 c 172.016 
165.92 171.457 168.159 170.895 170.479 c 170.734 171.202 171.055 
171.998 171.695 172.319 c 172.418 172.639 173.055 173.041 173.777 
173.362 c 174.496 173.76 175.457 173.522 175.938 172.721 c 176.895 
171.119 178.016 169.522 179.297 167.998 c 191.617 152.959 212.258 
156.561 226.496 166.639 c 232.496 170.881 236.656 175.838 240.496 
181.998 c 243.777 187.28 247.215 192.721 252.176 196.479 c 253.617 
197.6 255.055 198.401 256.496 198.959 c 258.258 199.6 259.457 199.44 
260.336 198.959 c 261.777 198.159 263.457 198.159 264.977 198.721 c 
270.418 200.799 l 272.016 201.44 273.297 202.721 273.777 204.401 c 
279.137 222.479 277.938 242.241 270.977 260.401 c 254.418 303.678 
207.777 326.241 166.977 310.639 c 148.895 303.76 134.336 289.92 126.016 
272.561 c 120.816 261.76 117.535 249.678 116.895 237.678 c 116.418 
227.041 116.895 212.08 129.855 209.678 c h
165.215 243.76 m 170.656 245.838 176.734 243.119 178.816 237.678 c 
180.895 232.241 178.176 226.159 172.734 224.08 c 167.297 221.998 
161.215 224.721 159.137 230.159 c 157.055 235.678 159.777 241.76 
165.215 243.76 c h
165.215 243.76 m f
Q Q
showpage
%%Trailer
count op_count sub {pop} repeat
countdictstack dict_count sub {end} repeat
cairo_eps_state restore
%%EOF
