%!PS-Adobe-3.0 EPSF-3.0
%%Creator: cairo 1.10.2 (http://cairographics.org)
%%CreationDate: Mon Jul 14 07:17:17 2014
%%Pages: 1
%%BoundingBox: 0 -1 628 789
%%DocumentData: Clean7Bit
%%LanguageLevel: 2
%%EndComments
%%BeginProlog
/cairo_eps_state save def
/dict_count countdictstack def
/op_count count 1 sub def
userdict begin
/q { gsave } bind def
/Q { grestore } bind def
/cm { 6 array astore concat } bind def
/w { setlinewidth } bind def
/J { setlinecap } bind def
/j { setlinejoin } bind def
/M { setmiterlimit } bind def
/d { setdash } bind def
/m { moveto } bind def
/l { lineto } bind def
/c { curveto } bind def
/h { closepath } bind def
/re { exch dup neg 3 1 roll 5 3 roll moveto 0 rlineto
      0 exch rlineto 0 rlineto closepath } bind def
/S { stroke } bind def
/f { fill } bind def
/f* { eofill } bind def
/n { newpath } bind def
/W { clip } bind def
/W* { eoclip } bind def
/BT { } bind def
/ET { } bind def
/pdfmark where { pop globaldict /?pdfmark /exec load put }
    { globaldict begin /?pdfmark /pop load def /pdfmark
    /cleartomark load def end } ifelse
/BDC { mark 3 1 roll /BDC pdfmark } bind def
/EMC { mark /EMC pdfmark } bind def
/cairo_store_point { /cairo_point_y exch def /cairo_point_x exch def } def
/Tj { show currentpoint cairo_store_point } bind def
/TJ {
  {
    dup
    type /stringtype eq
    { show } { -0.001 mul 0 cairo_font_matrix dtransform rmoveto } ifelse
  } forall
  currentpoint cairo_store_point
} bind def
/cairo_selectfont { cairo_font_matrix aload pop pop pop 0 0 6 array astore
    cairo_font exch selectfont cairo_point_x cairo_point_y moveto } bind def
/Tf { pop /cairo_font exch def /cairo_font_matrix where
      { pop cairo_selectfont } if } bind def
/Td { matrix translate cairo_font_matrix matrix concatmatrix dup
      /cairo_font_matrix exch def dup 4 get exch 5 get cairo_store_point
      /cairo_font where { pop cairo_selectfont } if } bind def
/Tm { 2 copy 8 2 roll 6 array astore /cairo_font_matrix exch def
      cairo_store_point /cairo_font where { pop cairo_selectfont } if } bind def
/g { setgray } bind def
/rg { setrgbcolor } bind def
/d1 { setcachedevice } bind def
%%EndProlog
%%Page: 1 1
%%BeginPageSetup
%%PageBoundingBox: 0 -1 628 789
%%EndPageSetup
q 0 -1 628 790 rectclip q
0 788.454 628 -789 re W n
0 g
41.559 81.735 m 314.359 161.813 l 316.84 162.532 319.078 163.493 
321.238 164.692 c 94.039 164.692 l 23.32 143.973 l 6.121 138.934 -3.719 
120.934 1.32 103.735 c 6.359 86.532 24.359 76.692 41.559 81.735 c h
41.559 81.735 m f
601.559 11.895 m 612.918 25.735 610.84 46.215 597 57.493 c 466.039 
164.692 l 363.641 164.692 l 555.879 7.332 l 569.801 -4.027 590.199 
-1.945 601.559 11.895 c h
601.559 11.895 m f
468.758 184.692 m 462.52 197.493 429 250.133 416.438 282.454 c 271.559 
282.454 l 240.281 258.375 152.918 203.332 128.359 184.692 c h
468.758 184.692 m f
66.84 682.215 m 67.398 678.375 91.641 679.653 92.68 675.973 c 93.801 
672.215 72.68 660.293 74.281 656.774 c 75.879 653.254 98.758 661.332 
100.84 658.133 c 102.918 654.852 86.121 637.414 88.598 634.532 c 91.16 
631.653 110.758 645.813 113.719 643.254 c 116.598 640.692 105.398 
619.254 108.598 617.172 c 111.801 615.094 126.68 634.215 130.199 
632.614 c 133.719 631.012 128.918 607.254 132.68 606.133 c 135.879 
605.172 143 622.215 147.32 626.215 c 147.961 626.852 148.52 627.172 
149.078 627.094 c 150.84 626.852 152.199 621.575 153.559 616.055 c 
155.16 609.493 156.758 602.454 158.918 602.454 c 159.559 602.454 
160.199 603.172 160.758 604.293 c 162.121 607.012 163.32 612.454 164.52 
617.254 c 165.801 622.375 167.078 626.934 168.758 627.094 c 169.48 
627.172 170.359 626.532 171.32 625.414 c 269.48 464.454 l 265.48 
457.172 263.16 448.454 263.16 439.172 c 263.16 426.055 269.719 413.813 
273.961 401.172 c 278.68 387.254 287.641 329.172 284.84 302.454 c 
411.641 302.454 l 410.359 330.532 415.238 361.254 420.039 388.774 c 
422.918 405.575 433.719 422.215 433.719 439.094 c 433.719 440.215 l 
452.281 425.973 490.121 397.012 490.121 397.012 c 494.438 394.215 
500.121 392.774 505.398 392.692 c 505.559 392.692 l 518.918 392.692 
529.801 403.493 529.879 416.934 c 530.121 489.414 l 531.641 483.254 
533.16 477.094 535.16 477.094 c 537.16 477.094 538.68 483.172 540.121 
489.254 c 541.641 495.332 543.078 501.493 545 501.735 c 546.281 501.895 
548.121 499.493 550.199 496.293 c 554.199 489.813 558.918 480.133 
561.398 480.852 c 565.16 481.973 560.359 505.735 563.879 507.332 c 
567.398 508.934 582.281 489.813 585.48 491.895 c 588.758 493.973 577.48 
515.493 580.359 517.973 c 583.238 520.532 602.918 506.293 605.48 
509.254 c 608.039 512.133 591.16 529.575 593.238 532.852 c 595.32 
536.055 618.199 527.973 619.801 531.493 c 621.398 535.012 600.359 
546.934 601.398 550.692 c 602.438 554.375 626.68 553.094 627.238 
556.934 c 627.801 560.692 604.199 566.215 604.199 570.133 c 604.199 
574.055 627.801 579.575 627.238 583.332 c 626.68 587.172 602.438 
585.895 601.398 589.575 c 600.281 593.332 621.398 605.254 619.801 
608.774 c 618.199 612.293 595.32 604.215 593.238 607.414 c 591.16 
610.692 607.961 628.133 605.48 631.012 c 602.918 633.895 583.32 619.735 
580.359 622.293 c 577.48 624.852 588.68 646.293 585.48 648.375 c 
582.281 650.454 567.398 631.332 563.879 632.934 c 560.359 634.532 
565.16 658.293 561.398 659.414 c 557.719 660.454 548.918 637.895 545 
638.454 c 541.238 639.012 539.078 663.172 535.16 663.172 c 531.238 
663.172 529.078 639.012 525.32 638.454 c 521.48 637.895 512.598 660.454 
508.918 659.414 c 505.16 658.293 509.961 634.532 506.438 632.934 c 
502.918 631.332 488.039 650.454 484.84 648.375 c 481.559 646.293 492.84 
624.774 489.961 622.293 c 487.078 619.735 467.398 633.973 464.84 
631.012 c 462.281 628.133 479.16 610.692 477.078 607.414 c 475 604.215 
452.121 612.293 450.52 608.774 c 448.918 605.254 469.961 593.332 
468.918 589.575 c 467.879 585.895 443.641 587.172 443.078 583.332 c 
442.52 579.575 466.121 574.055 466.121 570.133 c 466.121 566.215 442.52 
560.692 443.078 556.934 c 443.559 553.493 462.918 554.133 467.801 
551.735 c 468.359 551.414 468.758 551.094 468.918 550.692 c 469.32 
549.414 467.16 547.254 464.199 544.774 c 458.359 539.895 449.48 533.813 
450.52 531.493 c 451.238 529.973 455.801 530.614 461 531.575 c 464.52 
532.215 468.281 533.012 471.32 533.414 c 474.281 533.813 476.52 533.813 
477.16 532.852 c 478.199 531.254 474.52 526.055 470.918 520.934 c 
467.238 515.813 463.641 510.692 464.918 509.254 c 465.719 508.375 
467.961 509.012 470.918 510.375 c 473.961 511.735 477.559 513.653 
480.918 515.332 c 481.078 460.852 l 424.039 505.094 l 414.598 512.532 
400.359 512.532 389.16 512.532 c 304.121 512.532 l 299.398 512.532 295 
515.012 292.52 519.094 c 270.918 554.532 l 274.918 553.813 279 553.735 
282.918 554.055 c 286.598 554.375 290.199 555.012 293.559 555.813 c 
296.199 556.454 298.758 557.254 301.078 558.055 c 308.758 549.172 
318.199 538.215 329.559 532.454 c 333 530.692 336.68 529.414 340.52 
528.852 c 348.121 527.735 355.879 529.414 363.32 532.454 c 371.801 
535.895 379.801 540.934 386.758 545.414 c 397 537.895 412.598 529.735 
429.16 534.293 c 427.238 543.254 425.879 552.293 424.918 561.414 c 
422.359 585.735 428.121 609.254 415.559 631.653 c 404.199 651.895 
384.199 668.133 361.641 671.493 c 339.078 674.852 315.238 665.012 
298.52 648.934 c 281.879 632.934 279.16 611.813 271.879 591.332 c 
271.078 589.012 270.199 586.692 269.16 584.375 c 268.52 582.852 267.879 
581.332 267.16 579.813 c 265.559 576.133 263.879 572.532 262.121 
568.934 c 220.68 636.852 l 224.84 634.774 228.438 633.332 229.398 
634.454 c 231.961 637.332 215.078 654.774 217.16 658.055 c 217.398 
658.454 218.039 658.692 219 658.774 c 221.719 659.012 226.84 657.973 
231.801 657.012 c 237.559 655.895 243 655.012 243.801 656.692 c 245.398 
660.215 224.359 672.133 225.398 675.895 c 226.438 679.575 250.68 
678.293 251.238 682.133 c 251.801 685.895 228.199 691.414 228.199 
695.332 c 228.199 699.254 251.801 704.774 251.238 708.532 c 250.68 
712.375 226.438 711.094 225.398 714.774 c 224.281 718.532 245.398 
730.454 243.801 733.973 c 242.199 737.493 219.32 729.414 217.238 
732.614 c 215.16 735.895 231.961 753.332 229.48 756.215 c 226.918 
759.094 207.32 744.934 204.359 747.493 c 201.48 750.055 212.68 771.493 
209.48 773.575 c 206.281 775.653 191.398 756.532 187.879 758.133 c 
184.359 759.735 189.16 783.493 185.398 784.614 c 181.719 785.653 
172.918 763.094 169 763.653 c 165 764.293 162.84 788.454 158.918 
788.454 c 155 788.454 152.84 764.293 149.078 763.735 c 145.238 763.172 
136.359 785.735 132.68 784.692 c 128.918 783.575 133.719 759.813 
130.199 758.215 c 126.68 756.614 111.801 775.735 108.598 773.653 c 
105.32 771.575 116.598 750.055 113.719 747.575 c 110.84 745.012 91.16 
759.254 88.598 756.293 c 86.039 753.414 102.918 735.973 100.84 732.692 
c 98.758 729.493 75.879 737.575 74.281 734.055 c 72.68 730.532 93.719 
718.614 92.68 714.852 c 91.641 711.172 67.398 712.454 66.84 708.614 c 
66.281 704.852 89.879 699.332 89.879 695.414 c 89.879 691.493 66.281 
685.973 66.84 682.215 c h
66.84 682.215 m f
Q Q
showpage
%%Trailer
count op_count sub {pop} repeat
countdictstack dict_count sub {end} repeat
cairo_eps_state restore
%%EOF
