%!PS-Adobe-3.0 EPSF-3.0
%%Creator: cairo 1.10.2 (http://cairographics.org)
%%CreationDate: Mon Jul 14 07:17:11 2014
%%Pages: 1
%%BoundingBox: 0 -1 773 692
%%DocumentData: Clean7Bit
%%LanguageLevel: 2
%%EndComments
%%BeginProlog
/cairo_eps_state save def
/dict_count countdictstack def
/op_count count 1 sub def
userdict begin
/q { gsave } bind def
/Q { grestore } bind def
/cm { 6 array astore concat } bind def
/w { setlinewidth } bind def
/J { setlinecap } bind def
/j { setlinejoin } bind def
/M { setmiterlimit } bind def
/d { setdash } bind def
/m { moveto } bind def
/l { lineto } bind def
/c { curveto } bind def
/h { closepath } bind def
/re { exch dup neg 3 1 roll 5 3 roll moveto 0 rlineto
      0 exch rlineto 0 rlineto closepath } bind def
/S { stroke } bind def
/f { fill } bind def
/f* { eofill } bind def
/n { newpath } bind def
/W { clip } bind def
/W* { eoclip } bind def
/BT { } bind def
/ET { } bind def
/pdfmark where { pop globaldict /?pdfmark /exec load put }
    { globaldict begin /?pdfmark /pop load def /pdfmark
    /cleartomark load def end } ifelse
/BDC { mark 3 1 roll /BDC pdfmark } bind def
/EMC { mark /EMC pdfmark } bind def
/cairo_store_point { /cairo_point_y exch def /cairo_point_x exch def } def
/Tj { show currentpoint cairo_store_point } bind def
/TJ {
  {
    dup
    type /stringtype eq
    { show } { -0.001 mul 0 cairo_font_matrix dtransform rmoveto } ifelse
  } forall
  currentpoint cairo_store_point
} bind def
/cairo_selectfont { cairo_font_matrix aload pop pop pop 0 0 6 array astore
    cairo_font exch selectfont cairo_point_x cairo_point_y moveto } bind def
/Tf { pop /cairo_font exch def /cairo_font_matrix where
      { pop cairo_selectfont } if } bind def
/Td { matrix translate cairo_font_matrix matrix concatmatrix dup
      /cairo_font_matrix exch def dup 4 get exch 5 get cairo_store_point
      /cairo_font where { pop cairo_selectfont } if } bind def
/Tm { 2 copy 8 2 roll 6 array astore /cairo_font_matrix exch def
      cairo_store_point /cairo_font where { pop cairo_selectfont } if } bind def
/g { setgray } bind def
/rg { setrgbcolor } bind def
/d1 { setcachedevice } bind def
%%EndProlog
%%Page: 1 1
%%BeginPageSetup
%%PageBoundingBox: 0 -1 773 692
%%EndPageSetup
q 0 -1 773 693 rectclip q
0 691.04 773 -692 re W n
0 g
19.121 0.001 m 753.281 0.001 l 763.84 0.001 772.398 8.56 772.48 19.118 
c 772.961 107.759 l 772.961 118.399 764.398 126.962 753.762 126.962 c 
732.16 126.962 l 721.52 126.962 712.961 118.399 712.961 107.759 c 
712.961 69.599 l 712.961 64.321 708.641 60.001 703.359 60.001 c 663.359 
60.001 l 658.078 60.001 653.762 64.321 653.762 69.599 c 653.762 107.759 
l 653.762 118.399 645.199 126.962 634.559 126.962 c 612.961 126.962 l 
602.32 126.962 593.762 118.399 593.762 107.759 c 593.762 69.599 l 
593.762 64.321 589.441 60.001 584.16 60.001 c 543.359 60.001 l 538.078 
60.001 533.762 64.321 533.762 69.599 c 533.762 107.759 l 533.762 
118.399 525.199 126.962 514.559 126.962 c 492.961 126.962 l 482.32 
126.962 473.762 118.399 473.762 107.759 c 473.762 69.599 l 473.762 
64.321 469.441 60.001 464.16 60.001 c 425.84 60.001 l 420.559 60.001 
416.238 64.321 416.238 69.599 c 416.238 671.841 l 416.238 682.481 
407.68 691.04 397.039 691.04 c 375.441 691.04 l 364.801 691.04 356.238 
682.481 356.238 671.841 c 356.238 69.599 l 356.238 64.321 351.922 
60.001 346.641 60.001 c 308.801 60.001 l 303.52 60.001 299.199 64.321 
299.199 69.599 c 299.199 107.759 l 299.199 118.399 290.641 126.962 280 
126.962 c 258.398 126.962 l 247.762 126.962 239.199 118.399 239.199 
107.759 c 239.199 69.599 l 239.199 64.321 234.879 60.001 229.602 60.001 
c 189.602 60.001 l 184.32 60.001 180 64.321 180 69.599 c 180 107.759 l 
180 118.399 171.441 126.962 160.801 126.962 c 139.199 126.962 l 128.559 
126.962 120 118.399 120 107.759 c 120 69.599 l 120 64.321 115.68 60.001 
110.398 60.001 c 69.602 60.001 l 64.32 60.001 60 64.321 60 69.599 c 60 
107.759 l 60 118.399 51.441 126.962 40.801 126.962 c 19.199 126.962 l 
8.559 126.962 0 118.399 0 107.759 c 0.078 19.2 l -0.078 8.56 8.559 
0.001 19.121 0.001 c h
19.121 0.001 m f
39.281 303.438 m 168.078 303.438 l 174.238 303.438 179.281 298.399 
179.281 292.239 c 179.281 231.919 l 179.281 225.759 184.32 220.72 
190.48 220.72 c 251.039 220.72 l 257.199 220.72 262.238 225.759 262.238 
231.919 c 262.238 292.239 l 262.238 298.399 267.281 303.438 273.441 
303.438 c 298.559 303.438 l 304.719 303.438 309.762 308.481 309.762 
314.642 c 309.762 366.001 l 309.762 372.161 304.719 377.2 298.559 377.2 
c 273.441 377.2 l 267.281 377.2 262.238 382.239 262.238 388.399 c 
262.238 581.04 l 262.238 587.2 257.199 592.239 251.039 592.239 c 192.48 
592.239 l 188.961 592.239 185.602 590.56 183.52 587.759 c 33.602 
386.642 l 30 381.759 28 375.919 28 369.841 c 28 314.642 l 28.078 
308.399 33.121 303.438 39.281 303.438 c h
119.602 395.118 m 159.039 448.079 l 165.52 456.72 179.199 452.161 
179.199 441.36 c 179.199 388.399 l 179.199 382.239 174.16 377.2 168 
377.2 c 128.559 377.2 l 119.359 377.2 114.078 387.681 119.602 395.118 c 
h
119.602 395.118 m f
660.398 589.681 m 643.84 596.079 625.922 599.36 607.039 599.36 c 
588.559 599.36 570.801 596.079 554.16 589.681 c 537.281 583.118 522.32 
572.161 509.68 556.962 c 497.199 542.001 487.199 522.001 480 497.52 c 
472.879 473.36 469.281 443.2 469.281 407.919 c 469.281 371.681 472.879 
340.88 480 316.321 c 487.199 291.52 497.199 271.278 509.68 256.321 c 
522.32 241.2 537.281 230.161 554.16 223.599 c 570.719 217.2 588.48 
213.919 607.039 213.919 c 625.84 213.919 643.84 217.2 660.398 223.599 c 
677.281 230.161 692.32 241.118 705.121 256.239 c 717.762 271.2 727.84 
291.438 735.121 316.239 c 742.238 340.802 745.84 371.599 745.84 407.841 
c 745.84 443.04 742.238 473.2 735.121 497.438 c 727.922 521.919 717.84 
541.919 705.121 556.962 c 692.32 572.161 677.281 583.2 660.398 589.681 
c h
658.238 371.278 m 657.602 357.36 655.52 343.759 652.078 330.88 c 
648.801 318.481 643.441 307.841 636.16 299.118 c 629.52 291.2 620 
287.36 607.039 287.36 c 594.48 287.36 585.199 291.2 578.719 299.118 c 
571.602 307.841 566.238 318.481 562.961 330.962 c 559.52 343.841 
557.441 357.438 556.801 371.36 c 556.16 385.52 555.762 397.919 555.762 
408.079 c 555.762 414.399 555.84 421.841 556 430.161 c 556.16 438.56 
556.719 447.36 557.762 456.321 c 558.719 465.118 560.398 474.001 
562.641 482.642 c 564.879 490.962 567.922 498.56 571.84 505.118 c 
575.52 511.36 580.32 516.399 586.078 520.239 c 591.52 523.841 598.559 
525.681 606.961 525.681 c 615.359 525.681 622.559 523.841 628.16 
520.161 c 634.078 516.321 639.039 511.2 642.879 504.962 c 646.879 
498.481 649.922 490.962 652 482.72 c 654.16 474.001 655.84 465.04 
656.961 456.161 c 658.078 447.278 658.801 438.56 658.961 430.079 c 
659.121 421.2 659.199 414.001 659.199 408.001 c 659.281 398.001 658.961 
385.599 658.238 371.278 c h
658.238 371.278 m f
Q Q
showpage
%%Trailer
count op_count sub {pop} repeat
countdictstack dict_count sub {end} repeat
cairo_eps_state restore
%%EOF
