%!PS-Adobe-3.0 EPSF-3.0
%%Creator: cairo 1.10.2 (http://cairographics.org)
%%CreationDate: Fri Jul 11 07:15:03 2014
%%Pages: 1
%%BoundingBox: 0 -1 722 766
%%DocumentData: Clean7Bit
%%LanguageLevel: 2
%%EndComments
%%BeginProlog
/cairo_eps_state save def
/dict_count countdictstack def
/op_count count 1 sub def
userdict begin
/q { gsave } bind def
/Q { grestore } bind def
/cm { 6 array astore concat } bind def
/w { setlinewidth } bind def
/J { setlinecap } bind def
/j { setlinejoin } bind def
/M { setmiterlimit } bind def
/d { setdash } bind def
/m { moveto } bind def
/l { lineto } bind def
/c { curveto } bind def
/h { closepath } bind def
/re { exch dup neg 3 1 roll 5 3 roll moveto 0 rlineto
      0 exch rlineto 0 rlineto closepath } bind def
/S { stroke } bind def
/f { fill } bind def
/f* { eofill } bind def
/n { newpath } bind def
/W { clip } bind def
/W* { eoclip } bind def
/BT { } bind def
/ET { } bind def
/pdfmark where { pop globaldict /?pdfmark /exec load put }
    { globaldict begin /?pdfmark /pop load def /pdfmark
    /cleartomark load def end } ifelse
/BDC { mark 3 1 roll /BDC pdfmark } bind def
/EMC { mark /EMC pdfmark } bind def
/cairo_store_point { /cairo_point_y exch def /cairo_point_x exch def } def
/Tj { show currentpoint cairo_store_point } bind def
/TJ {
  {
    dup
    type /stringtype eq
    { show } { -0.001 mul 0 cairo_font_matrix dtransform rmoveto } ifelse
  } forall
  currentpoint cairo_store_point
} bind def
/cairo_selectfont { cairo_font_matrix aload pop pop pop 0 0 6 array astore
    cairo_font exch selectfont cairo_point_x cairo_point_y moveto } bind def
/Tf { pop /cairo_font exch def /cairo_font_matrix where
      { pop cairo_selectfont } if } bind def
/Td { matrix translate cairo_font_matrix matrix concatmatrix dup
      /cairo_font_matrix exch def dup 4 get exch 5 get cairo_store_point
      /cairo_font where { pop cairo_selectfont } if } bind def
/Tm { 2 copy 8 2 roll 6 array astore /cairo_font_matrix exch def
      cairo_store_point /cairo_font where { pop cairo_selectfont } if } bind def
/g { setgray } bind def
/rg { setrgbcolor } bind def
/d1 { setcachedevice } bind def
%%EndProlog
%%Page: 1 1
%%BeginPageSetup
%%PageBoundingBox: 0 -1 722 766
%%EndPageSetup
q 0 -1 722 767 rectclip q
0 765.784 722 -766 re W n
0 g
252.66 623.362 m 259.141 621.678 l 260.98 621.202 262.902 621.518 
264.422 622.561 c 265.301 623.202 266.66 623.6 268.82 623.042 c 270.5 
622.639 272.262 621.839 274.102 620.799 c 280.34 617.12 284.98 611.28 
289.461 605.76 c 294.66 599.202 300.18 594.081 307.621 589.999 c 
325.301 580.401 349.543 579.042 361.621 597.921 c 362.902 599.839 
363.941 601.839 364.82 603.839 c 365.223 604.721 366.262 605.12 367.141 
604.799 c 368.02 604.479 368.82 604.159 369.703 603.839 c 370.5 603.518 
370.98 602.721 370.902 601.839 c 370.582 599.12 370.18 596.479 369.941 
593.76 c 369.383 587.12 369.461 580.159 372.262 573.999 c 375.223 
567.518 380.902 562.319 387.062 558.96 c 392.34 556.081 397.941 554.881 
403.781 554.241 c 405.383 554.081 406.902 554.96 407.543 556.479 c 
411.543 566.639 426.02 603.44 426.02 603.44 c 426.742 605.362 425.941 
607.518 424.18 608.479 c 374.18 635.518 l 373.062 636.081 372.66 
637.518 373.461 638.561 c 376.02 642.081 378.82 644.96 382.742 646.881 
c 392.422 651.518 402.82 649.28 412.82 652.401 c 427.383 656.96 425.941 
674.159 423.863 686.319 c 421.461 699.999 416.102 713.362 408.742 
725.042 c 396.66 743.76 378.102 757.6 356.5 763.12 c 307.621 775.518 
257.141 743.44 244.02 691.6 c 238.5 669.839 239.703 647.12 248.34 
627.042 c 249.062 625.202 250.66 623.839 252.66 623.362 c h
352.902 677.921 m 354.582 684.401 361.141 688.319 367.621 686.721 c 
374.102 685.042 378.02 678.479 376.422 671.999 c 374.742 665.518 368.18 
661.6 361.703 663.202 c 355.141 664.799 351.223 671.362 352.902 677.921 
c h
352.902 677.921 m f
622.18 315.44 m 648.102 293.28 683.062 287.6 715.543 297.12 c 718.262 
297.921 720.18 300.241 720.582 302.96 c 724.902 336.561 714.02 370.159 
688.102 392.401 c 662.18 414.561 627.223 420.241 594.742 410.721 c 
592.02 409.921 590.102 407.6 589.703 404.881 c 585.301 371.28 596.262 
337.6 622.18 315.44 c h
622.18 315.44 m f
29.223 581.28 m 193.062 558.241 l 200.902 347.44 l 201.062 347.362 l 
200.98 340.159 202.82 332.881 206.82 326.319 c 280.18 205.28 l 243.062 
49.28 l 237.941 27.76 251.223 6.241 272.742 1.12 c 275.863 0.401 278.98 
-0.001 282.02 -0.001 c 300.102 -0.001 316.5 12.401 320.902 30.721 c 
361.863 202.639 l 364.262 212.881 362.582 223.678 357.141 232.639 c 
338.422 263.518 l 606.82 187.839 l 610.422 186.799 614.102 186.319 
617.703 186.319 c 635.141 186.319 651.223 197.839 656.18 215.44 c 
662.18 236.721 649.781 258.799 628.5 264.799 c 345.223 344.639 l 
345.223 434.96 l 364.262 412.561 l 370.902 404.721 380.5 400.639 390.18 
400.639 c 396.66 400.639 403.141 402.479 408.902 406.241 c 521.223 
480.401 l 536.902 490.721 541.223 511.839 530.902 527.518 c 520.582 
543.202 499.461 547.518 483.781 537.202 c 396.582 479.6 l 224.5 616.96 
l 219.703 621.12 213.703 623.999 206.98 624.96 c 38.742 648.639 l 20.18 
651.28 2.98 638.319 0.34 619.678 c -2.297 601.042 10.66 583.921 29.223 
581.28 c h
29.223 581.28 m f
Q Q
showpage
%%Trailer
count op_count sub {pop} repeat
countdictstack dict_count sub {end} repeat
cairo_eps_state restore
%%EOF
