%!PS-Adobe-3.0 EPSF-3.0
%%Creator: cairo 1.10.2 (http://cairographics.org)
%%CreationDate: Tue Jul  8 07:16:23 2014
%%Pages: 1
%%BoundingBox: 0 -1 752 752
%%DocumentData: Clean7Bit
%%LanguageLevel: 2
%%EndComments
%%BeginProlog
/cairo_eps_state save def
/dict_count countdictstack def
/op_count count 1 sub def
userdict begin
/q { gsave } bind def
/Q { grestore } bind def
/cm { 6 array astore concat } bind def
/w { setlinewidth } bind def
/J { setlinecap } bind def
/j { setlinejoin } bind def
/M { setmiterlimit } bind def
/d { setdash } bind def
/m { moveto } bind def
/l { lineto } bind def
/c { curveto } bind def
/h { closepath } bind def
/re { exch dup neg 3 1 roll 5 3 roll moveto 0 rlineto
      0 exch rlineto 0 rlineto closepath } bind def
/S { stroke } bind def
/f { fill } bind def
/f* { eofill } bind def
/n { newpath } bind def
/W { clip } bind def
/W* { eoclip } bind def
/BT { } bind def
/ET { } bind def
/pdfmark where { pop globaldict /?pdfmark /exec load put }
    { globaldict begin /?pdfmark /pop load def /pdfmark
    /cleartomark load def end } ifelse
/BDC { mark 3 1 roll /BDC pdfmark } bind def
/EMC { mark /EMC pdfmark } bind def
/cairo_store_point { /cairo_point_y exch def /cairo_point_x exch def } def
/Tj { show currentpoint cairo_store_point } bind def
/TJ {
  {
    dup
    type /stringtype eq
    { show } { -0.001 mul 0 cairo_font_matrix dtransform rmoveto } ifelse
  } forall
  currentpoint cairo_store_point
} bind def
/cairo_selectfont { cairo_font_matrix aload pop pop pop 0 0 6 array astore
    cairo_font exch selectfont cairo_point_x cairo_point_y moveto } bind def
/Tf { pop /cairo_font exch def /cairo_font_matrix where
      { pop cairo_selectfont } if } bind def
/Td { matrix translate cairo_font_matrix matrix concatmatrix dup
      /cairo_font_matrix exch def dup 4 get exch 5 get cairo_store_point
      /cairo_font where { pop cairo_selectfont } if } bind def
/Tm { 2 copy 8 2 roll 6 array astore /cairo_font_matrix exch def
      cairo_store_point /cairo_font where { pop cairo_selectfont } if } bind def
/g { setgray } bind def
/rg { setrgbcolor } bind def
/d1 { setcachedevice } bind def
%%EndProlog
%%Page: 1 1
%%BeginPageSetup
%%PageBoundingBox: 0 -1 752 752
%%EndPageSetup
q 0 -1 752 753 rectclip q
0 751.243 752 -752 re W n
0 g
46.102 737.302 m 29.941 733.943 17.301 721.302 13.941 705.142 c -27.016 
509.622 22.023 306.743 164.344 164.423 c 306.664 22.021 509.621 -27.018 
705.145 13.943 c 721.301 17.302 733.941 29.943 737.301 46.103 c 778.184 
241.54 729.145 444.501 586.824 586.821 c 444.504 729.22 241.543 778.263 
46.102 737.302 c h
575.145 244.181 m 541.062 210.103 l 506.984 176.021 l 501.145 170.181 
493.461 167.22 485.781 167.22 c 478.102 167.22 470.422 170.181 464.582 
176.021 c 452.902 187.7 452.902 206.743 464.582 218.423 c 477.461 
231.302 l 375.621 333.22 l 362.742 320.341 l 356.902 314.501 349.223 
311.54 341.543 311.54 c 333.863 311.54 326.184 314.501 320.344 320.341 
c 308.664 332.021 308.664 351.06 320.344 362.743 c 333.223 375.622 l 
231.383 477.462 l 218.504 464.583 l 212.664 458.743 204.984 455.782 
197.301 455.782 c 189.621 455.782 181.941 458.743 176.102 464.583 c 
164.422 476.263 164.422 495.302 176.102 506.982 c 210.184 541.06 l 
244.262 575.142 l 255.941 586.821 274.984 586.821 286.664 575.142 c 
298.344 563.462 298.344 544.423 286.664 532.743 c 273.781 519.861 l 
375.621 418.021 l 388.504 430.904 l 400.184 442.583 419.223 442.583 
430.902 430.904 c 442.582 419.22 442.582 400.181 430.902 388.501 c 
418.023 375.622 l 519.863 273.782 l 532.742 286.661 l 544.422 298.341 
563.461 298.341 575.145 286.661 c 586.824 274.904 586.824 255.943 
575.145 244.181 c h
575.145 244.181 m f
Q Q
showpage
%%Trailer
count op_count sub {pop} repeat
countdictstack dict_count sub {end} repeat
cairo_eps_state restore
%%EOF
