%!PS-Adobe-3.0 EPSF-3.0
%%Creator: cairo 1.10.2 (http://cairographics.org)
%%CreationDate: Fri Jul 11 07:15:04 2014
%%Pages: 1
%%BoundingBox: 0 -1 669 780
%%DocumentData: Clean7Bit
%%LanguageLevel: 2
%%EndComments
%%BeginProlog
/cairo_eps_state save def
/dict_count countdictstack def
/op_count count 1 sub def
userdict begin
/q { gsave } bind def
/Q { grestore } bind def
/cm { 6 array astore concat } bind def
/w { setlinewidth } bind def
/J { setlinecap } bind def
/j { setlinejoin } bind def
/M { setmiterlimit } bind def
/d { setdash } bind def
/m { moveto } bind def
/l { lineto } bind def
/c { curveto } bind def
/h { closepath } bind def
/re { exch dup neg 3 1 roll 5 3 roll moveto 0 rlineto
      0 exch rlineto 0 rlineto closepath } bind def
/S { stroke } bind def
/f { fill } bind def
/f* { eofill } bind def
/n { newpath } bind def
/W { clip } bind def
/W* { eoclip } bind def
/BT { } bind def
/ET { } bind def
/pdfmark where { pop globaldict /?pdfmark /exec load put }
    { globaldict begin /?pdfmark /pop load def /pdfmark
    /cleartomark load def end } ifelse
/BDC { mark 3 1 roll /BDC pdfmark } bind def
/EMC { mark /EMC pdfmark } bind def
/cairo_store_point { /cairo_point_y exch def /cairo_point_x exch def } def
/Tj { show currentpoint cairo_store_point } bind def
/TJ {
  {
    dup
    type /stringtype eq
    { show } { -0.001 mul 0 cairo_font_matrix dtransform rmoveto } ifelse
  } forall
  currentpoint cairo_store_point
} bind def
/cairo_selectfont { cairo_font_matrix aload pop pop pop 0 0 6 array astore
    cairo_font exch selectfont cairo_point_x cairo_point_y moveto } bind def
/Tf { pop /cairo_font exch def /cairo_font_matrix where
      { pop cairo_selectfont } if } bind def
/Td { matrix translate cairo_font_matrix matrix concatmatrix dup
      /cairo_font_matrix exch def dup 4 get exch 5 get cairo_store_point
      /cairo_font where { pop cairo_selectfont } if } bind def
/Tm { 2 copy 8 2 roll 6 array astore /cairo_font_matrix exch def
      cairo_store_point /cairo_font where { pop cairo_selectfont } if } bind def
/g { setgray } bind def
/rg { setrgbcolor } bind def
/d1 { setcachedevice } bind def
%%EndProlog
%%Page: 1 1
%%BeginPageSetup
%%PageBoundingBox: 0 -1 669 780
%%EndPageSetup
q 0 -1 669 781 rectclip q
0 779.828 669 -780 re W n
0 g
628.664 1.601 m 641.387 1.601 653.867 7.679 661.625 18.878 c 674.188 
37.038 669.625 61.999 651.387 74.48 c 499.145 179.601 l 452.266 301.12 
l 440.746 521.12 l 551.305 537.761 l 564.746 539.761 575.707 549.601 
579.145 562.8 c 608.824 676.402 l 631.227 685.839 650.027 702.878 
662.664 724.64 c 664.188 727.281 664.027 730.64 662.188 733.12 c 
640.188 763.199 605.945 781.679 568.504 779.679 c 531.066 777.679 
498.906 755.679 480.266 723.519 c 478.746 720.878 478.906 717.519 
480.746 715.038 c 495.227 695.199 515.145 680.402 537.707 673.199 c 
518.984 601.679 l 428.188 587.999 l 425.465 587.601 188.984 527.601 
188.984 527.601 c 178.105 525.839 168.266 518.8 163.387 507.999 c 
123.227 418.96 l 29.707 407.12 l 11.066 404.718 -2.055 387.679 0.266 
369.12 c 2.426 351.921 17.066 339.441 33.945 339.441 c 35.387 339.441 
36.824 339.519 38.266 339.679 c 150.504 353.999 l 162.266 355.519 
172.348 362.96 177.227 373.761 c 214.266 455.839 l 291.867 298.16 l 
196.586 238.562 l 186.188 232.081 179.387 221.199 178.027 209.038 c 
159.707 44.402 l 157.227 22.48 173.066 2.64 195.066 0.242 c 196.586 
0.081 198.027 -0.001 199.547 -0.001 c 219.625 -0.001 236.984 15.12 
239.227 35.601 c 255.387 180.96 l 338.984 233.199 l 382.746 258.878 l 
428.906 139.281 l 431.785 131.761 436.906 125.359 443.547 120.718 c 
606.027 8.64 l 612.906 3.921 620.824 1.601 628.664 1.601 c h
628.664 1.601 m f
248.348 642.402 m 196.188 620.96 l 194.266 620.16 193.305 618.16 
193.867 616.16 c 193.867 616.16 204.266 578.32 207.145 567.921 c 
207.547 566.402 208.984 565.281 210.586 565.359 c 216.504 565.441 
222.105 565.999 227.625 568.32 c 234.105 570.96 240.266 575.519 243.785 
581.601 c 247.227 587.441 248.027 594.242 248.188 600.878 c 248.266 
603.601 248.188 606.242 248.105 608.96 c 248.105 609.839 248.664 
610.562 249.465 610.8 c 250.348 611.038 251.227 611.281 252.027 611.441 
c 252.984 611.679 253.945 611.12 254.266 610.242 c 254.906 608.242 
255.785 606.16 256.824 604.081 c 266.746 584.242 290.746 583.038 
309.227 590.64 c 316.984 593.839 322.906 598.32 328.746 604.242 c 
333.785 609.281 338.906 614.48 345.465 617.519 c 347.387 618.402 
349.227 618.96 350.906 619.199 c 353.066 619.519 354.348 618.96 355.145 
618.242 c 356.586 617.038 358.426 616.562 360.266 616.8 c 366.824 
617.761 l 368.824 618.081 370.504 619.199 371.465 620.96 c 382.027 
639.839 385.547 662.16 382.426 684.16 c 374.824 736.64 328.504 773.519 
278.984 766.402 c 257.066 763.281 237.387 751.519 223.625 734.242 c 
215.066 723.441 208.426 710.878 204.664 697.679 c 201.305 685.921 
198.105 669.038 212.027 663.038 c 221.547 658.96 232.027 660.081 
241.066 654.48 c 244.746 652.16 247.227 649.038 249.387 645.359 c 
250.105 644.32 249.547 642.878 248.348 642.402 c h
260.105 692.32 m 266.664 693.281 272.746 688.718 273.707 682.16 c 
274.664 675.601 270.105 669.519 263.547 668.562 c 256.984 667.601 
250.906 672.16 249.945 678.718 c 248.984 685.281 253.465 691.359 
260.105 692.32 c h
260.105 692.32 m f
Q Q
showpage
%%Trailer
count op_count sub {pop} repeat
countdictstack dict_count sub {end} repeat
cairo_eps_state restore
%%EOF
