%!PS-Adobe-3.0 EPSF-3.0
%%Creator: cairo 1.10.2 (http://cairographics.org)
%%CreationDate: Fri Jul 11 07:15:06 2014
%%Pages: 1
%%BoundingBox: 0 -1 776 779
%%DocumentData: Clean7Bit
%%LanguageLevel: 2
%%EndComments
%%BeginProlog
/cairo_eps_state save def
/dict_count countdictstack def
/op_count count 1 sub def
userdict begin
/q { gsave } bind def
/Q { grestore } bind def
/cm { 6 array astore concat } bind def
/w { setlinewidth } bind def
/J { setlinecap } bind def
/j { setlinejoin } bind def
/M { setmiterlimit } bind def
/d { setdash } bind def
/m { moveto } bind def
/l { lineto } bind def
/c { curveto } bind def
/h { closepath } bind def
/re { exch dup neg 3 1 roll 5 3 roll moveto 0 rlineto
      0 exch rlineto 0 rlineto closepath } bind def
/S { stroke } bind def
/f { fill } bind def
/f* { eofill } bind def
/n { newpath } bind def
/W { clip } bind def
/W* { eoclip } bind def
/BT { } bind def
/ET { } bind def
/pdfmark where { pop globaldict /?pdfmark /exec load put }
    { globaldict begin /?pdfmark /pop load def /pdfmark
    /cleartomark load def end } ifelse
/BDC { mark 3 1 roll /BDC pdfmark } bind def
/EMC { mark /EMC pdfmark } bind def
/cairo_store_point { /cairo_point_y exch def /cairo_point_x exch def } def
/Tj { show currentpoint cairo_store_point } bind def
/TJ {
  {
    dup
    type /stringtype eq
    { show } { -0.001 mul 0 cairo_font_matrix dtransform rmoveto } ifelse
  } forall
  currentpoint cairo_store_point
} bind def
/cairo_selectfont { cairo_font_matrix aload pop pop pop 0 0 6 array astore
    cairo_font exch selectfont cairo_point_x cairo_point_y moveto } bind def
/Tf { pop /cairo_font exch def /cairo_font_matrix where
      { pop cairo_selectfont } if } bind def
/Td { matrix translate cairo_font_matrix matrix concatmatrix dup
      /cairo_font_matrix exch def dup 4 get exch 5 get cairo_store_point
      /cairo_font where { pop cairo_selectfont } if } bind def
/Tm { 2 copy 8 2 roll 6 array astore /cairo_font_matrix exch def
      cairo_store_point /cairo_font where { pop cairo_selectfont } if } bind def
/g { setgray } bind def
/rg { setrgbcolor } bind def
/d1 { setcachedevice } bind def
%%EndProlog
%%Page: 1 1
%%BeginPageSetup
%%PageBoundingBox: 0 -1 776 779
%%EndPageSetup
q 0 -1 776 780 rectclip q
0 778.398 776 -779 re W n
0 g
546 449.199 m 427.762 449.199 l 464.078 506.16 l 524.641 506.16 l 
529.762 506.16 534.641 507.761 538.801 510.8 c 647.922 590.402 l 
658.641 598.242 660.961 613.199 653.199 623.921 c 645.359 634.64 
630.398 636.96 619.68 629.199 c 516.879 554.242 l 316.48 553.999 l 
307.281 553.999 298.719 549.281 293.762 541.519 c 186.719 334.16 l 
152.801 290.562 l 46.559 264.718 l 28.32 260.242 17.121 241.921 21.602 
223.679 c 25.359 208.081 39.281 197.679 54.559 197.679 c 57.199 197.679 
59.922 197.999 62.641 198.64 c 180.398 227.281 l 187.84 229.121 194.48 
233.359 199.199 239.441 c 199.199 239.441 259.762 317.359 260.238 
318.16 c 260.238 318.16 297.199 318.081 297.281 318.081 c 378.879 
291.519 l 357.68 158.242 l 354.719 139.679 367.359 122.242 385.922 
119.359 c 387.762 119.039 389.52 118.96 391.281 118.96 c 407.68 118.96 
422.16 130.878 424.801 147.601 c 450.48 309.519 l 453.121 325.999 
443.359 341.999 427.441 347.199 c 373.762 364.718 l 397.121 401.359 l 
546 401.281 l 559.281 401.281 570 411.999 570 425.281 c 570 438.48 
559.281 449.199 546 449.199 c h
546 449.199 m f
451.121 614.402 m 451.84 614.562 452.559 614.8 453.281 614.96 c 454 
615.121 454.719 614.8 455.039 614.242 c 456.078 612.242 457.121 610.32 
458.32 608.32 c 461.121 603.601 464.48 599.039 469.359 596.16 c 474.398 
593.199 480.719 592.48 486.48 593.199 c 491.359 593.839 495.68 595.679 
500 598.081 c 501.199 598.718 501.762 600.081 501.441 601.359 c 499.281 
610.081 491.281 641.679 491.281 641.679 c 490.879 643.281 489.281 
644.402 487.602 644.16 c 441.121 638.32 l 440.078 638.16 439.121 638.96 
439.121 639.999 c 439.121 643.601 439.602 646.878 441.359 649.999 c 
445.602 657.761 453.68 661.199 458.879 668.081 c 466.48 678.081 457.281 
688.96 450 696.081 c 441.84 704.081 431.84 710.48 421.281 714.718 c 
404.238 721.601 385.199 721.999 368.078 715.281 c 329.359 700.16 
310.961 654.48 327.039 613.441 c 333.762 596.242 345.52 581.519 360.879 
572.242 c 362.32 571.359 364 571.281 365.52 571.839 c 370.641 573.839 l 
372.078 574.402 373.281 575.519 373.762 576.96 c 374.078 577.839 
374.801 578.718 376.48 579.359 c 377.762 579.839 379.359 580.16 381.121 
580.32 c 387.121 580.878 392.961 579.199 398.641 577.601 c 405.281 
575.761 411.441 574.878 418.32 575.761 c 434.801 577.761 451.68 588.48 
450.719 606.96 c 450.641 608.878 450.398 610.718 450 612.402 c 449.84 
613.441 450.32 614.16 451.121 614.402 c h
419.52 650.878 m 414.398 648.878 408.559 651.441 406.559 656.562 c 
404.559 661.679 407.121 667.519 412.238 669.519 c 417.359 671.519 
423.199 668.96 425.199 663.839 c 427.199 658.718 424.641 652.96 419.52 
650.878 c h
419.52 650.878 m f
366.641 100.081 m 337.52 -0.001 l 455.281 -0.001 l 426.16 100.081 l h
366.641 100.081 m f
0 -0.001 m 117.68 -0.001 l 206.32 100.081 l 146.719 100.081 l h
0 -0.001 m f
569.52 100.081 m 658.16 -0.001 l 775.84 -0.001 l 629.121 100.081 l h
569.52 100.081 m f
609.52 769.679 m 604.801 739.039 614.078 707.921 637.281 687.039 c 
660.48 666.16 692.398 660.16 722.398 668.16 c 724.879 668.8 726.719 
670.878 727.121 673.441 c 731.84 704.081 722.559 735.199 699.359 
756.081 c 676.16 776.96 644.238 782.96 614.238 775.039 c 611.762 774.32 
609.922 772.242 609.52 769.679 c h
609.52 769.679 m f
Q Q
showpage
%%Trailer
count op_count sub {pop} repeat
countdictstack dict_count sub {end} repeat
cairo_eps_state restore
%%EOF
