%!PS-Adobe-3.0 EPSF-3.0
%%Creator: cairo 1.10.2 (http://cairographics.org)
%%CreationDate: Fri Jul 11 07:15:05 2014
%%Pages: 1
%%BoundingBox: 0 -1 772 639
%%DocumentData: Clean7Bit
%%LanguageLevel: 2
%%EndComments
%%BeginProlog
/cairo_eps_state save def
/dict_count countdictstack def
/op_count count 1 sub def
userdict begin
/q { gsave } bind def
/Q { grestore } bind def
/cm { 6 array astore concat } bind def
/w { setlinewidth } bind def
/J { setlinecap } bind def
/j { setlinejoin } bind def
/M { setmiterlimit } bind def
/d { setdash } bind def
/m { moveto } bind def
/l { lineto } bind def
/c { curveto } bind def
/h { closepath } bind def
/re { exch dup neg 3 1 roll 5 3 roll moveto 0 rlineto
      0 exch rlineto 0 rlineto closepath } bind def
/S { stroke } bind def
/f { fill } bind def
/f* { eofill } bind def
/n { newpath } bind def
/W { clip } bind def
/W* { eoclip } bind def
/BT { } bind def
/ET { } bind def
/pdfmark where { pop globaldict /?pdfmark /exec load put }
    { globaldict begin /?pdfmark /pop load def /pdfmark
    /cleartomark load def end } ifelse
/BDC { mark 3 1 roll /BDC pdfmark } bind def
/EMC { mark /EMC pdfmark } bind def
/cairo_store_point { /cairo_point_y exch def /cairo_point_x exch def } def
/Tj { show currentpoint cairo_store_point } bind def
/TJ {
  {
    dup
    type /stringtype eq
    { show } { -0.001 mul 0 cairo_font_matrix dtransform rmoveto } ifelse
  } forall
  currentpoint cairo_store_point
} bind def
/cairo_selectfont { cairo_font_matrix aload pop pop pop 0 0 6 array astore
    cairo_font exch selectfont cairo_point_x cairo_point_y moveto } bind def
/Tf { pop /cairo_font exch def /cairo_font_matrix where
      { pop cairo_selectfont } if } bind def
/Td { matrix translate cairo_font_matrix matrix concatmatrix dup
      /cairo_font_matrix exch def dup 4 get exch 5 get cairo_store_point
      /cairo_font where { pop cairo_selectfont } if } bind def
/Tm { 2 copy 8 2 roll 6 array astore /cairo_font_matrix exch def
      cairo_store_point /cairo_font where { pop cairo_selectfont } if } bind def
/g { setgray } bind def
/rg { setrgbcolor } bind def
/d1 { setcachedevice } bind def
%%EndProlog
%%Page: 1 1
%%BeginPageSetup
%%PageBoundingBox: 0 -1 772 639
%%EndPageSetup
q 0 -1 772 640 rectclip q
0 638.56 772 -639 re W n
0 g
758.48 247.04 m 747.121 247.04 l 743.84 222.958 738.238 199.361 730.238 
176.4 c 729.52 167.759 727.039 142.72 721.922 115.361 c 758.48 115.361 
l 765.602 115.361 771.359 121.201 771.359 128.24 c 771.359 234.162 l 
771.359 241.279 765.602 247.04 758.48 247.04 c h
758.48 247.04 m f
22.48 247.04 m 12.879 247.04 l 5.762 247.04 0 241.201 0 234.162 c 0 
128.322 l 0 121.201 5.84 115.439 12.879 115.439 c 48.48 115.439 l 
43.359 142.798 40.879 167.841 40.16 176.482 c 32.16 199.361 25.762 
222.958 22.48 247.04 c h
22.48 247.04 m f
727.359 296.4 m 727.359 485.361 574.16 638.56 385.199 638.56 c 196.238 
638.56 43.039 485.361 43.039 296.4 c 43.039 279.681 44.238 263.201 
46.559 247.119 c 49.84 224.4 55.359 202.4 62.879 181.279 c 62.879 
181.279 65.199 149.759 71.84 116.08 c 79.359 77.681 92.48 36.482 
113.922 36.482 c 118.719 36.482 124 38.56 129.68 43.201 c 136.961 
49.119 142.641 54.482 147.039 59.279 c 158.961 14.88 l 161.281 6.162 
169.281 0.001 178.32 0.001 c 591.762 0.001 l 600.801 0.001 608.801 6.08 
611.121 14.88 c 623.121 59.599 l 627.52 54.72 633.359 49.201 640.801 
43.201 c 646.48 38.56 651.762 36.482 656.559 36.482 c 678.078 36.482 
691.199 77.919 698.719 116.4 c 705.281 149.919 707.602 181.201 707.602 
181.201 c 715.121 202.24 720.641 224.24 723.922 247.04 c 726.16 263.119 
727.359 279.599 727.359 296.4 c h
193.68 40.162 m 162.719 155.201 l 235.762 155.201 l 250.559 40.162 l h
365.121 40.162 m 291.039 40.162 l 276.238 155.201 l 365.121 155.201 l h
479.281 40.162 m 405.199 40.162 l 405.199 155.201 l 494.078 155.201 l h
385.199 195.279 m 198.719 195.279 l 198.719 303.361 l 224 315.279 
294.16 343.759 385.68 343.759 c 449.602 343.759 512.078 330.08 571.602 
302.958 c 571.602 195.279 l h
576.32 40.162 m 519.68 40.162 l 534.48 155.201 l 607.281 155.201 l h
634.801 195.201 m 634.32 195.201 633.922 195.279 633.441 195.279 c 
611.762 195.279 l 611.762 315.681 l 611.762 323.361 607.359 330.322 
600.48 333.681 c 532.078 367.04 459.84 383.919 385.68 383.919 c 259.441 
383.919 172.398 335.279 168.719 333.201 c 162.48 329.599 158.559 
322.958 158.559 315.759 c 158.559 195.279 l 135.52 195.279 l 135.52 
315.681 l 135.52 331.119 143.84 345.521 157.359 353.119 c 160 354.638 
184.16 368.08 224.078 381.119 c 276.32 398.162 330.719 406.88 385.68 
406.88 c 463.359 406.88 538.961 389.201 610.559 354.4 c 625.281 347.201 
634.801 332.001 634.801 315.599 c h
634.801 195.201 m f
Q Q
showpage
%%Trailer
count op_count sub {pop} repeat
countdictstack dict_count sub {end} repeat
cairo_eps_state restore
%%EOF
