%!PS-Adobe-3.0 EPSF-3.0
%%Creator: cairo 1.10.2 (http://cairographics.org)
%%CreationDate: Tue Jul  8 07:16:32 2014
%%Pages: 1
%%BoundingBox: 0 -1 756 641
%%DocumentData: Clean7Bit
%%LanguageLevel: 2
%%EndComments
%%BeginProlog
/cairo_eps_state save def
/dict_count countdictstack def
/op_count count 1 sub def
userdict begin
/q { gsave } bind def
/Q { grestore } bind def
/cm { 6 array astore concat } bind def
/w { setlinewidth } bind def
/J { setlinecap } bind def
/j { setlinejoin } bind def
/M { setmiterlimit } bind def
/d { setdash } bind def
/m { moveto } bind def
/l { lineto } bind def
/c { curveto } bind def
/h { closepath } bind def
/re { exch dup neg 3 1 roll 5 3 roll moveto 0 rlineto
      0 exch rlineto 0 rlineto closepath } bind def
/S { stroke } bind def
/f { fill } bind def
/f* { eofill } bind def
/n { newpath } bind def
/W { clip } bind def
/W* { eoclip } bind def
/BT { } bind def
/ET { } bind def
/pdfmark where { pop globaldict /?pdfmark /exec load put }
    { globaldict begin /?pdfmark /pop load def /pdfmark
    /cleartomark load def end } ifelse
/BDC { mark 3 1 roll /BDC pdfmark } bind def
/EMC { mark /EMC pdfmark } bind def
/cairo_store_point { /cairo_point_y exch def /cairo_point_x exch def } def
/Tj { show currentpoint cairo_store_point } bind def
/TJ {
  {
    dup
    type /stringtype eq
    { show } { -0.001 mul 0 cairo_font_matrix dtransform rmoveto } ifelse
  } forall
  currentpoint cairo_store_point
} bind def
/cairo_selectfont { cairo_font_matrix aload pop pop pop 0 0 6 array astore
    cairo_font exch selectfont cairo_point_x cairo_point_y moveto } bind def
/Tf { pop /cairo_font exch def /cairo_font_matrix where
      { pop cairo_selectfont } if } bind def
/Td { matrix translate cairo_font_matrix matrix concatmatrix dup
      /cairo_font_matrix exch def dup 4 get exch 5 get cairo_store_point
      /cairo_font where { pop cairo_selectfont } if } bind def
/Tm { 2 copy 8 2 roll 6 array astore /cairo_font_matrix exch def
      cairo_store_point /cairo_font where { pop cairo_selectfont } if } bind def
/g { setgray } bind def
/rg { setrgbcolor } bind def
/d1 { setcachedevice } bind def
%%EndProlog
%%Page: 1 1
%%BeginPageSetup
%%PageBoundingBox: 0 -1 756 641
%%EndPageSetup
q 0 -1 756 642 rectclip q
0 640.56 756 -641 re W n
0 g
745.281 640.56 m 127.762 640.56 l 122.238 640.56 117.84 636.08 117.359 
630.56 c 112.559 573.521 67.121 528.001 10 523.201 c 4.48 522.72 0 
518.322 0 512.798 c 0 127.759 l 0 122.24 4.48 117.841 10 117.361 c 
67.039 112.56 112.559 67.119 117.359 10.001 c 117.84 4.482 122.238 
0.001 127.762 0.001 c 745.281 0.001 l 750.801 0.001 755.281 4.482 
755.281 10.001 c 755.281 29.201 l 755.281 34.72 750.719 39.04 745.441 
40.4 c 727.359 44.798 714 61.119 714 80.56 c 714 100.001 727.359 116.24 
745.441 120.72 c 750.801 122.001 755.281 126.4 755.281 131.919 c 
755.281 149.201 l 755.281 154.72 750.719 159.04 745.441 160.4 c 727.359 
164.798 714 181.119 714 200.56 c 714 220.001 727.359 236.24 745.441 
240.72 c 750.801 242.001 755.281 246.4 755.281 251.919 c 755.281 
269.201 l 755.281 274.72 750.719 279.04 745.441 280.4 c 727.359 284.798 
714 301.119 714 320.56 c 714 340.001 727.359 356.24 745.441 360.72 c 
750.801 362.001 755.281 366.4 755.281 371.919 c 755.281 389.201 l 
755.281 394.72 750.719 399.04 745.441 400.4 c 727.359 404.798 714 
421.119 714 440.56 c 714 460.001 727.359 476.24 745.441 480.72 c 
750.801 482.001 755.281 486.4 755.281 491.919 c 755.281 509.201 l 
755.281 514.72 750.719 519.04 745.441 520.4 c 727.359 524.798 714 
541.119 714 560.56 c 714 580.001 727.359 596.24 745.441 600.72 c 
750.801 602.001 755.281 606.4 755.281 611.919 c 755.281 631.119 l 
755.281 636.08 750.801 640.56 745.281 640.56 c h
206.398 140.001 m 206.398 500.638 l 206.398 509.04 213.199 515.841 
221.602 515.841 c 297.84 515.841 l 297.84 124.798 l 221.602 124.798 l 
213.281 124.798 206.398 131.599 206.398 140.001 c h
597.52 140.001 m 597.52 131.599 590.719 124.798 582.32 124.798 c 337.84 
124.798 l 337.84 515.841 l 582.32 515.841 l 590.719 515.841 597.52 
509.04 597.52 500.638 c h
597.52 140.001 m f
Q Q
showpage
%%Trailer
count op_count sub {pop} repeat
countdictstack dict_count sub {end} repeat
cairo_eps_state restore
%%EOF
