%!PS-Adobe-3.0 EPSF-3.0
%%Creator: cairo 1.10.2 (http://cairographics.org)
%%CreationDate: Thu Jul 10 14:00:18 2014
%%Pages: 1
%%BoundingBox: 0 -1 720 772
%%DocumentData: Clean7Bit
%%LanguageLevel: 2
%%EndComments
%%BeginProlog
/cairo_eps_state save def
/dict_count countdictstack def
/op_count count 1 sub def
userdict begin
/q { gsave } bind def
/Q { grestore } bind def
/cm { 6 array astore concat } bind def
/w { setlinewidth } bind def
/J { setlinecap } bind def
/j { setlinejoin } bind def
/M { setmiterlimit } bind def
/d { setdash } bind def
/m { moveto } bind def
/l { lineto } bind def
/c { curveto } bind def
/h { closepath } bind def
/re { exch dup neg 3 1 roll 5 3 roll moveto 0 rlineto
      0 exch rlineto 0 rlineto closepath } bind def
/S { stroke } bind def
/f { fill } bind def
/f* { eofill } bind def
/n { newpath } bind def
/W { clip } bind def
/W* { eoclip } bind def
/BT { } bind def
/ET { } bind def
/pdfmark where { pop globaldict /?pdfmark /exec load put }
    { globaldict begin /?pdfmark /pop load def /pdfmark
    /cleartomark load def end } ifelse
/BDC { mark 3 1 roll /BDC pdfmark } bind def
/EMC { mark /EMC pdfmark } bind def
/cairo_store_point { /cairo_point_y exch def /cairo_point_x exch def } def
/Tj { show currentpoint cairo_store_point } bind def
/TJ {
  {
    dup
    type /stringtype eq
    { show } { -0.001 mul 0 cairo_font_matrix dtransform rmoveto } ifelse
  } forall
  currentpoint cairo_store_point
} bind def
/cairo_selectfont { cairo_font_matrix aload pop pop pop 0 0 6 array astore
    cairo_font exch selectfont cairo_point_x cairo_point_y moveto } bind def
/Tf { pop /cairo_font exch def /cairo_font_matrix where
      { pop cairo_selectfont } if } bind def
/Td { matrix translate cairo_font_matrix matrix concatmatrix dup
      /cairo_font_matrix exch def dup 4 get exch 5 get cairo_store_point
      /cairo_font where { pop cairo_selectfont } if } bind def
/Tm { 2 copy 8 2 roll 6 array astore /cairo_font_matrix exch def
      cairo_store_point /cairo_font where { pop cairo_selectfont } if } bind def
/g { setgray } bind def
/rg { setrgbcolor } bind def
/d1 { setcachedevice } bind def
%%EndProlog
%%Page: 1 1
%%BeginPageSetup
%%PageBoundingBox: 0 -1 720 772
%%EndPageSetup
q 0 -1 720 773 rectclip q
0 771.12 720 -772 re W n
0 g
526.238 196.722 m 646.238 196.722 l 662.48 292.722 l 510 292.722 l h
526.238 196.722 m f
586.398 771.12 m 586.238 771.12 l 512.801 770.96 453.359 711.44 453.359 
637.999 c 453.359 627.12 454.719 616.479 457.121 606.319 c 480.32 
468.722 l 692.238 468.722 l 715.441 606.319 l 717.922 616.479 719.199 
627.042 719.199 637.999 c 719.281 711.44 659.762 770.96 586.398 771.12 
c h
586.398 540.401 m 534.641 540.401 492.48 582.561 492.48 634.319 c 
492.48 686.081 534.641 728.241 586.398 728.241 c 638.16 728.241 680.32 
686.081 680.32 634.319 c 680.32 582.561 638.16 540.401 586.398 540.401 
c h
586.398 540.401 m f
503.281 332.722 m 669.281 332.722 l 685.441 428.722 l 487.039 428.722 l 
h
503.281 332.722 m f
554.641 28.241 m 560.641 -7.36 611.762 -7.36 617.762 28.241 c 639.52 
156.722 l 532.961 156.722 l h
554.641 28.241 m f
586.398 676.241 m 563.281 676.241 544.48 657.44 544.48 634.319 c 544.48 
611.198 563.281 592.401 586.398 592.401 c 609.52 592.401 628.32 611.198 
628.32 634.319 c 628.32 657.44 609.441 676.241 586.398 676.241 c h
586.398 676.241 m f
382.078 769.198 m 32 769.198 l 14.32 769.198 0 754.882 0 737.198 c 0 
387.12 l 0 369.44 14.32 355.12 32 355.12 c 187.039 355.12 l 187.039 
159.358 l 175.121 152.479 167.039 139.518 167.039 124.722 c 167.039 
39.999 l 167.039 17.921 184.961 -0.001 207.039 -0.001 c 229.121 -0.001 
247.039 17.921 247.039 39.999 c 247.039 124.722 l 247.039 139.518 
238.961 152.401 227.039 159.358 c 227.039 355.12 l 382.078 355.12 l 
399.762 355.12 414.078 369.44 414.078 387.12 c 414.078 737.198 l 
414.078 754.882 399.762 769.198 382.078 769.198 c h
378.879 416.319 m 378.879 401.999 367.199 390.319 352.879 390.319 c 
61.199 390.319 l 46.879 390.319 35.199 401.999 35.199 416.319 c 35.199 
707.999 l 35.199 722.319 46.879 733.999 61.199 733.999 c 352.879 
733.999 l 367.199 733.999 378.879 722.319 378.879 707.999 c h
378.879 416.319 m f
352.879 713.999 m 61.199 713.999 l 57.922 713.999 55.199 711.28 55.199 
707.999 c 55.199 416.319 l 55.199 413.042 57.922 410.319 61.199 410.319 
c 352.879 410.319 l 356.16 410.319 358.879 413.042 358.879 416.319 c 
358.879 707.999 l 358.879 711.28 356.16 713.999 352.879 713.999 c h
249.84 461.518 m 249.84 455.761 245.199 451.12 239.441 451.12 c 214.16 
451.12 l 208.398 451.12 203.762 455.761 203.762 461.518 c 203.762 
587.999 l 203.762 593.761 199.121 598.401 193.359 598.401 c 157.039 
598.401 l 151.281 598.401 146.641 603.042 146.641 608.8 c 146.641 
622.882 l 146.641 628.401 150.961 632.96 156.48 633.28 c 161.039 
633.518 165.441 634.081 169.84 634.882 c 177.281 636.319 184 638.8 
189.922 642.319 c 195.84 645.921 200.879 650.561 205.039 656.401 c 
207.922 660.479 210.078 665.198 211.602 670.561 c 212.879 675.042 
216.961 678.159 221.602 678.159 c 239.441 678.159 l 245.199 678.159 
249.84 673.518 249.84 667.761 c h
249.84 461.518 m f
Q Q
showpage
%%Trailer
count op_count sub {pop} repeat
countdictstack dict_count sub {end} repeat
cairo_eps_state restore
%%EOF
