%!PS-Adobe-3.0 EPSF-3.0
%%Creator: cairo 1.10.2 (http://cairographics.org)
%%CreationDate: Mon Jul 14 07:17:22 2014
%%Pages: 1
%%BoundingBox: 0 -1 714 712
%%DocumentData: Clean7Bit
%%LanguageLevel: 2
%%EndComments
%%BeginProlog
/cairo_eps_state save def
/dict_count countdictstack def
/op_count count 1 sub def
userdict begin
/q { gsave } bind def
/Q { grestore } bind def
/cm { 6 array astore concat } bind def
/w { setlinewidth } bind def
/J { setlinecap } bind def
/j { setlinejoin } bind def
/M { setmiterlimit } bind def
/d { setdash } bind def
/m { moveto } bind def
/l { lineto } bind def
/c { curveto } bind def
/h { closepath } bind def
/re { exch dup neg 3 1 roll 5 3 roll moveto 0 rlineto
      0 exch rlineto 0 rlineto closepath } bind def
/S { stroke } bind def
/f { fill } bind def
/f* { eofill } bind def
/n { newpath } bind def
/W { clip } bind def
/W* { eoclip } bind def
/BT { } bind def
/ET { } bind def
/pdfmark where { pop globaldict /?pdfmark /exec load put }
    { globaldict begin /?pdfmark /pop load def /pdfmark
    /cleartomark load def end } ifelse
/BDC { mark 3 1 roll /BDC pdfmark } bind def
/EMC { mark /EMC pdfmark } bind def
/cairo_store_point { /cairo_point_y exch def /cairo_point_x exch def } def
/Tj { show currentpoint cairo_store_point } bind def
/TJ {
  {
    dup
    type /stringtype eq
    { show } { -0.001 mul 0 cairo_font_matrix dtransform rmoveto } ifelse
  } forall
  currentpoint cairo_store_point
} bind def
/cairo_selectfont { cairo_font_matrix aload pop pop pop 0 0 6 array astore
    cairo_font exch selectfont cairo_point_x cairo_point_y moveto } bind def
/Tf { pop /cairo_font exch def /cairo_font_matrix where
      { pop cairo_selectfont } if } bind def
/Td { matrix translate cairo_font_matrix matrix concatmatrix dup
      /cairo_font_matrix exch def dup 4 get exch 5 get cairo_store_point
      /cairo_font where { pop cairo_selectfont } if } bind def
/Tm { 2 copy 8 2 roll 6 array astore /cairo_font_matrix exch def
      cairo_store_point /cairo_font where { pop cairo_selectfont } if } bind def
/g { setgray } bind def
/rg { setrgbcolor } bind def
/d1 { setcachedevice } bind def
%%EndProlog
%%Page: 1 1
%%BeginPageSetup
%%PageBoundingBox: 0 -1 714 712
%%EndPageSetup
q 0 -1 714 713 rectclip q
0 711.185 714 -712 re W n
0 g
450.172 253.423 m 418.812 245.423 386.25 241.345 353.051 241.345 c 
306.492 241.345 259.852 249.263 214.492 264.865 c 197.051 270.865 
184.73 286.626 183.293 305.025 c 180.57 338.146 181.613 371.263 186.41 
403.505 c 191.211 435.986 199.773 467.423 211.852 497.107 c 216.891 
509.423 222.57 521.505 228.73 533.185 c 36.57 486.384 36.094 333.744 
43.371 275.263 c 43.934 270.544 50.73 270.146 51.773 274.865 c 87.133 
428.786 194.73 340.306 103.371 262.626 c -14.789 162.064 -5.906 54.224 
7.613 3.185 c 8.891 -1.534 15.773 -0.815 16.012 4.064 c 17.852 36.704 
33.773 86.384 108.492 107.505 c 185.133 129.263 353.691 122.384 450.172 
253.423 c h
450.172 253.423 m f
694.812 688.786 m 651.691 703.583 606.973 711.185 562.73 711.185 c 
483.691 711.185 406.012 686.947 341.133 636.466 c 305.613 608.865 
276.812 575.665 254.812 538.704 c 214.012 470.224 196.492 388.947 
203.293 306.626 c 204.172 296.146 211.133 287.185 221.051 283.744 c 
264.172 268.947 308.891 261.345 353.133 261.345 c 391.934 261.345 
430.332 267.185 467.133 279.107 c 505.293 291.423 541.691 310.384 
574.73 336.064 c 675.852 414.704 722.973 539.107 712.57 665.904 c 
711.691 676.384 704.73 685.345 694.812 688.786 c h
596.172 520.064 m 592.492 517.263 588.172 515.826 583.934 515.826 c 
577.934 515.826 572.094 518.466 568.094 523.583 c 556.891 537.986 l 
485.852 482.786 l 492.41 474.384 l 494.973 471.107 496.332 467.263 
496.57 463.345 c 496.973 456.947 494.332 450.544 488.891 446.306 c 
485.211 443.505 480.891 442.064 476.652 442.064 c 470.652 442.064 
464.812 444.704 460.812 449.826 c 454.25 458.224 l 383.211 403.025 l 
389.773 394.626 l 396.57 385.904 394.973 373.345 386.25 366.544 c 
382.57 363.744 378.25 362.306 374.012 362.306 c 368.012 362.306 362.172 
364.947 358.172 370.064 c 320.652 418.466 l 313.852 427.185 315.453 
439.744 324.172 446.544 c 332.891 453.345 345.453 451.744 352.25 
443.025 c 358.812 434.626 l 429.852 489.826 l 423.293 498.224 l 416.492 
506.947 418.094 519.505 426.812 526.306 c 435.531 533.107 448.094 
531.505 454.891 522.786 c 457.852 518.947 l 461.453 514.306 l 532.492 
569.505 l 521.293 583.904 l 514.492 592.626 516.094 605.185 524.812 
611.986 c 533.531 618.786 546.094 617.185 552.891 608.466 c 599.773 
548.146 l 606.492 539.423 604.891 526.865 596.172 520.064 c h
596.172 520.064 m f
445.371 204.865 m 445.773 208.466 441.371 210.466 438.973 207.744 c 
434.57 202.786 429.691 197.986 427.453 195.583 c 392.094 156.704 
331.453 146.384 299.371 103.185 c 286.094 85.345 278.891 66.384 272.73 
42.626 c 271.852 39.107 276.094 36.544 278.812 39.025 c 286.41 45.986 
296.891 55.185 302.492 58.306 c 334.332 76.224 376.891 82.466 405.453 
105.986 c 435.934 131.025 440.973 167.665 445.371 204.865 c h
445.371 204.865 m f
Q Q
showpage
%%Trailer
count op_count sub {pop} repeat
countdictstack dict_count sub {end} repeat
cairo_eps_state restore
%%EOF
