%!PS-Adobe-3.0 EPSF-3.0
%%Creator: cairo 1.10.2 (http://cairographics.org)
%%CreationDate: Fri Jul 11 07:15:08 2014
%%Pages: 1
%%BoundingBox: 0 -1 522 738
%%DocumentData: Clean7Bit
%%LanguageLevel: 2
%%EndComments
%%BeginProlog
/cairo_eps_state save def
/dict_count countdictstack def
/op_count count 1 sub def
userdict begin
/q { gsave } bind def
/Q { grestore } bind def
/cm { 6 array astore concat } bind def
/w { setlinewidth } bind def
/J { setlinecap } bind def
/j { setlinejoin } bind def
/M { setmiterlimit } bind def
/d { setdash } bind def
/m { moveto } bind def
/l { lineto } bind def
/c { curveto } bind def
/h { closepath } bind def
/re { exch dup neg 3 1 roll 5 3 roll moveto 0 rlineto
      0 exch rlineto 0 rlineto closepath } bind def
/S { stroke } bind def
/f { fill } bind def
/f* { eofill } bind def
/n { newpath } bind def
/W { clip } bind def
/W* { eoclip } bind def
/BT { } bind def
/ET { } bind def
/pdfmark where { pop globaldict /?pdfmark /exec load put }
    { globaldict begin /?pdfmark /pop load def /pdfmark
    /cleartomark load def end } ifelse
/BDC { mark 3 1 roll /BDC pdfmark } bind def
/EMC { mark /EMC pdfmark } bind def
/cairo_store_point { /cairo_point_y exch def /cairo_point_x exch def } def
/Tj { show currentpoint cairo_store_point } bind def
/TJ {
  {
    dup
    type /stringtype eq
    { show } { -0.001 mul 0 cairo_font_matrix dtransform rmoveto } ifelse
  } forall
  currentpoint cairo_store_point
} bind def
/cairo_selectfont { cairo_font_matrix aload pop pop pop 0 0 6 array astore
    cairo_font exch selectfont cairo_point_x cairo_point_y moveto } bind def
/Tf { pop /cairo_font exch def /cairo_font_matrix where
      { pop cairo_selectfont } if } bind def
/Td { matrix translate cairo_font_matrix matrix concatmatrix dup
      /cairo_font_matrix exch def dup 4 get exch 5 get cairo_store_point
      /cairo_font where { pop cairo_selectfont } if } bind def
/Tm { 2 copy 8 2 roll 6 array astore /cairo_font_matrix exch def
      cairo_store_point /cairo_font where { pop cairo_selectfont } if } bind def
/g { setgray } bind def
/rg { setrgbcolor } bind def
/d1 { setcachedevice } bind def
%%EndProlog
%%Page: 1 1
%%BeginPageSetup
%%PageBoundingBox: 0 -1 522 738
%%EndPageSetup
q 0 -1 522 739 rectclip q
0 737.36 522 -738 re W n
0 g
390.73 431.919 m 375.211 424.801 359.211 418.88 342.891 414.399 c 
331.93 411.36 320.809 408.962 309.531 407.122 c 266.172 359.68 l 
263.129 356.399 257.93 356.399 254.891 359.68 c 211.609 407.04 l 200.41 
408.801 189.289 411.2 178.41 414.161 c 162.09 418.641 146.012 424.481 
130.41 431.598 c 209.371 167.36 l 311.691 167.36 l h
390.73 431.919 m f
427.449 60.399 m 407.93 60.399 l 407.93 137.758 l 407.93 143.04 403.609 
147.36 398.328 147.36 c 119.609 147.36 l 114.328 147.36 110.012 143.04 
110.012 137.758 c 110.012 60.399 l 90.488 60.399 l 85.211 60.399 80.891 
56.079 80.891 50.801 c 80.891 9.598 l 80.891 4.321 85.211 0.001 90.488 
0.001 c 427.449 0.001 l 432.73 0.001 437.051 4.321 437.051 9.598 c 
437.051 50.801 l 436.969 56.079 432.73 60.399 427.449 60.399 c h
427.449 60.399 m f
260.809 737.36 m 260.25 737.36 l 154.41 737.2 60.809 679.758 3.531 
591.758 c -1.191 584.481 -1.191 575.122 3.609 567.84 c 34.25 521.122 
75.211 483.122 122.648 457.84 c 143.531 446.719 165.609 438.079 188.73 
432.161 c 211.691 426.321 235.691 423.2 260.328 423.2 c 260.891 423.2 l 
285.531 423.282 309.531 426.399 332.57 432.321 c 355.691 438.239 377.77 
446.962 398.57 458.161 c 446.172 483.68 487.051 521.84 517.609 568.801 
c 522.328 576.079 522.328 585.438 517.531 592.719 c 460.012 680.321 
366.41 737.36 260.809 737.36 c h
276.648 554.962 m 276.648 546.161 269.531 538.962 260.648 538.962 c 
251.852 538.962 244.648 546.079 244.648 554.962 c 244.648 564.321 l 
169.371 564.161 l 169.371 554.801 l 169.371 546.001 162.25 538.801 
153.371 538.801 c 144.57 538.801 137.371 545.919 137.371 554.801 c 
137.289 605.438 l 137.289 614.239 144.41 621.438 153.289 621.438 c 
162.09 621.438 169.289 614.321 169.289 605.438 c 169.289 596.079 l 
244.57 596.239 l 244.57 605.598 l 244.57 614.399 251.691 621.598 260.57 
621.598 c 269.371 621.598 276.57 614.481 276.57 605.598 c 276.57 
596.239 l 351.852 596.399 l 351.852 611.919 l 351.852 620.719 358.969 
627.919 367.852 627.919 c 376.648 627.919 383.852 620.801 383.852 
611.919 c 383.93 548.801 l 383.93 540.001 376.809 532.801 367.93 
532.801 c 359.129 532.801 351.93 539.919 351.93 548.801 c 351.93 
564.321 l 276.648 564.161 l h
276.648 554.962 m f
Q Q
showpage
%%Trailer
count op_count sub {pop} repeat
countdictstack dict_count sub {end} repeat
cairo_eps_state restore
%%EOF
