%!PS-Adobe-3.0 EPSF-3.0
%%Creator: cairo 1.10.2 (http://cairographics.org)
%%CreationDate: Thu Jul 10 13:59:44 2014
%%Pages: 1
%%BoundingBox: 0 -1 761 548
%%DocumentData: Clean7Bit
%%LanguageLevel: 2
%%EndComments
%%BeginProlog
/cairo_eps_state save def
/dict_count countdictstack def
/op_count count 1 sub def
userdict begin
/q { gsave } bind def
/Q { grestore } bind def
/cm { 6 array astore concat } bind def
/w { setlinewidth } bind def
/J { setlinecap } bind def
/j { setlinejoin } bind def
/M { setmiterlimit } bind def
/d { setdash } bind def
/m { moveto } bind def
/l { lineto } bind def
/c { curveto } bind def
/h { closepath } bind def
/re { exch dup neg 3 1 roll 5 3 roll moveto 0 rlineto
      0 exch rlineto 0 rlineto closepath } bind def
/S { stroke } bind def
/f { fill } bind def
/f* { eofill } bind def
/n { newpath } bind def
/W { clip } bind def
/W* { eoclip } bind def
/BT { } bind def
/ET { } bind def
/pdfmark where { pop globaldict /?pdfmark /exec load put }
    { globaldict begin /?pdfmark /pop load def /pdfmark
    /cleartomark load def end } ifelse
/BDC { mark 3 1 roll /BDC pdfmark } bind def
/EMC { mark /EMC pdfmark } bind def
/cairo_store_point { /cairo_point_y exch def /cairo_point_x exch def } def
/Tj { show currentpoint cairo_store_point } bind def
/TJ {
  {
    dup
    type /stringtype eq
    { show } { -0.001 mul 0 cairo_font_matrix dtransform rmoveto } ifelse
  } forall
  currentpoint cairo_store_point
} bind def
/cairo_selectfont { cairo_font_matrix aload pop pop pop 0 0 6 array astore
    cairo_font exch selectfont cairo_point_x cairo_point_y moveto } bind def
/Tf { pop /cairo_font exch def /cairo_font_matrix where
      { pop cairo_selectfont } if } bind def
/Td { matrix translate cairo_font_matrix matrix concatmatrix dup
      /cairo_font_matrix exch def dup 4 get exch 5 get cairo_store_point
      /cairo_font where { pop cairo_selectfont } if } bind def
/Tm { 2 copy 8 2 roll 6 array astore /cairo_font_matrix exch def
      cairo_store_point /cairo_font where { pop cairo_selectfont } if } bind def
/g { setgray } bind def
/rg { setrgbcolor } bind def
/d1 { setcachedevice } bind def
%%EndProlog
%%Page: 1 1
%%BeginPageSetup
%%PageBoundingBox: 0 -1 761 548
%%EndPageSetup
q 0 -1 761 549 rectclip q
0 547.76 761 -548 re W n
0 g
732.078 547.76 m 28.559 547.76 l 12.801 547.76 0 534.959 0 519.201 c 0 
127.76 l 0 111.998 12.801 99.201 28.559 99.201 c 287.52 99.201 l 287.52 
45.6 l 473.121 45.6 l 473.121 99.201 l 732.078 99.201 l 747.84 99.201 
760.641 111.998 760.641 127.76 c 760.641 519.201 l 760.641 534.959 
747.84 547.76 732.078 547.76 c h
698.719 180.881 m 698.719 165.92 686.559 153.76 671.602 153.76 c 89.039 
153.76 l 74.078 153.76 61.922 165.92 61.922 180.881 c 61.922 481.998 l 
61.922 496.959 74.078 509.119 89.039 509.119 c 671.68 509.119 l 686.641 
509.119 698.801 496.959 698.801 481.998 c 698.801 180.881 l h
698.719 180.881 m f
585.281 25.522 m 175.359 25.522 l 168.398 25.522 162.719 19.838 162.719 
12.881 c 162.719 12.639 l 162.719 5.682 168.398 -0.002 175.359 -0.002 c 
585.199 -0.002 l 592.16 -0.002 597.84 5.682 597.84 12.639 c 597.84 
12.881 l 597.922 19.838 592.238 25.522 585.281 25.522 c h
585.281 25.522 m f
299.602 322.959 m 303.602 354.319 314.32 384.24 330.559 409.92 c 228.16 
409.998 211.762 334.401 209.281 305.041 c 209.121 302.721 212.32 
301.838 213.281 303.998 c 245.922 374.158 288.48 320.881 236.801 
292.881 c 169.922 256.721 163.199 204.08 164.48 178.24 c 164.559 
175.838 168 175.522 168.559 177.76 c 172.801 193.201 185.441 215.44 
223.359 217.92 c 264.801 220.721 352.719 197.44 413.039 263.998 c 
378.641 265.362 344.32 275.76 313.441 294.319 c 303.602 300.319 298.16 
311.522 299.602 322.959 c h
299.602 322.959 m f
590 454.08 m 559.441 472.401 525.121 482.319 490.801 482.319 c 465.039 
482.319 439.359 476.799 415.121 465.041 c 388.238 451.998 366.238 
432.799 349.602 409.522 c 331.281 383.92 319.602 353.362 315.441 
320.959 c 314.801 315.838 317.199 310.799 321.68 308.158 c 352.238 
289.838 386.559 279.92 420.879 279.92 c 422.48 279.92 424.16 279.92 
425.762 279.998 c 449.84 280.639 473.84 286.24 496.559 297.201 c 
553.039 324.639 588.32 379.44 596.238 441.28 c 596.801 446.401 594.398 
451.44 590 454.08 c h
525.68 383.041 m 524.238 382.319 522.801 381.998 521.359 381.998 c 
517.68 381.998 514.078 384.08 512.32 387.6 c 508.48 395.44 l 469.199 
376.401 l 471.359 371.838 l 473.762 366.881 471.68 360.881 466.719 
358.479 c 465.281 357.76 463.84 357.44 462.398 357.44 c 458.719 357.44 
455.121 359.522 453.359 363.041 c 451.199 367.6 l 440.078 362.24 l 
411.922 348.561 l 414.078 343.998 l 416.48 339.041 414.398 333.041 
409.441 330.639 c 408 329.92 406.559 329.6 405.121 329.6 c 401.441 
329.6 397.84 331.682 396.078 335.201 c 382.961 362.24 l 380.559 367.201 
382.641 373.201 387.602 375.6 c 392.559 377.998 398.559 375.92 400.961 
370.959 c 403.121 366.401 l 432.238 380.561 l 442.398 385.522 l 440.238 
390.08 l 437.84 395.041 439.922 401.041 444.879 403.44 c 449.84 405.838 
455.84 403.76 458.238 398.799 c 460.398 394.24 l 499.68 413.28 l 495.84 
421.119 l 493.441 426.08 495.52 432.08 500.48 434.479 c 505.441 436.881 
511.441 434.799 513.84 429.838 c 530.16 396.158 l 532.719 391.44 
530.641 385.44 525.68 383.041 c h
525.68 383.041 m f
Q Q
showpage
%%Trailer
count op_count sub {pop} repeat
countdictstack dict_count sub {end} repeat
cairo_eps_state restore
%%EOF
