%!PS-Adobe-3.0 EPSF-3.0
%%Creator: cairo 1.10.2 (http://cairographics.org)
%%CreationDate: Mon Jul 14 07:17:19 2014
%%Pages: 1
%%BoundingBox: 0 -1 638 776
%%DocumentData: Clean7Bit
%%LanguageLevel: 2
%%EndComments
%%BeginProlog
/cairo_eps_state save def
/dict_count countdictstack def
/op_count count 1 sub def
userdict begin
/q { gsave } bind def
/Q { grestore } bind def
/cm { 6 array astore concat } bind def
/w { setlinewidth } bind def
/J { setlinecap } bind def
/j { setlinejoin } bind def
/M { setmiterlimit } bind def
/d { setdash } bind def
/m { moveto } bind def
/l { lineto } bind def
/c { curveto } bind def
/h { closepath } bind def
/re { exch dup neg 3 1 roll 5 3 roll moveto 0 rlineto
      0 exch rlineto 0 rlineto closepath } bind def
/S { stroke } bind def
/f { fill } bind def
/f* { eofill } bind def
/n { newpath } bind def
/W { clip } bind def
/W* { eoclip } bind def
/BT { } bind def
/ET { } bind def
/pdfmark where { pop globaldict /?pdfmark /exec load put }
    { globaldict begin /?pdfmark /pop load def /pdfmark
    /cleartomark load def end } ifelse
/BDC { mark 3 1 roll /BDC pdfmark } bind def
/EMC { mark /EMC pdfmark } bind def
/cairo_store_point { /cairo_point_y exch def /cairo_point_x exch def } def
/Tj { show currentpoint cairo_store_point } bind def
/TJ {
  {
    dup
    type /stringtype eq
    { show } { -0.001 mul 0 cairo_font_matrix dtransform rmoveto } ifelse
  } forall
  currentpoint cairo_store_point
} bind def
/cairo_selectfont { cairo_font_matrix aload pop pop pop 0 0 6 array astore
    cairo_font exch selectfont cairo_point_x cairo_point_y moveto } bind def
/Tf { pop /cairo_font exch def /cairo_font_matrix where
      { pop cairo_selectfont } if } bind def
/Td { matrix translate cairo_font_matrix matrix concatmatrix dup
      /cairo_font_matrix exch def dup 4 get exch 5 get cairo_store_point
      /cairo_font where { pop cairo_selectfont } if } bind def
/Tm { 2 copy 8 2 roll 6 array astore /cairo_font_matrix exch def
      cairo_store_point /cairo_font where { pop cairo_selectfont } if } bind def
/g { setgray } bind def
/rg { setrgbcolor } bind def
/d1 { setcachedevice } bind def
%%EndProlog
%%Page: 1 1
%%BeginPageSetup
%%PageBoundingBox: 0 -1 638 776
%%EndPageSetup
q 0 -1 638 777 rectclip q
0 775.52 638 -776 re W n
0 g
132.16 193.841 m 133.84 86.481 222.078 -0.159 329.441 0.001 c 438.16 
0.161 526.238 88.321 526.238 197.04 c 526.238 265.598 491.199 326.001 
438.078 361.282 c 438.078 395.442 l 438.078 409.758 427.84 421.758 
414.32 424.399 c 244.078 424.399 l 230.559 421.758 220.32 409.758 
220.32 395.442 c 220.32 361.282 l 166.32 325.442 131.039 263.68 132.16 
193.841 c h
404.398 86.962 m 407.52 89.04 410.48 91.282 413.359 93.598 c 444.961 
119.04 463.441 157.36 463.441 198.239 c 463.441 233.2 449.84 266.641 
425.762 291.52 c 423.199 294.161 420.48 296.801 417.68 299.2 c 411.84 
304.321 411.281 313.122 416.398 318.962 c 421.52 324.801 430.32 325.36 
436.16 320.239 c 471.359 289.36 491.52 244.88 491.52 198.161 c 491.52 
144.239 464.801 93.919 420.078 63.68 c 417.68 62.079 414.961 61.282 
412.238 61.282 c 407.762 61.282 403.359 63.442 400.641 67.442 c 396.398 
73.919 398 82.641 404.398 86.962 c h
275.359 388.719 m 383.121 388.719 l 388.641 388.719 393.121 384.239 
393.121 378.719 c 393.121 373.2 388.641 368.719 383.121 368.719 c 
275.359 368.719 l 269.84 368.719 265.359 373.2 265.359 378.719 c 
265.359 384.239 269.84 388.719 275.359 388.719 c h
275.359 388.719 m f
200.48 465.68 m 201.121 467.122 201.84 468.481 202.719 469.841 c 
307.121 631.122 l 213.68 775.52 l 0 775.52 l h
200.48 465.68 m f
423.68 774.321 m 319.039 612.719 l 219.52 458.962 l 216.961 454.962 
217.762 450.239 220.641 447.2 c 222.32 445.442 224.719 444.321 227.441 
444.321 c 418.559 444.321 l 421.762 444.321 424.801 445.919 426.48 
448.641 c 637.281 774.321 l h
423.68 774.321 m f
Q Q
showpage
%%Trailer
count op_count sub {pop} repeat
countdictstack dict_count sub {end} repeat
cairo_eps_state restore
%%EOF
