%!PS-Adobe-3.0 EPSF-3.0
%%Creator: cairo 1.10.2 (http://cairographics.org)
%%CreationDate: Thu Jul 10 14:00:25 2014
%%Pages: 1
%%BoundingBox: 0 -1 606 748
%%DocumentData: Clean7Bit
%%LanguageLevel: 2
%%EndComments
%%BeginProlog
/cairo_eps_state save def
/dict_count countdictstack def
/op_count count 1 sub def
userdict begin
/q { gsave } bind def
/Q { grestore } bind def
/cm { 6 array astore concat } bind def
/w { setlinewidth } bind def
/J { setlinecap } bind def
/j { setlinejoin } bind def
/M { setmiterlimit } bind def
/d { setdash } bind def
/m { moveto } bind def
/l { lineto } bind def
/c { curveto } bind def
/h { closepath } bind def
/re { exch dup neg 3 1 roll 5 3 roll moveto 0 rlineto
      0 exch rlineto 0 rlineto closepath } bind def
/S { stroke } bind def
/f { fill } bind def
/f* { eofill } bind def
/n { newpath } bind def
/W { clip } bind def
/W* { eoclip } bind def
/BT { } bind def
/ET { } bind def
/pdfmark where { pop globaldict /?pdfmark /exec load put }
    { globaldict begin /?pdfmark /pop load def /pdfmark
    /cleartomark load def end } ifelse
/BDC { mark 3 1 roll /BDC pdfmark } bind def
/EMC { mark /EMC pdfmark } bind def
/cairo_store_point { /cairo_point_y exch def /cairo_point_x exch def } def
/Tj { show currentpoint cairo_store_point } bind def
/TJ {
  {
    dup
    type /stringtype eq
    { show } { -0.001 mul 0 cairo_font_matrix dtransform rmoveto } ifelse
  } forall
  currentpoint cairo_store_point
} bind def
/cairo_selectfont { cairo_font_matrix aload pop pop pop 0 0 6 array astore
    cairo_font exch selectfont cairo_point_x cairo_point_y moveto } bind def
/Tf { pop /cairo_font exch def /cairo_font_matrix where
      { pop cairo_selectfont } if } bind def
/Td { matrix translate cairo_font_matrix matrix concatmatrix dup
      /cairo_font_matrix exch def dup 4 get exch 5 get cairo_store_point
      /cairo_font where { pop cairo_selectfont } if } bind def
/Tm { 2 copy 8 2 roll 6 array astore /cairo_font_matrix exch def
      cairo_store_point /cairo_font where { pop cairo_selectfont } if } bind def
/g { setgray } bind def
/rg { setrgbcolor } bind def
/d1 { setcachedevice } bind def
%%EndProlog
%%Page: 1 1
%%BeginPageSetup
%%PageBoundingBox: 0 -1 606 748
%%EndPageSetup
q 0 -1 606 749 rectclip q
0 747.5 606 -748 re W n
0 g
388.691 548.621 m 390.77 557.34 391.891 566.461 391.891 575.898 c 
391.891 575.98 l 391.891 579.98 388.531 583.18 384.531 583.18 c 217.969 
583.18 l 213.969 583.18 210.609 579.98 210.609 575.98 c 210.609 575.898 
l 210.609 566.461 211.73 557.34 213.809 548.621 c 214.609 545.262 
217.57 542.941 221.012 542.941 c 381.488 542.941 l 384.93 542.941 
387.891 545.262 388.691 548.621 c h
388.691 548.621 m f
231.809 522.141 m 228.129 522.141 225.891 518.059 227.891 514.941 c 
244.371 488.941 271.09 471.98 301.25 471.98 c 331.41 471.98 358.129 
488.941 374.531 514.941 c 376.531 518.059 374.289 522.141 370.609 
522.141 c h
231.809 522.141 m f
178.609 519.18 m 183.969 519.18 l 190.051 519.18 195.012 524.141 
195.012 530.219 c 195.012 590.219 l 195.012 595.98 199.648 600.621 
205.41 600.621 c 397.25 600.621 l 403.012 600.621 407.648 595.98 
407.648 590.219 c 407.648 530.219 l 407.648 524.141 412.609 519.18 
418.77 519.18 c 423.172 519.18 l 429.25 519.18 434.129 524.059 434.129 
530.141 c 434.211 550.539 434.449 593.18 434.449 603.898 c 434.449 
683.422 374.531 747.5 301.172 747.5 c 227.73 747.5 167.41 682.141 
167.41 602.621 c 167.41 591.82 167.57 550.301 167.57 530.219 c 167.648 
524.059 172.531 519.18 178.609 519.18 c h
178.609 519.18 m f
3.09 281.578 m 61.41 281.578 l 61.41 45.738 l 61.25 -15.141 140.609 
-15.141 140.609 45.738 c 140.609 309.5 l 140.609 311.18 141.969 312.539 
143.648 312.539 c 153.172 312.539 l 159.969 312.539 165.488 307.02 
165.488 300.219 c 165.488 234.941 l 165.488 228.141 171.012 222.621 
177.809 222.621 c 257.172 222.621 l 259.809 222.621 261.891 225.02 
261.488 227.66 c 257.25 256.379 247.09 317.98 233.172 354.141 c 218.531 
392.219 201.172 423.66 189.012 443.422 c 185.73 448.781 179.809 452.059 
173.488 452.059 c 87.41 452.059 l 68.691 452.059 50.77 443.98 38.531 
429.82 c 30.609 420.621 22.289 407.898 15.332 390.539 c -0.191 351.66 
-0.191 297.738 0.051 284.539 c 0.051 282.859 1.41 281.578 3.09 281.578 
c h
3.09 281.578 m f
272.93 203.98 m 177.73 203.98 l 170.93 203.98 165.41 198.461 165.41 
191.66 c 165.488 10.219 l 165.488 5.422 169.41 1.578 174.129 1.578 c 
431.41 1.578 l 436.211 1.578 440.051 5.422 440.051 10.219 c 440.129 
191.66 l 440.129 198.461 434.609 203.98 427.809 203.98 c 332.609 203.98 
l 327.25 203.34 322.691 209.34 323.332 214.461 c 323.809 218.379 335.73 
310.699 354.93 360.781 c 368.93 397.34 385.25 427.66 397.57 448.219 c 
398.609 449.898 397.332 452.059 395.41 452.059 c 302.77 452.141 l 
210.211 452.059 l 208.211 452.059 207.012 449.898 208.051 448.219 c 
220.371 427.66 236.609 397.34 250.691 360.781 c 269.891 310.699 281.809 
218.379 282.289 214.461 c 282.852 209.422 278.449 203.98 272.93 203.98 
c h
272.93 203.98 m f
416.531 443.422 m 404.371 423.578 387.012 392.219 372.371 354.141 c 
358.531 318.059 348.289 256.379 344.051 227.66 c 343.648 225.02 345.73 
222.621 348.371 222.621 c 427.73 222.621 l 434.531 222.621 440.051 
228.141 440.051 234.941 c 440.051 300.219 l 440.051 307.02 445.57 
312.539 452.371 312.539 c 461.969 312.539 l 463.648 312.539 465.012 
311.18 465.012 309.5 c 465.012 45.66 l 465.012 -15.219 544.371 -15.219 
544.211 45.66 c 544.211 281.578 l 602.531 281.578 l 604.211 281.578 
605.57 282.941 605.57 284.539 c 605.809 297.738 605.809 351.66 590.289 
390.539 c 583.332 407.898 575.012 420.621 567.09 429.82 c 554.852 
443.98 536.93 452.059 518.211 452.059 c 432.051 452.059 l 425.73 
452.059 419.891 448.781 416.531 443.422 c h
416.531 443.422 m f
Q Q
showpage
%%Trailer
count op_count sub {pop} repeat
countdictstack dict_count sub {end} repeat
cairo_eps_state restore
%%EOF
