%!PS-Adobe-3.0 EPSF-3.0
%%Creator: cairo 1.10.2 (http://cairographics.org)
%%CreationDate: Thu Jul 10 14:00:09 2014
%%Pages: 1
%%BoundingBox: 0 -1 771 683
%%DocumentData: Clean7Bit
%%LanguageLevel: 2
%%EndComments
%%BeginProlog
/cairo_eps_state save def
/dict_count countdictstack def
/op_count count 1 sub def
userdict begin
/q { gsave } bind def
/Q { grestore } bind def
/cm { 6 array astore concat } bind def
/w { setlinewidth } bind def
/J { setlinecap } bind def
/j { setlinejoin } bind def
/M { setmiterlimit } bind def
/d { setdash } bind def
/m { moveto } bind def
/l { lineto } bind def
/c { curveto } bind def
/h { closepath } bind def
/re { exch dup neg 3 1 roll 5 3 roll moveto 0 rlineto
      0 exch rlineto 0 rlineto closepath } bind def
/S { stroke } bind def
/f { fill } bind def
/f* { eofill } bind def
/n { newpath } bind def
/W { clip } bind def
/W* { eoclip } bind def
/BT { } bind def
/ET { } bind def
/pdfmark where { pop globaldict /?pdfmark /exec load put }
    { globaldict begin /?pdfmark /pop load def /pdfmark
    /cleartomark load def end } ifelse
/BDC { mark 3 1 roll /BDC pdfmark } bind def
/EMC { mark /EMC pdfmark } bind def
/cairo_store_point { /cairo_point_y exch def /cairo_point_x exch def } def
/Tj { show currentpoint cairo_store_point } bind def
/TJ {
  {
    dup
    type /stringtype eq
    { show } { -0.001 mul 0 cairo_font_matrix dtransform rmoveto } ifelse
  } forall
  currentpoint cairo_store_point
} bind def
/cairo_selectfont { cairo_font_matrix aload pop pop pop 0 0 6 array astore
    cairo_font exch selectfont cairo_point_x cairo_point_y moveto } bind def
/Tf { pop /cairo_font exch def /cairo_font_matrix where
      { pop cairo_selectfont } if } bind def
/Td { matrix translate cairo_font_matrix matrix concatmatrix dup
      /cairo_font_matrix exch def dup 4 get exch 5 get cairo_store_point
      /cairo_font where { pop cairo_selectfont } if } bind def
/Tm { 2 copy 8 2 roll 6 array astore /cairo_font_matrix exch def
      cairo_store_point /cairo_font where { pop cairo_selectfont } if } bind def
/g { setgray } bind def
/rg { setrgbcolor } bind def
/d1 { setcachedevice } bind def
%%EndProlog
%%Page: 1 1
%%BeginPageSetup
%%PageBoundingBox: 0 -1 771 683
%%EndPageSetup
q 0 -1 771 684 rectclip q
0 682.48 771 -683 re W n
0 g
94.414 334.082 m 97.453 331.039 102.414 331.519 104.812 335.121 c 
122.812 361.839 l 20.176 464.48 l 1.773 438.082 l -1.027 433.839 -0.465 
428.242 3.133 424.64 c h
94.414 334.082 m f
186.492 34.402 m 186.492 12 l 186.492 5.359 191.855 -0 198.492 -0 c 
571.855 -0 l 578.492 -0 583.855 5.359 583.855 12 c 583.855 34.402 l h
186.492 34.402 m f
154.332 408.718 m 52.332 510.718 l 35.055 485.839 l 137.375 383.441 l h
154.332 408.718 m f
186.492 95.519 397.363 -31.68 re f
665.535 335.039 m 667.934 331.519 672.895 331.039 675.934 334 c 767.293 
424.558 l 770.895 428.16 771.453 433.761 768.652 438 c 750.254 464.402 
l 647.613 361.761 l h
665.535 335.039 m f
633.055 383.441 m 735.375 485.839 l 718.094 510.718 l 616.094 408.718 l 
h
633.055 383.441 m f
186.492 456.558 m 186.492 125.039 l 583.855 125.039 l 583.855 456.558 l 
601.453 430.402 l 703.133 532.082 l 608.414 668 l 602.094 677.039 
591.695 682.48 580.652 682.48 c 189.773 682.48 l 178.734 682.48 168.332 
677.039 162.016 668 c 67.215 532.082 l 168.895 430.402 l h
524.812 464.32 m 524.812 454.96 520.332 449.761 513.453 443.121 c 
479.613 410.8 l 503.055 406.878 526.016 394.48 526.016 362.402 c 
526.016 361.921 l 526.016 329.359 502.332 305.441 463.855 305.441 c 
439.215 305.441 420.652 313.121 406.574 325.199 c 403.133 328.16 
400.176 333.359 400.176 338.8 c 400.176 348.64 408.574 357.039 418.414 
357.039 c 423.855 357.039 427.535 354.8 430.492 352.32 c 440.332 
343.921 450.734 339.519 464.332 339.519 c 478.652 339.519 488.734 
347.679 488.734 360.48 c 488.734 360.96 l 488.734 375.039 476.176 
382.96 454.895 382.96 c 448.973 382.96 l 440.094 382.96 432.652 390.402 
432.652 399.281 c 432.652 404.48 434.895 408.878 440.812 414.8 c 
474.414 448.64 l 421.375 448.64 l 412.492 448.64 405.055 456.082 
405.055 464.96 c 405.055 473.839 412.492 481.281 421.375 481.281 c 
505.535 481.281 l 516.652 481.121 524.812 474.718 524.812 464.32 c h
465.773 653.121 m 385.215 572.558 l 304.652 653.121 l h
242.734 356.242 m 242.734 377.199 252.332 389.519 270.652 397.921 c 
257.293 406.082 248.652 417.199 248.652 435.679 c 248.652 436.16 l 
248.652 462.558 272.812 483.519 309.375 483.519 c 345.934 483.519 
370.094 462.8 370.094 436.16 c 370.094 435.679 l 370.094 417.199 
361.453 406.082 348.094 397.921 c 365.613 388.8 376.016 377.679 376.016 
357.199 c 376.016 356.718 l 376.016 324.64 347.613 305.921 309.375 
305.921 c 271.133 305.921 242.734 325.679 242.734 355.761 c h
242.734 356.242 m f
309.375 410.558 m 324.414 410.558 334.016 419.441 334.016 431.519 c 
334.016 432 l 334.016 442.64 324.895 452.242 309.375 452.242 c 293.855 
452.242 284.734 442.878 284.734 432.242 c 284.734 431.761 l 284.734 
419.679 294.332 410.558 309.375 410.558 c h
309.375 410.558 m f
309.375 337.281 m 328.094 337.281 339.215 346.64 339.215 358.718 c 
339.215 359.199 l 339.215 372.558 326.652 380.402 309.375 380.402 c 
292.094 380.402 279.535 372.48 279.535 359.199 c 279.535 358.718 l 
279.535 346.878 290.652 337.281 309.375 337.281 c h
309.375 337.281 m f
Q Q
showpage
%%Trailer
count op_count sub {pop} repeat
countdictstack dict_count sub {end} repeat
cairo_eps_state restore
%%EOF
