%!PS-Adobe-3.0 EPSF-3.0
%%Creator: cairo 1.10.2 (http://cairographics.org)
%%CreationDate: Fri Jul 11 07:15:07 2014
%%Pages: 1
%%BoundingBox: 0 -1 669 761
%%DocumentData: Clean7Bit
%%LanguageLevel: 2
%%EndComments
%%BeginProlog
/cairo_eps_state save def
/dict_count countdictstack def
/op_count count 1 sub def
userdict begin
/q { gsave } bind def
/Q { grestore } bind def
/cm { 6 array astore concat } bind def
/w { setlinewidth } bind def
/J { setlinecap } bind def
/j { setlinejoin } bind def
/M { setmiterlimit } bind def
/d { setdash } bind def
/m { moveto } bind def
/l { lineto } bind def
/c { curveto } bind def
/h { closepath } bind def
/re { exch dup neg 3 1 roll 5 3 roll moveto 0 rlineto
      0 exch rlineto 0 rlineto closepath } bind def
/S { stroke } bind def
/f { fill } bind def
/f* { eofill } bind def
/n { newpath } bind def
/W { clip } bind def
/W* { eoclip } bind def
/BT { } bind def
/ET { } bind def
/pdfmark where { pop globaldict /?pdfmark /exec load put }
    { globaldict begin /?pdfmark /pop load def /pdfmark
    /cleartomark load def end } ifelse
/BDC { mark 3 1 roll /BDC pdfmark } bind def
/EMC { mark /EMC pdfmark } bind def
/cairo_store_point { /cairo_point_y exch def /cairo_point_x exch def } def
/Tj { show currentpoint cairo_store_point } bind def
/TJ {
  {
    dup
    type /stringtype eq
    { show } { -0.001 mul 0 cairo_font_matrix dtransform rmoveto } ifelse
  } forall
  currentpoint cairo_store_point
} bind def
/cairo_selectfont { cairo_font_matrix aload pop pop pop 0 0 6 array astore
    cairo_font exch selectfont cairo_point_x cairo_point_y moveto } bind def
/Tf { pop /cairo_font exch def /cairo_font_matrix where
      { pop cairo_selectfont } if } bind def
/Td { matrix translate cairo_font_matrix matrix concatmatrix dup
      /cairo_font_matrix exch def dup 4 get exch 5 get cairo_store_point
      /cairo_font where { pop cairo_selectfont } if } bind def
/Tm { 2 copy 8 2 roll 6 array astore /cairo_font_matrix exch def
      cairo_store_point /cairo_font where { pop cairo_selectfont } if } bind def
/g { setgray } bind def
/rg { setrgbcolor } bind def
/d1 { setcachedevice } bind def
%%EndProlog
%%Page: 1 1
%%BeginPageSetup
%%PageBoundingBox: 0 -1 669 761
%%EndPageSetup
q 0 -1 669 762 rectclip q
0 760.02 669 -761 re W n
0 g
328.961 146.559 m 333.039 144 335.84 143.918 339.922 146.559 c 426.078 
201.122 484.078 289.918 489.84 391.68 c 490.078 395.84 490.238 400.079 
490.32 404.321 c 490.879 442.079 484.16 478.321 471.441 512.161 c 
448.16 574.239 404.32 627.84 347.359 666.239 c 340.078 671.122 328.879 
671.2 321.602 666.239 c 264.559 627.84 220.801 574.239 197.441 512.161 
c 184.719 478.321 178 442.079 178.559 404.321 c 178.641 400.079 178.801 
395.84 179.039 391.68 c 184.801 290 242.801 201.2 328.961 146.559 c h
320.559 389.758 m 311.84 389.758 l 309.039 389.758 306.398 390.481 304 
391.68 c 298.641 394.481 294.961 400.161 294.961 406.719 c 295.039 416 
302.879 423.36 312.238 423.36 c 320.48 423.36 l 320.48 510.719 l 
311.762 510.719 l 309.359 510.719 307.039 511.2 305.039 512.161 c 
298.961 514.801 294.801 520.961 294.961 528.079 c 295.199 537.2 303.039 
544.399 312.238 544.399 c 356.641 544.399 l 365.84 544.399 373.602 
537.282 373.922 528.079 c 374.16 520.961 369.922 514.801 363.84 512.161 
c 361.762 511.282 359.52 510.719 357.121 510.719 c 348.398 510.719 l 
348.398 423.442 l 356.641 423.442 l 365.922 423.442 373.84 416.079 
373.922 406.801 c 374 400.239 370.32 394.559 364.879 391.758 c 362.559 
390.559 359.922 389.84 357.039 389.84 c 348.32 389.84 l 348.32 293.918 
l 358.961 293.918 l 368.48 293.918 376.078 286.079 375.762 276.481 c 
375.441 267.36 367.68 260.239 358.48 260.239 c 310.16 260.239 l 301.039 
260.239 293.199 267.36 292.879 276.481 c 292.559 286 300.238 293.918 
309.68 293.918 c 320.32 293.918 l h
668.961 640.481 m 668.961 512.239 l 498.32 512.239 l 492 530.559 
484.078 548.399 474.48 565.52 c 447.84 613.282 408.719 655.36 361.441 
687.282 c 345.52 698 323.359 698 307.441 687.282 c 260.16 655.36 
221.039 613.282 194.398 565.52 c 184.879 548.399 176.879 530.559 
170.559 512.239 c 0 512.239 l 0 640.481 l 0 655.52 9.922 668.719 24.398 
672.801 c 322.801 758.399 l 330.238 760.559 338.879 760.559 346.398 
758.399 c 346.48 758.399 644.801 672.801 644.801 672.801 c 659.039 
668.641 668.961 655.442 668.961 640.481 c h
659.121 391.68 m 659.121 391.68 l 655.359 375.598 650.238 358.399 
643.359 342.559 c 576 162.801 394.559 10.399 334.398 0 c 274.238 10.399 
92.879 162.879 25.441 342.559 c 18.559 358.321 13.441 375.598 9.68 
391.598 c 153.602 391.598 l 154.879 367.282 158.961 343.2 165.68 319.84 
c 173.359 293.36 184.48 267.758 198.879 243.68 c 226.879 196.719 
267.121 155.758 315.281 125.2 c 320.238 122.079 325.762 119.84 331.441 
118.719 c 333.281 118.321 335.281 118.321 337.121 118.719 c 342.801 
119.84 348.32 122 353.281 125.2 c 401.441 155.758 441.762 196.719 
469.68 243.68 c 484 267.758 495.199 293.36 502.879 319.84 c 509.68 
343.2 513.68 367.282 514.961 391.598 c h
659.121 391.68 m f
Q Q
showpage
%%Trailer
count op_count sub {pop} repeat
countdictstack dict_count sub {end} repeat
cairo_eps_state restore
%%EOF
