%!PS-Adobe-3.0 EPSF-3.0
%%Creator: cairo 1.10.2 (http://cairographics.org)
%%CreationDate: Thu Jul 10 14:00:18 2014
%%Pages: 1
%%BoundingBox: 0 -1 616 738
%%DocumentData: Clean7Bit
%%LanguageLevel: 2
%%EndComments
%%BeginProlog
/cairo_eps_state save def
/dict_count countdictstack def
/op_count count 1 sub def
userdict begin
/q { gsave } bind def
/Q { grestore } bind def
/cm { 6 array astore concat } bind def
/w { setlinewidth } bind def
/J { setlinecap } bind def
/j { setlinejoin } bind def
/M { setmiterlimit } bind def
/d { setdash } bind def
/m { moveto } bind def
/l { lineto } bind def
/c { curveto } bind def
/h { closepath } bind def
/re { exch dup neg 3 1 roll 5 3 roll moveto 0 rlineto
      0 exch rlineto 0 rlineto closepath } bind def
/S { stroke } bind def
/f { fill } bind def
/f* { eofill } bind def
/n { newpath } bind def
/W { clip } bind def
/W* { eoclip } bind def
/BT { } bind def
/ET { } bind def
/pdfmark where { pop globaldict /?pdfmark /exec load put }
    { globaldict begin /?pdfmark /pop load def /pdfmark
    /cleartomark load def end } ifelse
/BDC { mark 3 1 roll /BDC pdfmark } bind def
/EMC { mark /EMC pdfmark } bind def
/cairo_store_point { /cairo_point_y exch def /cairo_point_x exch def } def
/Tj { show currentpoint cairo_store_point } bind def
/TJ {
  {
    dup
    type /stringtype eq
    { show } { -0.001 mul 0 cairo_font_matrix dtransform rmoveto } ifelse
  } forall
  currentpoint cairo_store_point
} bind def
/cairo_selectfont { cairo_font_matrix aload pop pop pop 0 0 6 array astore
    cairo_font exch selectfont cairo_point_x cairo_point_y moveto } bind def
/Tf { pop /cairo_font exch def /cairo_font_matrix where
      { pop cairo_selectfont } if } bind def
/Td { matrix translate cairo_font_matrix matrix concatmatrix dup
      /cairo_font_matrix exch def dup 4 get exch 5 get cairo_store_point
      /cairo_font where { pop cairo_selectfont } if } bind def
/Tm { 2 copy 8 2 roll 6 array astore /cairo_font_matrix exch def
      cairo_store_point /cairo_font where { pop cairo_selectfont } if } bind def
/g { setgray } bind def
/rg { setrgbcolor } bind def
/d1 { setcachedevice } bind def
%%EndProlog
%%Page: 1 1
%%BeginPageSetup
%%PageBoundingBox: 0 -1 616 738
%%EndPageSetup
q 0 -1 616 739 rectclip q
0 737.28 616 -738 re W n
0 g
180.801 90.401 m 180.801 40.475 140.328 -0.001 90.398 -0.001 c 40.473 
-0.001 0 40.475 0 90.401 c 0 140.327 40.473 180.799 90.398 180.799 c 
140.328 180.799 180.801 140.327 180.801 90.401 c h
180.801 90.401 m f
441.762 90.401 m 441.762 40.475 401.285 -0.001 351.359 -0.001 c 301.434 
-0.001 260.961 40.475 260.961 90.401 c 260.961 140.327 301.434 180.799 
351.359 180.799 c 401.285 180.799 441.762 140.327 441.762 90.401 c h
441.762 90.401 m f
441.762 646.882 m 441.762 596.952 401.285 556.479 351.359 556.479 c 
301.434 556.479 260.961 596.952 260.961 646.882 c 260.961 696.807 
301.434 737.28 351.359 737.28 c 401.285 737.28 441.762 696.807 441.762 
646.882 c h
441.762 646.882 m f
39.281 454.081 m 4.961 419.76 l 0.879 415.678 0.879 409.042 4.961 
404.96 c 41.281 368.639 l 4.961 332.319 l 0.879 328.241 0.879 321.6 
4.961 317.518 c 39.281 283.202 l 43.359 279.12 50 279.12 54.078 283.202 
c 90.398 319.518 l 126.719 283.202 l 130.801 279.12 137.441 279.12 
141.52 283.202 c 175.84 317.518 l 179.922 321.6 179.922 328.241 175.84 
332.319 c 139.52 368.639 l 175.84 404.96 l 179.922 409.042 179.922 
415.678 175.84 419.76 c 141.52 454.081 l 137.441 458.159 130.801 
458.159 126.719 454.081 c 90.398 417.76 l 54.078 454.081 l 50 458.159 
43.359 458.159 39.281 454.081 c h
39.281 454.081 m f
436.801 419.76 m 402.48 454.081 l 398.398 458.159 391.762 458.159 
387.68 454.081 c 351.359 417.76 l 315.039 454.081 l 310.961 458.159 
304.32 458.159 300.238 454.081 c 265.922 419.76 l 261.84 415.678 261.84 
409.042 265.922 404.96 c 302.238 368.639 l 265.922 332.319 l 261.84 
328.241 261.84 321.6 265.922 317.518 c 300.238 283.202 l 304.32 279.12 
310.961 279.12 315.039 283.202 c 351.359 319.518 l 387.68 283.202 l 
391.762 279.12 398.398 279.12 402.48 283.202 c 436.801 317.518 l 
440.879 321.6 440.879 328.241 436.801 332.319 c 400.48 368.639 l 
436.801 404.96 l 440.879 409.042 440.879 415.678 436.801 419.76 c h
436.801 419.76 m f
475.281 134.081 m 466.879 127.042 465.281 114.561 472.078 105.999 c 
476.078 101.042 481.84 98.479 487.762 98.479 c 492.32 98.479 496.801 
99.999 500.559 103.12 c 572.398 163.12 615.281 262.401 615.281 368.639 
c 615.281 405.358 610.238 441.28 600.398 475.6 c 592.238 503.839 
580.961 530.401 566.801 554.721 c 590.078 574.479 l 593.359 577.28 
592.398 582.639 588.32 584.081 c 494.078 617.839 l 490 619.28 485.84 
615.76 486.641 611.518 c 504.48 513.042 l 505.281 508.721 510.398 
506.96 513.68 509.76 c 537.281 530.799 l 548.16 510.96 555.359 487.202 
561.922 464.479 c 570.801 433.839 575.281 401.6 575.281 368.639 c 
575.281 274.319 537.922 186.639 475.281 134.081 c h
475.281 134.081 m f
Q Q
showpage
%%Trailer
count op_count sub {pop} repeat
countdictstack dict_count sub {end} repeat
cairo_eps_state restore
%%EOF
