%!PS-Adobe-3.0 EPSF-3.0
%%Creator: cairo 1.10.2 (http://cairographics.org)
%%CreationDate: Thu Jul 10 14:00:35 2014
%%Pages: 1
%%BoundingBox: 0 -1 721 783
%%DocumentData: Clean7Bit
%%LanguageLevel: 2
%%EndComments
%%BeginProlog
/cairo_eps_state save def
/dict_count countdictstack def
/op_count count 1 sub def
userdict begin
/q { gsave } bind def
/Q { grestore } bind def
/cm { 6 array astore concat } bind def
/w { setlinewidth } bind def
/J { setlinecap } bind def
/j { setlinejoin } bind def
/M { setmiterlimit } bind def
/d { setdash } bind def
/m { moveto } bind def
/l { lineto } bind def
/c { curveto } bind def
/h { closepath } bind def
/re { exch dup neg 3 1 roll 5 3 roll moveto 0 rlineto
      0 exch rlineto 0 rlineto closepath } bind def
/S { stroke } bind def
/f { fill } bind def
/f* { eofill } bind def
/n { newpath } bind def
/W { clip } bind def
/W* { eoclip } bind def
/BT { } bind def
/ET { } bind def
/pdfmark where { pop globaldict /?pdfmark /exec load put }
    { globaldict begin /?pdfmark /pop load def /pdfmark
    /cleartomark load def end } ifelse
/BDC { mark 3 1 roll /BDC pdfmark } bind def
/EMC { mark /EMC pdfmark } bind def
/cairo_store_point { /cairo_point_y exch def /cairo_point_x exch def } def
/Tj { show currentpoint cairo_store_point } bind def
/TJ {
  {
    dup
    type /stringtype eq
    { show } { -0.001 mul 0 cairo_font_matrix dtransform rmoveto } ifelse
  } forall
  currentpoint cairo_store_point
} bind def
/cairo_selectfont { cairo_font_matrix aload pop pop pop 0 0 6 array astore
    cairo_font exch selectfont cairo_point_x cairo_point_y moveto } bind def
/Tf { pop /cairo_font exch def /cairo_font_matrix where
      { pop cairo_selectfont } if } bind def
/Td { matrix translate cairo_font_matrix matrix concatmatrix dup
      /cairo_font_matrix exch def dup 4 get exch 5 get cairo_store_point
      /cairo_font where { pop cairo_selectfont } if } bind def
/Tm { 2 copy 8 2 roll 6 array astore /cairo_font_matrix exch def
      cairo_store_point /cairo_font where { pop cairo_selectfont } if } bind def
/g { setgray } bind def
/rg { setrgbcolor } bind def
/d1 { setcachedevice } bind def
%%EndProlog
%%Page: 1 1
%%BeginPageSetup
%%PageBoundingBox: 0 -1 721 783
%%EndPageSetup
q 0 -1 721 784 rectclip q
0 782.322 721 -783 re W n
0 g
635.445 292.639 m 639.926 297.119 639.926 304.318 635.445 308.721 c 
608.805 335.361 l 607.688 336.478 606.887 337.76 606.324 339.119 c 
605.848 340.24 605.207 341.521 605.207 342.002 c 611.926 494.881 l 
611.926 524.24 598.965 541.119 590.406 549.76 c 551.207 588.959 l 
546.727 593.439 539.527 593.439 535.125 588.959 c 529.367 583.201 l 
527.047 580.881 523.926 579.682 520.887 579.682 c 516.086 579.682 
511.367 582.478 509.285 588.158 c 507.848 592.24 508.965 596.799 
512.008 599.842 c 518.086 605.92 l 522.566 610.4 522.566 617.6 518.086 
622.002 c 474.566 665.521 l 442.484 697.682 390.406 651.842 425.688 
616.639 c 482.965 559.361 l 492.965 549.361 494.727 537.76 485.285 
528.318 c 475.125 518.158 463.605 520.002 453.848 529.76 c 213.605 
770.002 l 177.285 806.318 121.445 754.478 159.766 716.158 c 325.125 
550.799 l 329.605 546.318 330.406 539.842 325.926 535.361 c 321.445 
530.881 314.965 531.682 310.484 536.158 c 111.047 735.6 l 76.008 
770.639 20.008 718.959 57.207 681.76 c 256.645 482.318 l 261.125 
477.842 261.926 471.361 257.445 466.881 c 252.965 462.4 246.484 463.201 
242.008 467.682 c 66.887 642.56 l 31.207 678.24 -20.234 622.002 13.047 
588.721 c 188.008 413.76 l 192.484 409.279 193.285 402.799 188.805 
398.318 c 184.324 393.842 177.848 394.639 173.367 399.119 c 59.926 
512.56 l 26.727 545.76 -21.992 496.639 10.965 463.6 c 327.688 146.881 l 
342.727 131.842 362.645 118.002 382.406 117.439 c 385.367 117.361 
388.164 116.24 390.246 114.08 c 415.527 88.799 l 420.008 84.318 427.207 
84.318 431.605 88.799 c h
289.125 658.721 m 269.125 638.721 l 266.805 636.4 263.688 635.201 
260.645 635.201 c 257.605 635.201 254.484 636.4 252.164 638.721 c 
247.445 643.439 247.445 651.041 252.164 655.682 c 272.484 676.002 l 
275.605 679.119 280.406 680.24 284.566 678.639 c 293.527 675.119 
295.047 664.639 289.125 658.721 c h
194.008 618.639 m 174.008 598.639 l 171.688 596.318 168.566 595.119 
165.527 595.119 c 162.484 595.119 159.367 596.318 157.047 598.639 c 
152.324 603.361 152.324 610.959 157.047 615.6 c 177.367 635.92 l 
180.484 639.041 185.285 640.158 189.445 638.56 c 198.406 635.041 
199.926 624.56 194.008 618.639 c h
137.688 536.08 m 117.688 516.08 l 115.367 513.76 112.246 512.56 109.207 
512.56 c 106.164 512.56 103.047 513.76 100.727 516.08 c 96.008 520.799 
96.008 528.4 100.727 533.041 c 121.047 553.361 l 124.164 556.478 
128.965 557.6 133.125 556.002 c 142.086 552.478 143.605 542.002 137.688 
536.08 c h
110.805 431.6 m 90.805 411.6 l 88.484 409.279 85.367 408.08 82.324 
408.08 c 79.285 408.08 76.164 409.279 73.848 411.6 c 69.125 416.318 
69.125 423.92 73.848 428.56 c 94.164 448.881 l 97.285 452.002 102.086 
453.119 106.246 451.521 c 115.207 448.002 116.727 437.521 110.805 431.6 
c h
399.766 157.682 m 368.484 160.478 l 361.047 161.119 354.008 164.4 
348.727 169.76 c 267.926 250.56 l 256.805 261.682 255.367 279.119 
264.484 291.842 c 393.926 472.799 l 400.805 482.4 412.406 487.521 
424.086 486.08 c 550.406 470.4 l 550.727 470.318 551.047 470.318 
551.285 470.24 c 567.047 467.119 578.164 452.959 577.527 436.881 c 
573.125 327.682 l 572.805 319.521 569.445 311.842 563.688 306.002 c 
425.367 166.959 l 418.645 160.24 409.285 156.799 399.766 157.682 c h
399.766 157.682 m f
535.207 446.24 m 453.207 456.318 l 442.246 457.682 433.207 447.682 
435.688 436.881 c 450.086 374.002 403.926 253.76 384.086 206.478 c 
379.926 196.56 386.484 185.521 397.125 184.4 c 401.125 184.002 l 
406.887 183.361 412.645 185.439 416.727 189.521 c 544.406 317.201 l 
547.926 320.721 549.926 325.439 550.008 330.4 c 552.086 426.881 l 
552.246 436.639 544.965 445.041 535.207 446.24 c h
535.207 446.24 m f
672.965 271.521 m 665.125 279.361 652.484 279.361 644.645 271.521 c 
450.086 76.959 l 442.246 69.119 442.246 56.478 450.086 48.639 c 454.008 
44.721 459.125 42.799 464.246 42.799 c 469.367 42.799 474.484 44.721 
478.406 48.639 c 672.965 243.201 l 680.805 251.041 680.805 263.76 
672.965 271.521 c h
672.965 271.521 m f
685.848 228.799 m 491.285 34.158 l 483.445 26.318 483.445 13.682 
491.285 5.842 c 495.207 1.92 500.324 0.002 505.445 0.002 c 510.566 
0.002 515.688 1.92 519.605 5.842 c 714.164 200.4 l 722.008 208.24 
722.008 220.881 714.164 228.721 c 706.324 236.56 693.688 236.56 685.848 
228.799 c h
685.848 228.799 m f
Q Q
showpage
%%Trailer
count op_count sub {pop} repeat
countdictstack dict_count sub {end} repeat
cairo_eps_state restore
%%EOF
