%!PS-Adobe-3.0 EPSF-3.0
%%Creator: cairo 1.10.2 (http://cairographics.org)
%%CreationDate: Thu Jul 10 14:00:05 2014
%%Pages: 1
%%BoundingBox: 0 -1 767 762
%%DocumentData: Clean7Bit
%%LanguageLevel: 2
%%EndComments
%%BeginProlog
/cairo_eps_state save def
/dict_count countdictstack def
/op_count count 1 sub def
userdict begin
/q { gsave } bind def
/Q { grestore } bind def
/cm { 6 array astore concat } bind def
/w { setlinewidth } bind def
/J { setlinecap } bind def
/j { setlinejoin } bind def
/M { setmiterlimit } bind def
/d { setdash } bind def
/m { moveto } bind def
/l { lineto } bind def
/c { curveto } bind def
/h { closepath } bind def
/re { exch dup neg 3 1 roll 5 3 roll moveto 0 rlineto
      0 exch rlineto 0 rlineto closepath } bind def
/S { stroke } bind def
/f { fill } bind def
/f* { eofill } bind def
/n { newpath } bind def
/W { clip } bind def
/W* { eoclip } bind def
/BT { } bind def
/ET { } bind def
/pdfmark where { pop globaldict /?pdfmark /exec load put }
    { globaldict begin /?pdfmark /pop load def /pdfmark
    /cleartomark load def end } ifelse
/BDC { mark 3 1 roll /BDC pdfmark } bind def
/EMC { mark /EMC pdfmark } bind def
/cairo_store_point { /cairo_point_y exch def /cairo_point_x exch def } def
/Tj { show currentpoint cairo_store_point } bind def
/TJ {
  {
    dup
    type /stringtype eq
    { show } { -0.001 mul 0 cairo_font_matrix dtransform rmoveto } ifelse
  } forall
  currentpoint cairo_store_point
} bind def
/cairo_selectfont { cairo_font_matrix aload pop pop pop 0 0 6 array astore
    cairo_font exch selectfont cairo_point_x cairo_point_y moveto } bind def
/Tf { pop /cairo_font exch def /cairo_font_matrix where
      { pop cairo_selectfont } if } bind def
/Td { matrix translate cairo_font_matrix matrix concatmatrix dup
      /cairo_font_matrix exch def dup 4 get exch 5 get cairo_store_point
      /cairo_font where { pop cairo_selectfont } if } bind def
/Tm { 2 copy 8 2 roll 6 array astore /cairo_font_matrix exch def
      cairo_store_point /cairo_font where { pop cairo_selectfont } if } bind def
/g { setgray } bind def
/rg { setrgbcolor } bind def
/d1 { setcachedevice } bind def
%%EndProlog
%%Page: 1 1
%%BeginPageSetup
%%PageBoundingBox: 0 -1 767 762
%%EndPageSetup
q 0 -1 767 763 rectclip q
0 761.793 767 -762 re W n
0 g
694.117 340.32 m 700.277 350.238 696.996 363.922 687.078 370 c 687.078 
370 453.316 513.68 427.156 530.719 c 413.078 539.922 397.875 545.922 
381.957 548.559 c 367.156 551.039 352.035 550.641 337.156 547.281 c 
321.156 543.68 305.477 536.719 291.797 527.039 c 278.355 517.441 
266.758 505.281 258.438 491.84 c 258.277 491.52 258.035 491.199 257.875 
490.879 c 257.875 490.879 185.797 373.922 185.715 373.762 c 179.875 
364.32 183.238 355.68 194.035 351.762 c 208.836 346.398 226.438 347.281 
242.836 351.922 c 259.715 356.719 274.598 366.16 284.758 378.48 c 
294.676 390.559 302.996 403.922 310.996 416.879 c 313.559 421.039 
316.277 425.359 318.918 429.52 c 326.195 440.879 334.758 448.641 
344.996 453.199 c 367.078 462.961 388.277 459.121 411.637 441.121 c 
435.477 422.879 441.316 391.039 425.477 365.441 c 424.516 363.922 
423.477 362.398 422.438 360.961 c 414.516 350.32 403.559 343.359 
386.918 338.48 c 378.438 336 l 380.598 327.359 l 384.758 310.559 
382.598 295.52 373.957 281.602 c 373.875 281.441 l 365.715 268.238 
353.316 259.68 336.117 255.359 c 327.637 253.199 l 329.316 244.641 l 
332.676 226.961 330.598 212.238 322.836 199.68 c 317.957 191.762 
310.516 184.398 300.918 177.762 c 289.156 169.762 l 487.078 47.52 l 
497.156 41.281 510.516 44.398 516.758 54.48 c 516.598 54.398 694.117 
340.238 694.117 340.32 c 694.117 340.238 694.117 340.238 694.117 340.32 
c h
694.117 340.32 m f
258.516 538.398 m 261.637 536.238 269.875 530.559 279.637 538.16 c 
294.195 549.52 310.836 557.441 330.355 562.48 c 333.875 563.359 336.836 
565.602 338.758 568.641 c 342.598 574.879 340.758 583.84 334.195 
587.922 c 329.957 590.559 l 277.559 622.879 118.035 721.359 63.875 
754.801 c 47.316 764.961 28.516 764 14.676 752.238 c 11.238 749.281 
8.277 745.922 5.957 742.16 c 0.117 732.719 -1.484 721.68 1.398 711.039 
c 4.277 700.398 11.398 691.039 21.559 684.801 c 71.156 654 209.238 
568.879 257.156 539.281 c 257.637 539.039 258.035 538.719 258.516 
538.398 c h
258.516 538.398 m f
308.117 206.719 m 308.277 206.961 308.438 207.199 308.516 207.441 c 
320.758 227.199 316.516 249.68 298.516 260.801 c 145.078 355.199 l 
126.996 366.32 103.875 356 93.637 339.359 c 92.996 338.32 92.438 
337.359 91.957 336.32 c 86.996 326.48 85.797 316.16 88.438 306.48 c 
91.078 296.719 97.398 288.48 106.758 282.641 c 254.355 191.68 l 254.996 
191.359 l 264.195 186.641 274.758 185.84 284.758 188.961 c 294.355 
191.84 302.676 198.16 308.117 206.719 c h
308.117 206.719 m f
222.117 464.16 m 248.836 507.441 l 253.316 514.641 251.078 524.16 
243.797 528.641 c 239.875 531.039 206.195 552 193.156 559.84 c 174.836 
570.879 151.637 565.84 139.238 548.238 c 138.758 547.602 138.277 
546.879 137.875 546.16 c 126.758 528.078 130.758 504.238 146.918 
493.039 c 160.277 483.762 196.758 461.84 200.996 459.281 c 208.195 
454.719 217.715 456.961 222.117 464.16 c h
222.117 464.16 m f
294.598 364.48 m 280.195 350.16 263.238 340.641 241.156 334.559 c 
220.676 328.961 l 238.758 317.762 l 245.875 313.359 252.836 309.039 
259.477 304.879 c 274.918 295.281 289.559 286.16 304.438 277.281 c 
323.957 265.52 347.875 270.879 360.035 289.762 c 360.195 290 360.355 
290.238 360.438 290.398 c 371.797 308.801 366.836 332.16 348.918 
344.801 c 313.957 366.398 l 307.316 370.559 299.559 369.359 294.598 
364.48 c h
294.598 364.48 m f
388.438 356.078 m 398.355 358.801 406.758 365.199 412.195 373.922 c 
412.355 374.16 412.438 374.32 412.598 374.559 c 423.316 392.641 418.355 
415.84 401.238 428.641 c 397.398 431.52 393.316 434.16 389.078 436.559 
c 371.078 446.879 348.516 442.48 336.516 426.398 c 333.957 422.961 
312.438 387.52 312.438 387.52 c 312.438 387.52 351.559 362.879 358.598 
359.281 c 367.875 354.48 378.438 353.359 388.438 356.078 c h
388.438 356.078 m f
165.078 460.961 m 164.996 461.039 l 148.355 471.281 126.996 460.559 
116.758 444.641 c 116.598 444.398 116.516 444.238 116.355 444 c 106.438 
428 106.836 402.961 122.117 393.52 c 148.516 377.039 l 155.477 372.719 
166.355 373.52 171.078 381.199 c 196.836 422.879 l 201.238 430 199.078 
439.441 192.035 443.922 c h
165.078 460.961 m f
758.598 327.52 m 737.078 340.801 l 734.355 342.48 731.238 343.359 
728.035 343.359 c 722.035 343.359 716.516 340.32 713.398 335.199 c 
530.836 39.52 l 525.875 31.441 528.355 20.801 536.438 15.84 c 557.957 
2.559 l 560.676 0.879 563.797 0 566.996 0 c 572.996 0 578.516 3.039 
581.637 8.16 c 764.195 303.84 l 766.598 307.762 767.398 312.398 766.277 
316.801 c 765.238 321.281 762.516 325.121 758.598 327.52 c h
758.598 327.52 m f
Q Q
showpage
%%Trailer
count op_count sub {pop} repeat
countdictstack dict_count sub {end} repeat
cairo_eps_state restore
%%EOF
