%!PS-Adobe-3.0 EPSF-3.0
%%Creator: cairo 1.10.2 (http://cairographics.org)
%%CreationDate: Fri Jul 11 07:15:05 2014
%%Pages: 1
%%BoundingBox: 0 -1 752 343
%%DocumentData: Clean7Bit
%%LanguageLevel: 2
%%EndComments
%%BeginProlog
/cairo_eps_state save def
/dict_count countdictstack def
/op_count count 1 sub def
userdict begin
/q { gsave } bind def
/Q { grestore } bind def
/cm { 6 array astore concat } bind def
/w { setlinewidth } bind def
/J { setlinecap } bind def
/j { setlinejoin } bind def
/M { setmiterlimit } bind def
/d { setdash } bind def
/m { moveto } bind def
/l { lineto } bind def
/c { curveto } bind def
/h { closepath } bind def
/re { exch dup neg 3 1 roll 5 3 roll moveto 0 rlineto
      0 exch rlineto 0 rlineto closepath } bind def
/S { stroke } bind def
/f { fill } bind def
/f* { eofill } bind def
/n { newpath } bind def
/W { clip } bind def
/W* { eoclip } bind def
/BT { } bind def
/ET { } bind def
/pdfmark where { pop globaldict /?pdfmark /exec load put }
    { globaldict begin /?pdfmark /pop load def /pdfmark
    /cleartomark load def end } ifelse
/BDC { mark 3 1 roll /BDC pdfmark } bind def
/EMC { mark /EMC pdfmark } bind def
/cairo_store_point { /cairo_point_y exch def /cairo_point_x exch def } def
/Tj { show currentpoint cairo_store_point } bind def
/TJ {
  {
    dup
    type /stringtype eq
    { show } { -0.001 mul 0 cairo_font_matrix dtransform rmoveto } ifelse
  } forall
  currentpoint cairo_store_point
} bind def
/cairo_selectfont { cairo_font_matrix aload pop pop pop 0 0 6 array astore
    cairo_font exch selectfont cairo_point_x cairo_point_y moveto } bind def
/Tf { pop /cairo_font exch def /cairo_font_matrix where
      { pop cairo_selectfont } if } bind def
/Td { matrix translate cairo_font_matrix matrix concatmatrix dup
      /cairo_font_matrix exch def dup 4 get exch 5 get cairo_store_point
      /cairo_font where { pop cairo_selectfont } if } bind def
/Tm { 2 copy 8 2 roll 6 array astore /cairo_font_matrix exch def
      cairo_store_point /cairo_font where { pop cairo_selectfont } if } bind def
/g { setgray } bind def
/rg { setrgbcolor } bind def
/d1 { setcachedevice } bind def
%%EndProlog
%%Page: 1 1
%%BeginPageSetup
%%PageBoundingBox: 0 -1 752 343
%%EndPageSetup
q 0 -1 752 344 rectclip q
0 342.4 752 -343 re W n
0 g
695.281 300.4 m 682.559 325.361 656.719 342.4 626.801 342.4 c 124.879 
342.4 l 94.961 342.4 69.039 325.279 56.398 300.4 c 63.121 301.841 70 
302.56 76.961 302.56 c 674.801 302.56 l 681.762 302.638 688.641 301.841 
695.281 300.4 c h
695.281 300.4 m f
723.602 265.041 m 720.398 267.681 716.961 270.08 713.359 272.162 c 710 
274.162 706.398 275.841 702.719 277.279 c 694.078 280.638 684.641 
282.56 674.719 282.56 c 674.719 282.56 627.762 282.162 626.801 282.162 
c 609.281 282.162 600.801 275.681 591.039 268.24 c 580 259.759 567.441 
250.162 543.121 250.162 c 518.801 250.162 506.238 259.759 495.199 
268.24 c 485.441 275.759 476.961 282.162 459.441 282.162 c 441.922 
282.162 433.441 275.681 423.68 268.24 c 412.641 259.759 400.078 250.162 
375.762 250.162 c 351.441 250.162 338.879 259.759 327.84 268.24 c 
318.078 275.759 309.602 282.162 292.078 282.162 c 274.559 282.162 
266.078 275.681 256.32 268.24 c 245.281 259.759 232.719 250.162 208.398 
250.162 c 184.078 250.162 171.52 259.759 160.48 268.24 c 150.719 
275.759 142.238 282.162 124.719 282.162 c 123.762 282.162 76.801 282.56 
76.801 282.56 c 66.961 282.56 57.52 280.72 48.801 277.279 c 45.121 
275.841 41.52 274.08 38.16 272.162 c 34.559 270.08 31.121 267.681 
27.922 265.041 c 10.879 250.959 0 229.599 0 205.759 c 0 180.638 12.078 
158.322 30.719 144.322 c 33.039 153.759 36.719 162.798 41.762 171.119 c 
43.68 174.322 45.762 177.361 48.078 180.322 c 50.238 183.119 52.641 
185.841 55.121 188.478 c 55.52 188.88 55.922 189.279 56.238 189.681 c 
74.559 208.002 98.801 218.002 124.719 218.002 c 626.641 218.002 l 
652.48 218.002 676.801 207.92 695.121 189.681 c 695.52 189.279 695.922 
188.88 696.238 188.478 c 698.801 185.841 701.121 183.119 703.281 
180.322 c 705.602 177.361 707.68 174.24 709.602 171.119 c 714.641 
162.798 718.32 153.759 720.641 144.322 c 739.281 158.322 751.359 
180.638 751.359 205.759 c 751.52 229.681 740.641 250.959 723.602 
265.041 c h
723.602 265.041 m f
242.238 282.638 m 174.801 282.638 l 183.762 275.841 192.238 270.24 
208.559 270.24 c 224.879 270.24 233.281 275.841 242.238 282.638 c h
242.238 282.638 m f
576.879 282.638 m 509.441 282.638 l 518.398 275.841 526.879 270.24 
543.199 270.24 c 559.52 270.24 567.922 275.841 576.879 282.638 c h
576.879 282.638 m f
409.602 282.638 m 342.16 282.638 l 351.121 275.841 359.602 270.24 
375.922 270.24 c 392.16 270.24 400.559 275.841 409.602 282.638 c h
409.602 282.638 m f
702.559 134.162 m 701.359 141.041 699.281 147.681 696.398 153.841 c 
694.879 157.041 693.199 160.162 691.281 163.041 c 689.441 165.92 
687.359 168.638 685.199 171.201 c 671.121 187.681 650.16 198.08 626.801 
198.08 c 124.879 198.08 l 101.52 198.08 80.559 187.599 66.48 171.201 c 
64.238 168.638 62.238 165.92 60.398 163.041 c 58.48 160.08 56.801 
157.041 55.281 153.841 c 52.398 147.681 50.32 141.119 49.121 134.162 c 
48.559 130.798 48.238 127.361 48.078 123.92 c 48.078 123.041 48 122.162 
48 121.279 c 48 76.798 l 48 34.4 82.398 0.002 124.801 0.002 c 626.719 
0.002 l 669.121 0.002 703.52 34.4 703.52 76.798 c 703.52 121.279 l 
703.52 122.162 703.52 123.041 703.441 123.92 c 703.441 127.361 703.121 
130.798 702.559 134.162 c h
702.559 134.162 m f
Q Q
showpage
%%Trailer
count op_count sub {pop} repeat
countdictstack dict_count sub {end} repeat
cairo_eps_state restore
%%EOF
