%!PS-Adobe-3.0 EPSF-3.0
%%Creator: cairo 1.10.2 (http://cairographics.org)
%%CreationDate: Thu Jul 10 14:00:15 2014
%%Pages: 1
%%BoundingBox: 0 -1 784 563
%%DocumentData: Clean7Bit
%%LanguageLevel: 2
%%EndComments
%%BeginProlog
/cairo_eps_state save def
/dict_count countdictstack def
/op_count count 1 sub def
userdict begin
/q { gsave } bind def
/Q { grestore } bind def
/cm { 6 array astore concat } bind def
/w { setlinewidth } bind def
/J { setlinecap } bind def
/j { setlinejoin } bind def
/M { setmiterlimit } bind def
/d { setdash } bind def
/m { moveto } bind def
/l { lineto } bind def
/c { curveto } bind def
/h { closepath } bind def
/re { exch dup neg 3 1 roll 5 3 roll moveto 0 rlineto
      0 exch rlineto 0 rlineto closepath } bind def
/S { stroke } bind def
/f { fill } bind def
/f* { eofill } bind def
/n { newpath } bind def
/W { clip } bind def
/W* { eoclip } bind def
/BT { } bind def
/ET { } bind def
/pdfmark where { pop globaldict /?pdfmark /exec load put }
    { globaldict begin /?pdfmark /pop load def /pdfmark
    /cleartomark load def end } ifelse
/BDC { mark 3 1 roll /BDC pdfmark } bind def
/EMC { mark /EMC pdfmark } bind def
/cairo_store_point { /cairo_point_y exch def /cairo_point_x exch def } def
/Tj { show currentpoint cairo_store_point } bind def
/TJ {
  {
    dup
    type /stringtype eq
    { show } { -0.001 mul 0 cairo_font_matrix dtransform rmoveto } ifelse
  } forall
  currentpoint cairo_store_point
} bind def
/cairo_selectfont { cairo_font_matrix aload pop pop pop 0 0 6 array astore
    cairo_font exch selectfont cairo_point_x cairo_point_y moveto } bind def
/Tf { pop /cairo_font exch def /cairo_font_matrix where
      { pop cairo_selectfont } if } bind def
/Td { matrix translate cairo_font_matrix matrix concatmatrix dup
      /cairo_font_matrix exch def dup 4 get exch 5 get cairo_store_point
      /cairo_font where { pop cairo_selectfont } if } bind def
/Tm { 2 copy 8 2 roll 6 array astore /cairo_font_matrix exch def
      cairo_store_point /cairo_font where { pop cairo_selectfont } if } bind def
/g { setgray } bind def
/rg { setrgbcolor } bind def
/d1 { setcachedevice } bind def
%%EndProlog
%%Page: 1 1
%%BeginPageSetup
%%PageBoundingBox: 0 -1 784 563
%%EndPageSetup
q 0 -1 784 564 rectclip q
0 562.88 784 -563 re W n
0 g
43.496 322.642 m 49.016 310.482 61.098 303.278 73.656 303.278 c 78.219 
303.278 82.777 304.239 87.176 306.161 c 87.418 306.239 l 165.977 
345.919 l 165.977 59.118 l 165.977 46.642 174.379 36.161 190.938 27.759 
c 203.176 21.599 220.539 16.239 242.539 12.001 c 282.059 4.239 335.176 
0.001 391.977 0.001 c 448.777 0.001 501.898 4.239 541.418 12.001 c 
563.336 16.321 580.699 21.599 593.016 27.759 c 609.578 36.079 617.977 
46.642 617.977 59.118 c 617.977 346.001 l 696.297 306.4 l 696.777 
306.161 l 704.777 302.56 713.738 302.239 721.977 305.36 c 730.219 
308.482 736.777 314.642 740.379 322.642 c 781.016 413.2 l 784.617 421.2 
784.938 430.161 781.816 438.4 c 778.699 446.642 772.539 453.2 764.539 
456.802 c 550.859 554.079 l 544.457 556.958 515.816 561.681 499.098 
562.88 c 500.457 560.161 501.336 557.2 501.738 554.079 c 506.938 509.36 
l 746.137 394.239 l 732.297 363.278 l 580.137 436.56 l 571.336 440.802 
561.098 434.4 561.098 424.56 c 561.098 41.36 l 554.379 39.439 546.297 
37.439 536.777 35.599 c 529.977 34.239 522.777 33.04 515.176 31.919 c 
515.176 31.919 514.059 433.681 513.176 435.841 c 511.977 431.681 
509.898 427.841 506.938 424.482 c 501.336 418.239 493.418 414.642 
485.098 414.642 c 482.938 414.642 480.777 414.88 478.617 415.36 c 
465.898 418.239 l 465.898 26.56 l 450.219 25.36 433.656 24.642 416.539 
24.239 c 416.539 429.36 l 391.898 434.88 l 367.258 429.36 l 367.258 
24.321 l 350.699 24.72 334.617 25.439 319.258 26.56 c 319.258 418.56 l 
305.176 415.36 l 303.098 414.88 300.859 414.642 298.699 414.642 c 
290.379 414.642 282.379 418.239 276.859 424.482 c 273.977 427.759 
271.898 431.599 270.699 435.681 c 269.738 433.599 269.977 31.681 
269.977 31.681 c 261.898 32.88 254.297 34.161 247.098 35.521 c 238.219 
37.278 230.617 39.118 224.137 40.88 c 224.137 424.56 l 224.137 434.321 
213.898 440.802 205.098 436.56 c 51.898 362.72 l 37.977 393.681 l 
276.859 508.642 l 282.137 554.001 l 282.539 557.118 283.418 560.161 
284.777 562.802 c 268.059 561.599 239.418 556.88 233.016 554.001 c 
19.418 456.88 l 11.418 453.278 5.258 446.72 2.137 438.482 c -0.984 
430.239 -0.664 421.278 2.938 413.278 c h
43.496 322.642 m f
298.777 434.72 m 299.418 434.72 300.137 434.802 300.859 434.958 c 
319.336 439.118 l 367.336 449.919 l 389.977 454.958 l 390.617 455.118 
391.336 455.2 391.977 455.2 c 392.699 455.2 393.336 455.118 393.977 
454.958 c 416.617 449.919 l 465.977 438.88 l 483.098 435.04 l 483.816 
434.88 484.457 434.802 485.176 434.802 c 490.539 434.802 495.016 
439.521 494.379 445.2 c 491.738 467.599 l 483.336 539.36 l 481.898 
551.919 l 481.656 553.681 480.859 555.118 479.738 556.161 c 478.457 
557.439 476.617 558.079 474.859 558.079 c 473.176 558.079 471.418 
557.439 469.977 556.079 c 398.457 485.919 l 396.617 484.161 394.297 
483.278 391.977 483.278 c 389.656 483.278 387.258 484.161 385.496 
485.919 c 313.977 556.079 l 312.539 557.439 310.859 558.079 309.098 
558.079 c 307.016 558.079 305.016 557.118 303.656 555.521 c 302.859 
554.56 302.297 553.278 302.137 551.841 c 300.699 539.278 l 292.219 
466.4 l 289.738 445.118 l 288.938 439.439 293.418 434.72 298.777 434.72 
c h
298.777 434.72 m f
Q Q
showpage
%%Trailer
count op_count sub {pop} repeat
countdictstack dict_count sub {end} repeat
cairo_eps_state restore
%%EOF
