%!PS-Adobe-3.0 EPSF-3.0
%%Creator: cairo 1.10.2 (http://cairographics.org)
%%CreationDate: Thu Jul 10 14:00:05 2014
%%Pages: 1
%%BoundingBox: 0 -1 702 757
%%DocumentData: Clean7Bit
%%LanguageLevel: 2
%%EndComments
%%BeginProlog
/cairo_eps_state save def
/dict_count countdictstack def
/op_count count 1 sub def
userdict begin
/q { gsave } bind def
/Q { grestore } bind def
/cm { 6 array astore concat } bind def
/w { setlinewidth } bind def
/J { setlinecap } bind def
/j { setlinejoin } bind def
/M { setmiterlimit } bind def
/d { setdash } bind def
/m { moveto } bind def
/l { lineto } bind def
/c { curveto } bind def
/h { closepath } bind def
/re { exch dup neg 3 1 roll 5 3 roll moveto 0 rlineto
      0 exch rlineto 0 rlineto closepath } bind def
/S { stroke } bind def
/f { fill } bind def
/f* { eofill } bind def
/n { newpath } bind def
/W { clip } bind def
/W* { eoclip } bind def
/BT { } bind def
/ET { } bind def
/pdfmark where { pop globaldict /?pdfmark /exec load put }
    { globaldict begin /?pdfmark /pop load def /pdfmark
    /cleartomark load def end } ifelse
/BDC { mark 3 1 roll /BDC pdfmark } bind def
/EMC { mark /EMC pdfmark } bind def
/cairo_store_point { /cairo_point_y exch def /cairo_point_x exch def } def
/Tj { show currentpoint cairo_store_point } bind def
/TJ {
  {
    dup
    type /stringtype eq
    { show } { -0.001 mul 0 cairo_font_matrix dtransform rmoveto } ifelse
  } forall
  currentpoint cairo_store_point
} bind def
/cairo_selectfont { cairo_font_matrix aload pop pop pop 0 0 6 array astore
    cairo_font exch selectfont cairo_point_x cairo_point_y moveto } bind def
/Tf { pop /cairo_font exch def /cairo_font_matrix where
      { pop cairo_selectfont } if } bind def
/Td { matrix translate cairo_font_matrix matrix concatmatrix dup
      /cairo_font_matrix exch def dup 4 get exch 5 get cairo_store_point
      /cairo_font where { pop cairo_selectfont } if } bind def
/Tm { 2 copy 8 2 roll 6 array astore /cairo_font_matrix exch def
      cairo_store_point /cairo_font where { pop cairo_selectfont } if } bind def
/g { setgray } bind def
/rg { setrgbcolor } bind def
/d1 { setcachedevice } bind def
%%EndProlog
%%Page: 1 1
%%BeginPageSetup
%%PageBoundingBox: 0 -1 702 757
%%EndPageSetup
q 0 -1 702 758 rectclip q
0 756.88 702 -757 re W n
0 g
260 381.36 m 258.078 381.36 256.48 379.841 256.48 377.841 c 256.48 5.04 
l 256.48 2.239 258.719 0.001 261.52 0.001 c 289.199 0.001 l 292 0.001 
294.238 2.239 294.238 5.04 c 294.238 377.841 l 294.238 379.759 292.719 
381.36 290.719 381.36 c h
260 381.36 m f
336.398 381.36 m 334.48 381.36 332.879 379.841 332.879 377.841 c 
332.879 5.04 l 332.879 2.239 335.121 0.001 337.922 0.001 c 365.602 
0.001 l 368.398 0.001 370.641 2.239 370.641 5.04 c 370.641 377.841 l 
370.641 379.759 369.121 381.36 367.121 381.36 c h
336.398 381.36 m f
8.238 407.841 m 175.922 268.482 l 179.039 265.919 180.879 262.001 
180.879 257.919 c 180.879 4.482 l 180.879 2.001 182.879 0.001 185.359 
0.001 c 214.16 0.001 l 216.641 0.001 218.641 2.001 218.641 4.482 c 
218.641 381.36 l 218.641 384.802 216.961 388.079 214.16 390.079 c 
99.922 473.681 l 97.121 475.759 95.441 479.04 95.441 482.56 c 95.441 
651.278 l 95.441 654.642 93.121 657.36 90 658.161 c 5.922 658.239 l 
2.641 657.521 0.16 654.72 0.16 651.278 c 0.16 425.278 l 0.078 418.56 
3.121 412.161 8.238 407.841 c h
8.238 407.841 m f
411.281 381.36 m 409.359 381.36 407.762 379.841 407.762 377.841 c 
407.762 5.04 l 407.762 2.239 410 0.001 412.801 0.001 c 440.48 0.001 l 
443.281 0.001 445.52 2.239 445.52 5.04 c 445.52 377.841 l 445.52 
379.759 444 381.36 442 381.36 c h
411.281 381.36 m f
483.359 4.482 m 483.359 2.001 485.359 0.001 487.84 0.001 c 516.641 
0.001 l 519.121 0.001 521.121 2.001 521.121 4.482 c 521.121 257.919 l 
521.121 262.001 522.961 265.841 526.078 268.482 c 693.441 407.521 l 
698.879 412.001 702 418.642 702 425.681 c 702 651.278 l 702 654.802 
699.52 657.521 696.238 658.239 c 612.16 658.161 l 609.039 657.278 
606.719 654.642 606.719 651.278 c 606.719 482.56 l 606.719 479.04 
605.039 475.759 602.238 473.681 c 487.84 390.079 l 485.039 388.001 
483.441 384.802 483.359 381.36 c h
483.359 4.482 m f
609.359 673.36 m 634.801 673.36 l 635.039 673.36 635.199 673.36 635.359 
673.439 c 635.68 673.36 636 673.36 636.238 673.36 c 696 673.36 l 
699.281 673.36 701.922 676.239 701.922 679.841 c 701.922 723.2 l 
701.922 744.802 685.922 756.88 666.16 756.88 c 646.398 756.88 630.398 
744.802 630.398 723.2 c 630.398 711.599 l 628 713.36 625.121 714.321 
622.078 714.321 c 613.68 714.321 606.801 706.88 606.801 697.681 c 
606.801 676.079 l 606.879 674.56 608 673.36 609.359 673.36 c h
609.359 673.36 m f
6 673.36 m 65.762 673.36 l 66.078 673.36 66.398 673.36 66.641 673.439 c 
66.801 673.36 67.039 673.36 67.199 673.36 c 92.641 673.36 l 94 673.36 
95.121 674.56 95.121 676.079 c 95.121 697.681 l 95.121 706.88 88.32 
714.321 79.84 714.321 c 76.719 714.321 73.922 713.278 71.52 711.599 c 
71.52 723.2 l 71.52 744.802 55.52 756.88 35.762 756.88 c 16 756.88 0 
744.802 0 723.2 c 0 679.759 l 0.078 676.239 2.719 673.36 6 673.36 c h
6 673.36 m f
224.559 528.239 m 229.359 527.04 235.68 525.681 243.281 524.161 c 
246.961 467.439 294.078 422.482 351.762 422.482 c 409.441 422.482 
456.559 467.36 460.238 524.161 c 467.84 525.681 474.16 527.04 478.961 
528.239 c 484.719 529.599 487.602 536.079 484.879 541.278 c 465.68 
577.759 l 465.68 578.4 l 465.68 635.278 423.922 682.482 369.441 690.958 
c 366.719 698.079 359.84 703.118 351.762 703.118 c 343.68 703.118 
336.801 698.079 334.078 690.958 c 279.52 682.482 237.84 635.278 237.84 
578.4 c 237.84 577.759 l 218.641 541.278 l 216 536.001 218.879 529.599 
224.559 528.239 c h
295.52 624.161 m 296.398 624.321 297.281 624.4 298.16 624.4 c 404 624.4 
l 405.84 624.4 407.602 624.079 409.281 623.521 c 412 622.56 414.398 
620.958 416.238 618.802 c 418 616.72 419.281 614.161 419.84 611.36 c 
424.16 589.521 l 425.441 582.802 420.32 576.642 413.52 576.642 c 
288.559 576.642 l 288.32 576.642 288 576.642 287.762 576.72 c 286.238 
576.802 284.879 577.2 283.602 577.841 c 279.441 579.919 276.961 584.642 
277.922 589.599 c 282.238 611.439 l 282.559 613.2 283.199 614.802 
284.078 616.239 c 286.48 620.4 290.641 623.36 295.52 624.161 c h
295.52 624.161 m f
Q Q
showpage
%%Trailer
count op_count sub {pop} repeat
countdictstack dict_count sub {end} repeat
cairo_eps_state restore
%%EOF
