%!PS-Adobe-3.0 EPSF-3.0
%%Creator: cairo 1.10.2 (http://cairographics.org)
%%CreationDate: Thu Jul 10 14:00:32 2014
%%Pages: 1
%%BoundingBox: 0 -1 448 712
%%DocumentData: Clean7Bit
%%LanguageLevel: 2
%%EndComments
%%BeginProlog
/cairo_eps_state save def
/dict_count countdictstack def
/op_count count 1 sub def
userdict begin
/q { gsave } bind def
/Q { grestore } bind def
/cm { 6 array astore concat } bind def
/w { setlinewidth } bind def
/J { setlinecap } bind def
/j { setlinejoin } bind def
/M { setmiterlimit } bind def
/d { setdash } bind def
/m { moveto } bind def
/l { lineto } bind def
/c { curveto } bind def
/h { closepath } bind def
/re { exch dup neg 3 1 roll 5 3 roll moveto 0 rlineto
      0 exch rlineto 0 rlineto closepath } bind def
/S { stroke } bind def
/f { fill } bind def
/f* { eofill } bind def
/n { newpath } bind def
/W { clip } bind def
/W* { eoclip } bind def
/BT { } bind def
/ET { } bind def
/pdfmark where { pop globaldict /?pdfmark /exec load put }
    { globaldict begin /?pdfmark /pop load def /pdfmark
    /cleartomark load def end } ifelse
/BDC { mark 3 1 roll /BDC pdfmark } bind def
/EMC { mark /EMC pdfmark } bind def
/cairo_store_point { /cairo_point_y exch def /cairo_point_x exch def } def
/Tj { show currentpoint cairo_store_point } bind def
/TJ {
  {
    dup
    type /stringtype eq
    { show } { -0.001 mul 0 cairo_font_matrix dtransform rmoveto } ifelse
  } forall
  currentpoint cairo_store_point
} bind def
/cairo_selectfont { cairo_font_matrix aload pop pop pop 0 0 6 array astore
    cairo_font exch selectfont cairo_point_x cairo_point_y moveto } bind def
/Tf { pop /cairo_font exch def /cairo_font_matrix where
      { pop cairo_selectfont } if } bind def
/Td { matrix translate cairo_font_matrix matrix concatmatrix dup
      /cairo_font_matrix exch def dup 4 get exch 5 get cairo_store_point
      /cairo_font where { pop cairo_selectfont } if } bind def
/Tm { 2 copy 8 2 roll 6 array astore /cairo_font_matrix exch def
      cairo_store_point /cairo_font where { pop cairo_selectfont } if } bind def
/g { setgray } bind def
/rg { setrgbcolor } bind def
/d1 { setcachedevice } bind def
%%EndProlog
%%Page: 1 1
%%BeginPageSetup
%%PageBoundingBox: 0 -1 448 712
%%EndPageSetup
q 0 -1 448 713 rectclip q
0 711.12 448 -712 re W n
0 g
394.238 505.518 m 53.359 505.518 l 42.078 505.518 33.039 496.081 33.602 
484.722 c 43.441 311.28 l 56.398 319.042 70 325.518 84.801 330.319 c 
112.16 339.28 141.441 341.12 169.68 335.518 c 193.52 330.8 215.68 
318.882 235.922 305.839 c 254 294.159 272.16 279.6 293.121 273.518 c 
316.801 266.64 339.359 270.96 361.84 279.6 c 376.559 286.319 390.48 
294.8 403.68 304.159 c 413.922 484.64 l 414.559 495.999 405.52 505.518 
394.238 505.518 c h
394.238 505.518 m f
283.52 192.159 m 259.441 196.8 236.961 208.722 216.48 221.839 c 200.078 
232.401 184.078 243.761 166.398 252.081 c 160.238 254.401 153.922 
256.159 147.441 257.44 c 140.559 257.999 133.68 257.921 126.879 257.28 
c 117.68 255.6 108.641 253.042 99.922 249.761 c 89.281 244.8 79.199 
238.8 69.762 231.921 c 62.48 225.999 55.602 219.6 49.039 212.882 c 60 
18.722 l 60.559 8.241 69.199 -0.001 79.762 -0.001 c 367.84 -0.001 l 
378.398 -0.001 387.039 8.241 387.602 18.722 c 398.238 207.44 l 389.68 
203.6 380.879 200.241 371.922 197.44 c 343.281 188.561 313.039 186.561 
283.52 192.159 c h
283.52 192.159 m f
260.719 670.64 m 383.922 670.64 l 394.961 670.64 404.16 679.839 404.16 
690.882 c 404.16 701.921 394.961 711.12 383.922 711.12 c 240.398 711.12 
l 229.922 711.12 220.16 701.839 220.16 690.882 c 220.16 613.839 l 
260.719 613.839 l h
260.719 670.64 m f
413.52 593.839 m 34.078 593.839 l 15.281 593.839 0 578.561 0 559.761 c 
0 540.96 15.281 525.679 34.078 525.679 c 413.441 525.679 l 432.238 
525.679 447.52 540.96 447.52 559.761 c 447.52 578.561 432.32 593.839 
413.52 593.839 c h
413.52 593.839 m f
Q Q
showpage
%%Trailer
count op_count sub {pop} repeat
countdictstack dict_count sub {end} repeat
cairo_eps_state restore
%%EOF
