%!PS-Adobe-3.0 EPSF-3.0
%%Creator: cairo 1.10.2 (http://cairographics.org)
%%CreationDate: Thu Jul 10 13:59:47 2014
%%Pages: 1
%%BoundingBox: 0 -1 748 748
%%DocumentData: Clean7Bit
%%LanguageLevel: 2
%%EndComments
%%BeginProlog
/cairo_eps_state save def
/dict_count countdictstack def
/op_count count 1 sub def
userdict begin
/q { gsave } bind def
/Q { grestore } bind def
/cm { 6 array astore concat } bind def
/w { setlinewidth } bind def
/J { setlinecap } bind def
/j { setlinejoin } bind def
/M { setmiterlimit } bind def
/d { setdash } bind def
/m { moveto } bind def
/l { lineto } bind def
/c { curveto } bind def
/h { closepath } bind def
/re { exch dup neg 3 1 roll 5 3 roll moveto 0 rlineto
      0 exch rlineto 0 rlineto closepath } bind def
/S { stroke } bind def
/f { fill } bind def
/f* { eofill } bind def
/n { newpath } bind def
/W { clip } bind def
/W* { eoclip } bind def
/BT { } bind def
/ET { } bind def
/pdfmark where { pop globaldict /?pdfmark /exec load put }
    { globaldict begin /?pdfmark /pop load def /pdfmark
    /cleartomark load def end } ifelse
/BDC { mark 3 1 roll /BDC pdfmark } bind def
/EMC { mark /EMC pdfmark } bind def
/cairo_store_point { /cairo_point_y exch def /cairo_point_x exch def } def
/Tj { show currentpoint cairo_store_point } bind def
/TJ {
  {
    dup
    type /stringtype eq
    { show } { -0.001 mul 0 cairo_font_matrix dtransform rmoveto } ifelse
  } forall
  currentpoint cairo_store_point
} bind def
/cairo_selectfont { cairo_font_matrix aload pop pop pop 0 0 6 array astore
    cairo_font exch selectfont cairo_point_x cairo_point_y moveto } bind def
/Tf { pop /cairo_font exch def /cairo_font_matrix where
      { pop cairo_selectfont } if } bind def
/Td { matrix translate cairo_font_matrix matrix concatmatrix dup
      /cairo_font_matrix exch def dup 4 get exch 5 get cairo_store_point
      /cairo_font where { pop cairo_selectfont } if } bind def
/Tm { 2 copy 8 2 roll 6 array astore /cairo_font_matrix exch def
      cairo_store_point /cairo_font where { pop cairo_selectfont } if } bind def
/g { setgray } bind def
/rg { setrgbcolor } bind def
/d1 { setcachedevice } bind def
%%EndProlog
%%Page: 1 1
%%BeginPageSetup
%%PageBoundingBox: 0 -1 748 748
%%EndPageSetup
q 0 -1 748 749 rectclip q
0 747.84 748 -748 re W n
0 g
715.52 747.84 m 545.602 747.84 l 527.922 747.84 513.602 733.52 513.602 
715.84 c 513.602 70.399 l 513.602 55.199 524.16 42.481 538.32 39.199 c 
538.32 18.879 l 538.879 8.32 547.602 0 558.32 0 c 568.801 0 577.441 
8.078 578.238 18.399 c 578.32 18.961 578.32 19.442 578.32 20 c 578.32 
38.399 l 682.801 38.399 l 682.801 20 l 682.801 19.442 682.801 18.961 
682.879 18.399 c 683.68 8.078 692.32 0 702.801 0 c 713.52 0 722.238 
8.399 722.801 18.879 c 722.801 39.199 l 736.961 42.481 747.52 55.199 
747.52 70.399 c 747.52 715.84 l 747.52 733.52 733.199 747.84 715.52 
747.84 c h
542.879 694.238 m 718.238 694.238 l 718.238 654.238 l 542.879 654.238 l 
h
585.281 393.121 m 585.281 382.238 576.16 373.121 565.281 373.121 c 
554.398 373.121 545.281 382.238 545.281 393.121 c 545.281 404 554.398 
413.121 565.281 413.121 c 576.16 413.121 585.281 404 585.281 393.121 c 
h
542.879 92 m 542.879 132 l 718.238 132 l 718.238 92 l h
542.879 92 m f
458.719 747.84 m 288.801 747.84 l 271.121 747.84 256.801 733.52 256.801 
715.84 c 256.801 70.399 l 256.801 55.199 267.359 42.481 281.52 39.199 c 
281.52 18.879 l 282.078 8.32 290.801 0 301.52 0 c 312 0 320.641 8.078 
321.441 18.399 c 321.52 18.961 321.52 19.442 321.52 20 c 321.52 38.399 
l 426 38.399 l 426 20 l 426 19.442 426 18.961 426.078 18.399 c 426.879 
8.078 435.52 0 446 0 c 456.719 0 465.441 8.399 466 18.879 c 466 39.199 
l 480.16 42.481 490.719 55.199 490.719 70.399 c 490.719 715.84 l 
490.719 733.52 476.398 747.84 458.719 747.84 c h
286.078 694.238 m 461.441 694.238 l 461.441 654.238 l 286.078 654.238 l 
h
328.801 393.121 m 328.801 382.238 319.68 373.121 308.801 373.121 c 
297.922 373.121 288.801 382.238 288.801 393.121 c 288.801 404 297.922 
413.121 308.801 413.121 c 319.68 413.121 328.801 404 328.801 393.121 c 
h
286.078 92 m 286.078 132 l 461.441 132 l 461.441 92 l h
286.078 92 m f
64.641 18.399 m 64.719 18.961 64.719 19.442 64.719 20 c 64.719 38.399 l 
169.199 38.399 l 169.199 20 l 169.199 19.442 169.199 18.961 169.281 
18.399 c 170.078 8.078 178.719 0 189.199 0 c 199.922 0 208.641 8.399 
209.199 18.879 c 209.199 39.199 l 223.359 42.481 233.922 55.199 233.922 
70.399 c 233.922 715.84 l 233.922 733.52 219.602 747.84 201.922 747.84 
c 32 747.84 l 14.32 747.84 0 733.52 0 715.84 c 0 70.399 l 0 55.199 
10.559 42.481 24.719 39.199 c 24.719 18.879 l 25.281 8.32 34 0 44.719 0 
c 55.199 0 63.84 8.078 64.641 18.399 c h
29.281 694.238 m 204.641 694.238 l 204.641 654.238 l 29.281 654.238 l h
72 393.121 m 72 382.238 62.879 373.121 52 373.121 c 41.121 373.121 32 
382.238 32 393.121 c 32 404 41.121 413.121 52 413.121 c 62.879 413.121 
72 404 72 393.121 c h
29.281 132 m 204.641 132 l 204.641 92 l 29.281 92 l h
29.281 132 m f
Q Q
showpage
%%Trailer
count op_count sub {pop} repeat
countdictstack dict_count sub {end} repeat
cairo_eps_state restore
%%EOF
