%!PS-Adobe-3.0 EPSF-3.0
%%Creator: cairo 1.10.2 (http://cairographics.org)
%%CreationDate: Thu Jul 10 13:59:50 2014
%%Pages: 1
%%BoundingBox: 0 -1 772 707
%%DocumentData: Clean7Bit
%%LanguageLevel: 2
%%EndComments
%%BeginProlog
/cairo_eps_state save def
/dict_count countdictstack def
/op_count count 1 sub def
userdict begin
/q { gsave } bind def
/Q { grestore } bind def
/cm { 6 array astore concat } bind def
/w { setlinewidth } bind def
/J { setlinecap } bind def
/j { setlinejoin } bind def
/M { setmiterlimit } bind def
/d { setdash } bind def
/m { moveto } bind def
/l { lineto } bind def
/c { curveto } bind def
/h { closepath } bind def
/re { exch dup neg 3 1 roll 5 3 roll moveto 0 rlineto
      0 exch rlineto 0 rlineto closepath } bind def
/S { stroke } bind def
/f { fill } bind def
/f* { eofill } bind def
/n { newpath } bind def
/W { clip } bind def
/W* { eoclip } bind def
/BT { } bind def
/ET { } bind def
/pdfmark where { pop globaldict /?pdfmark /exec load put }
    { globaldict begin /?pdfmark /pop load def /pdfmark
    /cleartomark load def end } ifelse
/BDC { mark 3 1 roll /BDC pdfmark } bind def
/EMC { mark /EMC pdfmark } bind def
/cairo_store_point { /cairo_point_y exch def /cairo_point_x exch def } def
/Tj { show currentpoint cairo_store_point } bind def
/TJ {
  {
    dup
    type /stringtype eq
    { show } { -0.001 mul 0 cairo_font_matrix dtransform rmoveto } ifelse
  } forall
  currentpoint cairo_store_point
} bind def
/cairo_selectfont { cairo_font_matrix aload pop pop pop 0 0 6 array astore
    cairo_font exch selectfont cairo_point_x cairo_point_y moveto } bind def
/Tf { pop /cairo_font exch def /cairo_font_matrix where
      { pop cairo_selectfont } if } bind def
/Td { matrix translate cairo_font_matrix matrix concatmatrix dup
      /cairo_font_matrix exch def dup 4 get exch 5 get cairo_store_point
      /cairo_font where { pop cairo_selectfont } if } bind def
/Tm { 2 copy 8 2 roll 6 array astore /cairo_font_matrix exch def
      cairo_store_point /cairo_font where { pop cairo_selectfont } if } bind def
/g { setgray } bind def
/rg { setrgbcolor } bind def
/d1 { setcachedevice } bind def
%%EndProlog
%%Page: 1 1
%%BeginPageSetup
%%PageBoundingBox: 0 -1 772 707
%%EndPageSetup
q 0 -1 772 708 rectclip q
0 706.175 772 -707 re W n
0 g
666.48 545.679 m 666.48 600.722 l 702.32 615.358 l 710.559 618.722 
710.559 630.401 702.32 633.761 c 640.16 659.198 l 633.602 661.839 
626.48 657.042 626.48 649.999 c 626.48 557.921 l 599.121 565.12 568.801 
571.198 536.078 575.761 c 536.078 627.999 l 571.922 642.64 l 580.16 
645.999 580.16 657.679 571.922 661.042 c 509.762 686.479 l 503.199 
689.12 496.078 684.319 496.078 677.28 c 496.078 580.561 l 467.199 
583.44 436.961 585.12 405.68 585.679 c 405.68 646.96 l 441.52 661.601 l 
449.762 664.96 449.762 676.64 441.52 679.999 c 379.359 705.44 l 372.801 
708.081 365.68 703.28 365.68 696.241 c 365.68 585.518 l 334.16 584.96 
303.602 583.198 274.48 580.319 c 274.48 627.921 l 310.32 642.561 l 
318.559 645.921 318.559 657.601 310.32 660.96 c 248.16 686.401 l 
241.602 689.042 234.48 684.241 234.48 677.198 c 234.48 575.601 l 
201.762 570.96 171.441 564.96 144.078 557.679 c 144.078 600.722 l 
179.922 615.358 l 188.16 618.722 188.16 630.401 179.922 633.761 c 
117.762 659.198 l 111.199 661.839 104.078 657.042 104.078 649.999 c 
104.078 545.44 l 39.52 522.64 0 492.081 0 458.401 c 0 127.358 l 0 
57.042 172.641 -0.001 385.68 -0.001 c 598.719 -0.001 771.359 57.042 
771.359 127.358 c 771.359 458.401 l 771.359 492.159 731.52 522.882 
666.48 545.679 c h
119.281 141.679 m 93.281 149.518 70.32 158.561 51.121 168.561 c 51.121 
213.839 l 52.801 213.358 54.48 212.64 56.078 211.679 c 61.359 208.401 
67.199 205.198 73.441 202.159 c 86.801 195.518 102.16 189.358 119.359 
183.679 c 119.359 141.679 l h
119.281 269.042 m 93.281 276.882 70.32 285.921 51.121 295.921 c 51.121 
341.198 l 52.801 340.722 54.48 339.999 56.078 339.042 c 72.801 328.722 
94.16 319.28 119.359 311.042 c 119.359 269.042 l h
651.281 310.64 m 674.879 318.401 695.441 327.28 712.078 337.042 c 
713.52 337.921 715.121 338.561 716.641 339.042 c 716.641 294.081 l 
697.922 284.722 675.922 276.241 651.199 268.8 c 651.199 310.64 l h
180.801 253.679 m 173.441 255.198 166.238 256.722 159.281 258.319 c 
159.281 299.44 l 168.719 297.12 178.559 294.882 188.719 292.882 c 
205.441 289.518 222.879 286.561 240.879 284.159 c 240.879 243.839 l 
238.879 244.081 236.961 244.401 234.961 244.64 c 216.32 247.12 198.16 
250.159 180.801 253.679 c h
280.879 249.921 m 280.879 279.518 l 308.398 276.882 336.801 275.358 
365.68 274.8 c 365.68 234.8 l 336.879 235.28 308.48 236.8 280.879 
239.358 c h
405.68 254.479 m 405.68 274.8 l 434.48 275.28 462.641 276.882 489.68 
279.44 c 489.68 239.28 l 462.32 236.8 434.16 235.28 405.68 234.8 c h
529.68 245.518 m 529.68 283.999 l 558.801 287.921 586.16 293.042 
611.281 299.198 c 611.281 258.159 l 603.441 256.319 595.441 254.64 
587.281 253.042 c 570.879 249.839 553.922 246.96 536.398 244.561 c 
534.16 244.241 531.922 243.921 529.68 243.679 c h
651.281 183.28 m 668.641 188.96 684.32 195.28 698 202.081 c 702.961 
204.561 707.68 207.12 712.16 209.679 c 713.602 210.561 715.199 211.198 
716.719 211.679 c 716.719 166.722 l 698 157.358 676 148.882 651.281 
141.44 c h
688.879 446.241 m 670.961 436.241 646.32 426.722 617.602 418.722 c 
553.441 400.882 471.039 391.12 385.68 391.12 c 300.32 391.12 217.922 
400.882 153.762 418.722 c 125.039 426.722 100.398 436.159 82.48 446.241 
c 73.68 451.12 68 455.358 64.398 458.479 c 68 461.601 73.68 465.761 
82.48 470.722 c 100.398 480.722 125.039 490.241 153.762 498.241 c 
217.922 516.081 300.32 525.839 385.68 525.839 c 471.039 525.839 553.441 
515.999 617.602 498.241 c 646.32 490.241 670.961 480.8 688.879 470.722 
c 697.68 465.839 703.359 461.601 706.961 458.479 c 703.281 455.28 
697.602 451.12 688.879 446.241 c h
176 127.358 m 170.32 128.561 164.719 129.761 159.281 131.042 c 159.281 
172.159 l 168.719 169.839 178.559 167.601 188.719 165.601 c 205.441 
162.241 222.879 159.28 240.879 156.882 c 240.879 116.561 l 220.16 
119.28 200 122.561 180.801 126.479 c 179.199 126.64 177.602 127.042 176 
127.358 c h
280.879 127.358 m 280.879 152.241 l 308.398 149.601 336.801 148.081 
365.68 147.518 c 365.68 107.518 l 336.879 107.999 308.48 109.518 
280.879 112.081 c h
405.68 127.358 m 405.68 147.518 l 434.48 147.999 462.641 149.601 489.68 
152.159 c 489.68 111.999 l 462.32 109.518 434.16 107.999 405.68 107.518 
c h
587.281 125.679 m 568.801 121.999 549.52 118.882 529.68 116.319 c 
529.68 156.64 l 558.801 160.561 586.16 165.679 611.281 171.839 c 
611.281 130.8 l 606.078 129.601 600.719 128.401 595.359 127.28 c 
592.641 126.8 590 126.241 587.281 125.679 c h
587.281 125.679 m f
Q Q
showpage
%%Trailer
count op_count sub {pop} repeat
countdictstack dict_count sub {end} repeat
cairo_eps_state restore
%%EOF
