%!PS-Adobe-3.0 EPSF-3.0
%%Creator: cairo 1.10.2 (http://cairographics.org)
%%CreationDate: Mon Jul 14 07:17:17 2014
%%Pages: 1
%%BoundingBox: 0 -1 621 759
%%DocumentData: Clean7Bit
%%LanguageLevel: 2
%%EndComments
%%BeginProlog
/cairo_eps_state save def
/dict_count countdictstack def
/op_count count 1 sub def
userdict begin
/q { gsave } bind def
/Q { grestore } bind def
/cm { 6 array astore concat } bind def
/w { setlinewidth } bind def
/J { setlinecap } bind def
/j { setlinejoin } bind def
/M { setmiterlimit } bind def
/d { setdash } bind def
/m { moveto } bind def
/l { lineto } bind def
/c { curveto } bind def
/h { closepath } bind def
/re { exch dup neg 3 1 roll 5 3 roll moveto 0 rlineto
      0 exch rlineto 0 rlineto closepath } bind def
/S { stroke } bind def
/f { fill } bind def
/f* { eofill } bind def
/n { newpath } bind def
/W { clip } bind def
/W* { eoclip } bind def
/BT { } bind def
/ET { } bind def
/pdfmark where { pop globaldict /?pdfmark /exec load put }
    { globaldict begin /?pdfmark /pop load def /pdfmark
    /cleartomark load def end } ifelse
/BDC { mark 3 1 roll /BDC pdfmark } bind def
/EMC { mark /EMC pdfmark } bind def
/cairo_store_point { /cairo_point_y exch def /cairo_point_x exch def } def
/Tj { show currentpoint cairo_store_point } bind def
/TJ {
  {
    dup
    type /stringtype eq
    { show } { -0.001 mul 0 cairo_font_matrix dtransform rmoveto } ifelse
  } forall
  currentpoint cairo_store_point
} bind def
/cairo_selectfont { cairo_font_matrix aload pop pop pop 0 0 6 array astore
    cairo_font exch selectfont cairo_point_x cairo_point_y moveto } bind def
/Tf { pop /cairo_font exch def /cairo_font_matrix where
      { pop cairo_selectfont } if } bind def
/Td { matrix translate cairo_font_matrix matrix concatmatrix dup
      /cairo_font_matrix exch def dup 4 get exch 5 get cairo_store_point
      /cairo_font where { pop cairo_selectfont } if } bind def
/Tm { 2 copy 8 2 roll 6 array astore /cairo_font_matrix exch def
      cairo_store_point /cairo_font where { pop cairo_selectfont } if } bind def
/g { setgray } bind def
/rg { setrgbcolor } bind def
/d1 { setcachedevice } bind def
%%EndProlog
%%Page: 1 1
%%BeginPageSetup
%%PageBoundingBox: 0 -1 621 759
%%EndPageSetup
q 0 -1 621 760 rectclip q
0 758.16 621 -759 re W n
0 g
555.605 658.16 m 555.605 675.84 541.285 690.16 523.605 690.16 c 484.887 
690.16 l 474.727 703.519 460.566 715.601 442.805 725.922 c 407.047 
746.719 359.844 758.16 310.004 758.16 c 260.164 758.16 212.965 746.64 
177.207 725.922 c 159.445 715.601 145.285 703.519 135.125 690.16 c 
96.406 690.16 l 78.727 690.16 64.406 675.84 64.406 658.16 c 64.406 
519.441 l 555.605 519.441 l h
197.285 691.281 m 227.047 708.558 267.125 718.082 310.004 718.082 c 
352.887 718.082 392.965 708.558 422.727 691.281 c 423.367 690.879 
424.086 690.48 424.727 690.082 c 195.285 690.082 l 196.004 690.48 
196.645 690.879 197.285 691.281 c h
197.285 691.281 m f
64.406 472.48 m 30.004 472.48 l 13.605 472.48 0.324 459.359 0.004 
443.039 c -0.316 426.238 13.766 412.48 30.566 412.48 c 64.406 412.558 l 
64.406 92.801 l 64.406 73.84 78.727 60.48 96.406 60.48 c 249.207 60.48 
l 249.207 73.601 l 249.207 89.199 258.406 102.719 271.605 109.039 c 
271.605 118.879 l 271.605 138.719 287.766 154.879 307.605 154.879 c 
312.406 154.879 l 332.246 154.879 348.406 138.719 348.406 118.879 c 
348.406 109.039 l 361.605 102.719 370.805 89.199 370.805 73.601 c 
370.805 60.48 l 523.605 60.48 l 541.285 60.48 555.605 74.801 555.605 
92.48 c 555.605 412.16 l 590.004 412.16 l 606.406 412.16 619.684 
425.281 620.004 441.601 c 620.324 458.398 606.246 472.16 589.445 472.16 
c 555.605 472.16 l 555.605 499.441 l 64.406 499.441 l h
441.125 414.719 m 441.125 428.16 453.684 439.922 467.926 439.922 c 
475.684 439.922 481.926 433.68 481.926 425.922 c 481.926 418.558 
476.324 412.558 469.125 412 c 469.125 225.519 l 476.324 224.879 481.926 
218.879 481.926 211.601 c 481.926 203.84 475.684 197.601 467.926 
197.601 c 453.684 197.601 441.125 209.359 441.125 222.801 c h
296.004 414.719 m 296.004 428.16 308.566 439.922 322.805 439.922 c 
330.566 439.922 336.805 433.68 336.805 425.922 c 336.805 418.558 
331.207 412.558 324.004 412 c 324.004 225.519 l 331.207 224.879 336.805 
218.879 336.805 211.601 c 336.805 203.84 330.566 197.601 322.805 
197.601 c 308.566 197.601 296.004 209.359 296.004 222.801 c h
138.887 414.719 m 138.887 428.16 151.445 439.922 165.684 439.922 c 
173.445 439.922 179.684 433.68 179.684 425.922 c 179.684 418.558 
174.086 412.558 166.887 412 c 166.887 225.519 l 174.086 224.879 179.684 
218.879 179.684 211.601 c 179.684 203.84 173.445 197.601 165.684 
197.601 c 151.445 197.601 138.887 209.359 138.887 222.801 c h
138.887 414.719 m f
312.406 134.879 m 307.605 134.879 l 298.805 134.879 291.605 127.68 
291.605 118.879 c 291.605 92.801 l 288.406 92.801 l 277.766 92.801 
269.207 84.238 269.207 73.601 c 269.207 19.199 l 269.207 8.558 277.766 
-0 288.406 -0 c 331.605 -0 l 342.246 -0 350.805 8.558 350.805 19.199 c 
350.805 73.601 l 350.805 84.238 342.246 92.801 331.605 92.801 c 328.406 
92.801 l 328.406 118.879 l 328.406 127.68 321.207 134.879 312.406 
134.879 c h
312.406 134.879 m f
Q Q
showpage
%%Trailer
count op_count sub {pop} repeat
countdictstack dict_count sub {end} repeat
cairo_eps_state restore
%%EOF
