%!PS-Adobe-3.0 EPSF-3.0
%%Creator: cairo 1.10.2 (http://cairographics.org)
%%CreationDate: Thu Jul 10 13:59:44 2014
%%Pages: 1
%%BoundingBox: 0 -1 684 755
%%DocumentData: Clean7Bit
%%LanguageLevel: 2
%%EndComments
%%BeginProlog
/cairo_eps_state save def
/dict_count countdictstack def
/op_count count 1 sub def
userdict begin
/q { gsave } bind def
/Q { grestore } bind def
/cm { 6 array astore concat } bind def
/w { setlinewidth } bind def
/J { setlinecap } bind def
/j { setlinejoin } bind def
/M { setmiterlimit } bind def
/d { setdash } bind def
/m { moveto } bind def
/l { lineto } bind def
/c { curveto } bind def
/h { closepath } bind def
/re { exch dup neg 3 1 roll 5 3 roll moveto 0 rlineto
      0 exch rlineto 0 rlineto closepath } bind def
/S { stroke } bind def
/f { fill } bind def
/f* { eofill } bind def
/n { newpath } bind def
/W { clip } bind def
/W* { eoclip } bind def
/BT { } bind def
/ET { } bind def
/pdfmark where { pop globaldict /?pdfmark /exec load put }
    { globaldict begin /?pdfmark /pop load def /pdfmark
    /cleartomark load def end } ifelse
/BDC { mark 3 1 roll /BDC pdfmark } bind def
/EMC { mark /EMC pdfmark } bind def
/cairo_store_point { /cairo_point_y exch def /cairo_point_x exch def } def
/Tj { show currentpoint cairo_store_point } bind def
/TJ {
  {
    dup
    type /stringtype eq
    { show } { -0.001 mul 0 cairo_font_matrix dtransform rmoveto } ifelse
  } forall
  currentpoint cairo_store_point
} bind def
/cairo_selectfont { cairo_font_matrix aload pop pop pop 0 0 6 array astore
    cairo_font exch selectfont cairo_point_x cairo_point_y moveto } bind def
/Tf { pop /cairo_font exch def /cairo_font_matrix where
      { pop cairo_selectfont } if } bind def
/Td { matrix translate cairo_font_matrix matrix concatmatrix dup
      /cairo_font_matrix exch def dup 4 get exch 5 get cairo_store_point
      /cairo_font where { pop cairo_selectfont } if } bind def
/Tm { 2 copy 8 2 roll 6 array astore /cairo_font_matrix exch def
      cairo_store_point /cairo_font where { pop cairo_selectfont } if } bind def
/g { setgray } bind def
/rg { setrgbcolor } bind def
/d1 { setcachedevice } bind def
%%EndProlog
%%Page: 1 1
%%BeginPageSetup
%%PageBoundingBox: 0 -1 684 755
%%EndPageSetup
q 0 -1 684 756 rectclip q
0 754.8 684 -755 re W n
0 g
626.688 725.839 m 487.809 725.839 l 504.848 753.359 468.77 754.8 
450.047 754.8 c 233.887 754.8 l 215.168 754.8 179.09 753.441 196.129 
725.839 c 57.328 725.839 l 50.449 725.839 44.609 725.679 40.449 720.878 
c 12.449 688.8 -0.91 646.878 0.047 604.562 c 1.008 562.48 16.609 
521.761 40.609 487.519 c 52.77 470.081 66.848 454.081 82.449 439.679 c 
98.289 425.038 115.969 412.562 132.527 398.878 c 148.129 385.999 
162.609 371.519 171.969 353.198 c 176.93 343.441 180.047 332.402 179.25 
321.519 c 178.449 310.562 173.488 299.679 164.77 293.038 c 156.848 
287.038 145.41 284.402 136.449 289.679 c 128.609 294.32 125.328 303.198 
125.969 311.999 c 126.688 322.081 116.93 330.562 107.41 330.562 c 
96.688 330.562 89.566 322.081 88.848 311.999 c 87.168 289.441 100.688 
266.64 120.449 255.999 c 140.367 245.198 165.008 247.999 183.328 260.8 
c 192.609 267.28 200.289 275.359 206.207 285.038 c 209.25 289.999 
211.488 295.12 213.09 300.48 c 238.688 232.48 l 238.289 232.159 227.969 
224.32 225.25 219.359 c 217.328 204.8 234.77 196.8 245.168 192.32 c 
257.566 186.96 282.367 179.761 280.367 161.839 c 278.129 141.999 
246.367 132.64 231.168 127.921 c 194.848 116.562 179.488 97.441 173.008 
83.839 c 170.93 79.519 169.887 74.8 169.887 69.999 c 169.887 19.999 l 
169.887 8.96 178.848 -0.001 189.887 -0.001 c 494.047 -0.001 l 505.09 
-0.001 514.047 8.96 514.047 19.999 c 514.129 69.999 l 514.129 74.8 
513.09 79.519 511.008 83.839 c 504.527 97.441 489.168 116.562 452.848 
127.839 c 437.648 132.562 405.809 141.921 403.648 161.761 c 401.648 
179.679 426.449 186.878 438.848 192.241 c 449.25 196.722 466.688 
204.722 458.77 219.28 c 456.047 224.241 445.809 232.081 445.328 232.402 
c 470.93 300.402 l 472.527 295.038 474.77 289.839 477.809 284.96 c 
483.727 275.28 491.41 267.198 500.688 260.722 c 519.008 247.921 543.648 
245.12 563.566 255.921 c 583.25 266.562 596.848 289.359 595.168 311.921 
c 594.449 321.999 587.25 330.48 576.609 330.48 c 567.09 330.48 557.328 
321.999 558.047 311.921 c 558.609 304.562 556.449 297.12 550.848 
292.081 c 536.609 279.12 516.688 291.038 509.09 305.359 c 508.449 
306.562 507.887 307.761 507.41 308.96 c 502.367 321.359 504.367 334.878 
509.008 347.038 c 509.168 347.519 509.648 348.64 509.887 349.198 c 
510.609 350.722 511.328 352.32 512.129 353.761 c 514.609 358.48 517.41 
363.12 520.449 367.519 c 521.168 368.48 521.809 369.441 522.527 370.402 
c 522.77 370.64 l 524.289 372.562 525.887 374.402 527.488 376.241 c 
534.848 384.402 543.008 391.761 551.41 398.8 c 568.047 412.562 585.648 
424.96 601.488 439.601 c 617.09 453.999 631.168 470.081 643.328 487.441 
c 667.328 521.679 682.93 562.402 683.887 604.48 c 684.848 646.8 671.566 
688.722 643.566 720.8 c 639.41 725.679 633.809 725.839 626.688 725.839 
c h
197.727 647.921 m 197.25 647.441 l 187.41 637.679 176.047 629.038 
165.09 620.241 c 162.93 618.562 160.848 616.8 158.77 615.12 c 157.969 
614.48 157.25 613.839 156.449 613.198 c 156.367 613.12 l 152.609 
609.921 150.449 605.28 150.367 600.402 c 149.727 494.64 l 149.648 
477.761 152.609 460.96 158.609 445.12 c 169.727 415.601 l 157.727 
426.64 144.688 436.562 131.809 446.722 c 121.727 454.722 111.809 462.8 
102.609 471.679 c 95.41 478.64 88.609 486.081 82.207 493.761 c 80.77 
495.519 79.328 497.28 77.887 499.12 c 77.809 499.198 77.727 499.359 
77.648 499.441 c 75.488 502.32 l 72.367 506.48 69.488 510.8 66.688 
515.198 c 61.328 523.601 56.527 532.32 52.289 541.359 c 51.809 542.48 
51.328 543.519 50.77 544.64 c 50.609 544.96 50.449 545.441 50.207 
545.921 c 49.488 547.679 48.77 549.441 48.129 551.28 c 46.289 556.159 
44.688 561.038 43.25 565.999 c 41.488 571.999 40.129 578.081 39.008 
584.241 c 38.77 585.679 38.527 587.038 38.289 588.48 c 38.207 588.878 
38.207 589.28 38.129 589.601 c 37.809 592.64 37.488 595.761 37.328 
598.8 c 36.93 604.96 36.93 611.198 37.25 617.359 c 37.41 620.48 37.648 
623.519 37.969 626.562 c 38.047 627.12 38.207 628.562 38.289 629.441 c 
38.449 630.64 38.688 631.839 38.848 633.038 c 39.887 639.12 41.328 
645.038 43.09 650.96 c 43.969 653.921 44.93 656.8 45.969 659.679 c 
46.449 661.038 47.008 662.48 47.566 663.839 c 47.887 664.48 48.129 
665.198 48.449 665.839 c 50.527 670.48 52.93 674.878 55.488 679.28 c 
56.047 680.159 56.527 681.038 57.09 681.921 c 58.527 684.241 60.129 
686.562 61.727 688.8 c 207.887 688.8 l 210.609 674.402 209.809 660.402 
197.727 647.921 c h
645.648 629.359 m 645.727 628.48 645.969 627.038 645.969 626.48 c 
646.289 623.441 646.527 620.32 646.688 617.28 c 646.93 611.12 647.008 
604.878 646.609 598.722 c 646.449 595.601 646.207 592.562 645.809 
589.519 c 645.727 589.12 645.727 588.722 645.648 588.402 c 645.41 
586.96 645.25 585.601 644.93 584.159 c 643.809 577.999 642.449 571.921 
640.688 565.921 c 639.25 560.96 637.648 555.999 635.809 551.198 c 
635.168 549.441 634.449 547.679 633.727 545.839 c 633.488 545.359 
633.328 544.878 633.168 544.562 c 632.688 543.441 632.207 542.402 
631.648 541.28 c 627.41 532.241 622.609 523.519 617.25 515.12 c 614.449 
510.722 611.488 506.48 608.449 502.241 c 606.289 499.359 l 606.207 
499.198 606.129 499.12 606.047 499.038 c 604.609 497.28 603.168 495.441 
601.727 493.679 c 595.328 485.999 588.527 478.562 581.328 471.601 c 
560.527 451.359 535.648 435.12 514.289 415.441 c 525.41 444.96 l 531.41 
460.8 534.367 477.601 534.289 494.48 c 533.648 600.241 l 533.648 600.64 
533.648 601.038 533.566 601.441 c 533.25 605.921 531.09 610.081 527.648 
612.96 c 527.566 613.038 l 514.129 624.32 499.168 634.96 486.77 647.28 
c 486.289 647.761 l 485.328 648.722 484.449 649.761 483.648 650.722 c 
474.047 662.402 473.648 675.28 476.047 688.48 c 622.207 688.48 l 
623.809 686.241 625.41 683.999 626.848 681.601 c 630.047 676.402 
633.008 671.12 635.488 665.519 c 635.809 664.878 636.047 664.241 
636.367 663.519 c 636.93 662.159 637.488 660.722 637.969 659.359 c 
639.008 656.48 639.969 653.601 640.848 650.64 c 642.609 644.722 644.047 
638.8 645.09 632.722 c 645.25 631.839 645.41 630.562 645.648 629.359 c 
h
645.648 629.359 m f
Q Q
showpage
%%Trailer
count op_count sub {pop} repeat
countdictstack dict_count sub {end} repeat
cairo_eps_state restore
%%EOF
