%!PS-Adobe-3.0 EPSF-3.0
%%Creator: cairo 1.10.2 (http://cairographics.org)
%%CreationDate: Thu Jul 10 14:00:09 2014
%%Pages: 1
%%BoundingBox: 0 -1 677 715
%%DocumentData: Clean7Bit
%%LanguageLevel: 2
%%EndComments
%%BeginProlog
/cairo_eps_state save def
/dict_count countdictstack def
/op_count count 1 sub def
userdict begin
/q { gsave } bind def
/Q { grestore } bind def
/cm { 6 array astore concat } bind def
/w { setlinewidth } bind def
/J { setlinecap } bind def
/j { setlinejoin } bind def
/M { setmiterlimit } bind def
/d { setdash } bind def
/m { moveto } bind def
/l { lineto } bind def
/c { curveto } bind def
/h { closepath } bind def
/re { exch dup neg 3 1 roll 5 3 roll moveto 0 rlineto
      0 exch rlineto 0 rlineto closepath } bind def
/S { stroke } bind def
/f { fill } bind def
/f* { eofill } bind def
/n { newpath } bind def
/W { clip } bind def
/W* { eoclip } bind def
/BT { } bind def
/ET { } bind def
/pdfmark where { pop globaldict /?pdfmark /exec load put }
    { globaldict begin /?pdfmark /pop load def /pdfmark
    /cleartomark load def end } ifelse
/BDC { mark 3 1 roll /BDC pdfmark } bind def
/EMC { mark /EMC pdfmark } bind def
/cairo_store_point { /cairo_point_y exch def /cairo_point_x exch def } def
/Tj { show currentpoint cairo_store_point } bind def
/TJ {
  {
    dup
    type /stringtype eq
    { show } { -0.001 mul 0 cairo_font_matrix dtransform rmoveto } ifelse
  } forall
  currentpoint cairo_store_point
} bind def
/cairo_selectfont { cairo_font_matrix aload pop pop pop 0 0 6 array astore
    cairo_font exch selectfont cairo_point_x cairo_point_y moveto } bind def
/Tf { pop /cairo_font exch def /cairo_font_matrix where
      { pop cairo_selectfont } if } bind def
/Td { matrix translate cairo_font_matrix matrix concatmatrix dup
      /cairo_font_matrix exch def dup 4 get exch 5 get cairo_store_point
      /cairo_font where { pop cairo_selectfont } if } bind def
/Tm { 2 copy 8 2 roll 6 array astore /cairo_font_matrix exch def
      cairo_store_point /cairo_font where { pop cairo_selectfont } if } bind def
/g { setgray } bind def
/rg { setrgbcolor } bind def
/d1 { setcachedevice } bind def
%%EndProlog
%%Page: 1 1
%%BeginPageSetup
%%PageBoundingBox: 0 -1 677 715
%%EndPageSetup
q 0 -1 677 716 rectclip q
0 714.88 677 -715 re W n
0 g
530.559 187.118 m 530.559 370.239 l 530.559 398.88 553.922 422.239 
582.559 422.239 c 636.801 422.239 l 643.762 645.841 l 619.281 645.841 l 
612.238 480.482 l 611.922 472.958 605.762 467.04 598.238 467.04 c 
597.602 467.04 l 589.84 467.36 583.84 473.919 584.238 481.599 c 591.199 
645.759 l 352 645.759 l 352 433.439 l 368.238 435.278 383.602 440.321 
396.238 448.079 c 402.801 452.161 411.441 450.079 415.52 443.521 c 
419.602 436.958 417.52 428.321 410.961 424.239 c 390.398 411.599 364.48 
404.642 338 404.642 c 311.199 404.642 285.039 411.759 264.32 424.642 c 
257.762 428.72 255.762 437.36 259.84 443.919 c 263.922 450.482 272.559 
452.482 279.121 448.4 c 291.922 440.4 307.441 435.278 324 433.439 c 324 
645.919 l 84.801 645.919 l 91.762 481.759 l 92.078 474.001 86.078 
467.521 78.398 467.2 c 77.762 467.2 l 70.32 467.2 64.078 473.118 63.762 
480.642 c 56.719 645.919 l 32.238 645.919 l 39.199 422.321 l 94.238 
422.321 l 122.879 422.321 146.238 398.958 146.238 370.321 c 146.238 
187.2 l 146.238 158.56 122.879 135.2 94.238 135.2 c 48.16 135.2 l 
51.441 31.04 l 52 13.759 66.16 0.001 83.441 0.001 c 196.961 0.001 l 
211.441 0.001 224.16 9.759 227.922 23.841 c 315.762 355.681 l 321.84 
378.56 354.32 378.56 360.32 355.681 c 448.16 23.841 l 451.84 9.841 
464.559 0.001 479.121 0.001 c 592.641 0.001 l 609.922 0.001 624.078 
13.759 624.641 31.04 c 627.922 135.2 l 582.641 135.2 l 553.84 135.118 
530.559 158.482 530.559 187.118 c h
530.559 187.118 m f
126.238 187.118 m 126.238 370.239 l 126.238 387.919 111.922 402.239 
94.238 402.239 c 32 402.239 l 14.32 402.239 0 387.919 0 370.239 c 0 
187.118 l 0 169.439 14.32 155.118 32 155.118 c 94.32 155.118 l 111.922 
155.118 126.238 169.439 126.238 187.118 c h
126.238 187.118 m f
644.801 402.239 m 582.559 402.239 l 564.879 402.239 550.559 387.919 
550.559 370.239 c 550.559 187.118 l 550.559 169.439 564.879 155.118 
582.559 155.118 c 644.719 155.118 l 662.398 155.118 676.719 169.439 
676.719 187.118 c 676.719 370.239 l 676.801 387.919 662.48 402.239 
644.801 402.239 c h
644.801 402.239 m f
64.238 714.88 m 46.559 714.88 32.238 700.56 32.238 682.88 c 32.238 
674.88 l 643.762 674.88 l 643.762 682.88 l 643.762 700.56 629.441 
714.88 611.762 714.88 c h
64.238 714.88 m f
Q Q
showpage
%%Trailer
count op_count sub {pop} repeat
countdictstack dict_count sub {end} repeat
cairo_eps_state restore
%%EOF
