%!PS-Adobe-3.0 EPSF-3.0
%%Creator: cairo 1.10.2 (http://cairographics.org)
%%CreationDate: Thu Jul 10 14:00:30 2014
%%Pages: 1
%%BoundingBox: 0 -1 756 698
%%DocumentData: Clean7Bit
%%LanguageLevel: 2
%%EndComments
%%BeginProlog
/cairo_eps_state save def
/dict_count countdictstack def
/op_count count 1 sub def
userdict begin
/q { gsave } bind def
/Q { grestore } bind def
/cm { 6 array astore concat } bind def
/w { setlinewidth } bind def
/J { setlinecap } bind def
/j { setlinejoin } bind def
/M { setmiterlimit } bind def
/d { setdash } bind def
/m { moveto } bind def
/l { lineto } bind def
/c { curveto } bind def
/h { closepath } bind def
/re { exch dup neg 3 1 roll 5 3 roll moveto 0 rlineto
      0 exch rlineto 0 rlineto closepath } bind def
/S { stroke } bind def
/f { fill } bind def
/f* { eofill } bind def
/n { newpath } bind def
/W { clip } bind def
/W* { eoclip } bind def
/BT { } bind def
/ET { } bind def
/pdfmark where { pop globaldict /?pdfmark /exec load put }
    { globaldict begin /?pdfmark /pop load def /pdfmark
    /cleartomark load def end } ifelse
/BDC { mark 3 1 roll /BDC pdfmark } bind def
/EMC { mark /EMC pdfmark } bind def
/cairo_store_point { /cairo_point_y exch def /cairo_point_x exch def } def
/Tj { show currentpoint cairo_store_point } bind def
/TJ {
  {
    dup
    type /stringtype eq
    { show } { -0.001 mul 0 cairo_font_matrix dtransform rmoveto } ifelse
  } forall
  currentpoint cairo_store_point
} bind def
/cairo_selectfont { cairo_font_matrix aload pop pop pop 0 0 6 array astore
    cairo_font exch selectfont cairo_point_x cairo_point_y moveto } bind def
/Tf { pop /cairo_font exch def /cairo_font_matrix where
      { pop cairo_selectfont } if } bind def
/Td { matrix translate cairo_font_matrix matrix concatmatrix dup
      /cairo_font_matrix exch def dup 4 get exch 5 get cairo_store_point
      /cairo_font where { pop cairo_selectfont } if } bind def
/Tm { 2 copy 8 2 roll 6 array astore /cairo_font_matrix exch def
      cairo_store_point /cairo_font where { pop cairo_selectfont } if } bind def
/g { setgray } bind def
/rg { setrgbcolor } bind def
/d1 { setcachedevice } bind def
%%EndProlog
%%Page: 1 1
%%BeginPageSetup
%%PageBoundingBox: 0 -1 756 698
%%EndPageSetup
q 0 -1 756 699 rectclip q
0 697.808 756 -698 re W n
0 g
140.684 227.218 m 179.484 141.456 217.164 64.257 309.484 25.698 c 
400.203 -12.223 499.965 4.179 572.844 59.937 c 652.926 4.577 l 664.605 
-3.501 680.684 -0.622 688.766 11.136 c 750.523 100.499 l 758.605 
112.179 755.723 128.257 743.965 136.339 c 664.363 191.378 l 704.203 
320.097 638.926 461.777 512.043 514.82 c 419.246 553.616 l 411.883 
536.019 l 407.562 525.616 395.645 520.737 385.246 525.058 c 339.965 
544.097 l 329.562 548.417 324.684 560.339 329.004 570.737 c 336.363 
588.339 l 77.324 696.499 l 68.766 700.097 58.926 696.019 55.406 687.456 
c 42.926 657.538 15.645 592.179 3.004 562.097 c -1.156 552.019 -0.996 
540.737 3.484 530.82 c 26.445 479.937 100.445 316.257 140.684 227.218 c 
h
684.043 124.898 m 699.883 113.937 703.883 92.179 692.926 76.339 c 
681.965 60.499 660.203 56.499 644.363 67.456 c 628.523 78.417 624.523 
100.179 635.484 116.019 c 646.445 131.937 668.203 135.859 684.043 
124.898 c h
282.766 321.859 m 315.484 400.257 405.562 437.218 483.965 404.499 c 
546.684 378.257 582.926 315.296 578.043 251.058 c 576.844 235.058 
573.086 218.898 566.523 203.296 c 550.363 164.659 520.285 136.097 
484.523 120.976 c 447.805 105.456 405.086 104.097 365.324 120.737 c 
287.004 153.378 250.043 243.456 282.766 321.859 c h
282.766 321.859 m f
Q Q
showpage
%%Trailer
count op_count sub {pop} repeat
countdictstack dict_count sub {end} repeat
cairo_eps_state restore
%%EOF
