<?xml version="1.0" encoding="iso-8859-1"?>
<!-- Generator: Adobe Illustrator 16.0.0, SVG Export Plug-In . SVG Version: 6.00 Build 0)  -->
<!DOCTYPE svg PUBLIC "-//W3C//DTD SVG 1.1//EN" "http://www.w3.org/Graphics/SVG/1.1/DTD/svg11.dtd">
<svg version="1.1" id="Capa_1" xmlns="http://www.w3.org/2000/svg" xmlns:xlink="http://www.w3.org/1999/xlink" x="0px" y="0px"
	 width="982.63px" height="982.63px" viewBox="0 0 982.63 982.63" style="enable-background:new 0 0 982.63 982.63;"
	 xml:space="preserve">
<g>
	<path d="M181.657,447.215c4.8,0.1,9.3,0.1,13.5,0c-1-4.601-3.6-8.7-7.4-11.601l-133.4-102.7l-2-1.5l-1.2-1.6
		c-25.1,20.8-54.2,56.7-50.9,110.2C6.057,532.215,36.057,443.015,181.657,447.215z"/>
	<path d="M307.357,751.015h161.8c5.601,0,10.4-3.7,12-8.8c-0.1-1.2-0.2-2.5-0.2-3.7v-238.3v-71.2l-2-1.5
		c-19.699-14.3-37.699-38.101-53.6-70.5c-12.3-25.1-21.2-50.9-27.6-70.6c-2.801-8.6-2-17.7,2.199-25.4l-56.199-9.5
		c0.699,10.7-2.7,21.4-10,30c-22.801,26.8-62,58.9-119.601,58.9c-15.5,0-31.4-2.4-47.7-7.1c-7.1-2.1-14.3-4.6-21.6-7.5
		c-9-3.7-18.1-8-27.3-13c-9.6-5.3-16.6-13.8-19.9-23.7l-25.3,8.4c-8.2,2.7-11.3,12.8-5.9,19.6l0.9,0.7l132.5,102
		c8.2,6.3,13.5,15.4,15.1,25.5c0.3,2.1,0.5,4.2,0.5,6.3v33.9c0,2.899,1,5.7,3,7.899l75.4,86.601c0.6,1.399,0.9,3,0.9,4.5v12.2
		c0.9-0.101,1.8-0.101,2.8-0.101h56.3c24.6,0,44.6,20,44.6,44.601v11.5c0,24.6-20,44.6-44.6,44.6c0,0-58.1,0-59-0.1v41.3
		C294.857,745.415,300.457,751.015,307.357,751.015z"/>
	<path d="M127.157,295.215c33,18.1,61.9,25.2,86.9,25.2c49.6,0,83.9-27.7,104.3-51.8c5.3-6.2,6.4-13.8,4.5-20.6
		c-1.3-4.4-3.9-8.5-7.5-11.4c-3.7-3-8.4-4.9-13.9-5c-2.399,0-4.899-0.1-7.3-0.1c-2.7,0-5.4,0-8.1,0.1c-20.9,0.3-41.3,1.9-60.6,4.2
		c-23.5,2.8-45.3,6.8-64.4,10.9c-10.5,2.3-20.2,4.6-28.9,6.9c-4.5,1.2-8.1,3.4-10.8,6.3c-3.2,3.5-5.2,7.9-5.8,12.5
		c-0.4,3.4-0.1,6.9,1,10.2C118.357,287.715,121.757,292.215,127.157,295.215z"/>
	<path d="M931.558,329.815l-1.2,1.6l-2,1.5l-133.5,102.8c-3.7,2.899-6.3,7-7.4,11.6c4.2,0.1,8.601,0.1,13.5,0
		c145.601-4.2,175.7,85,181.4-7.3C985.758,386.515,956.657,350.615,931.558,329.815z"/>
	<path d="M916.157,317.115c5.4-6.8,2.3-16.9-5.899-19.6l-22.7-7.6c-3.4,9.5-10.2,17.7-19.601,22.8c-6.8,3.8-13.6,7.1-20.399,10.1
		c-11.101,4.9-22,8.8-32.8,11.7c-14.801,3.9-29.2,5.9-43.301,5.9c-57.6,0-96.8-32-119.6-58.9c-7.4-8.7-10.8-19.6-10-30.5l-60.3,10.3
		c4.1,7.7,4.899,16.7,2.1,25.2c-6.399,19.7-15.3,45.5-27.6,70.6c-15.9,32.4-33.9,56.101-53.601,70.5l-0.8,0.601l-0.8,0.6v71.5v238.3
		c0,1.3,0.2,2.601,0.6,3.7c1.601,5.1,6.301,8.8,12,8.8h161.801c6.899,0,12.5-5.6,12.5-12.5v-41.399
		c-1.301,0.1-60.301,0.199-60.301,0.199c-24.6,0-44.6-20-44.6-44.6v-11.5c0-24.6,20-44.6,44.6-44.6h56.301c1.3,0,2.699,0.1,4,0.199
		v-12.3c0-1.6,0.3-3.1,0.899-4.5l75.4-86.6c1.899-2.2,3-5,3-7.9v-33.899c0-2.101,0.2-4.2,0.5-6.3c1.6-10,7-19.2,15.1-25.5l132.5-102
		L916.157,317.115z"/>
	<path d="M697.857,621.015c-2.9-2-6.3-3.4-10-4c-1.3-0.2-2.6-0.3-4-0.3h-56.3c-13.601,0-24.601,11-24.601,24.6v11.5
		c0,13.6,11,24.6,24.601,24.6h56.3c1.4,0,2.7-0.1,4-0.3c3.7-0.6,7.1-2,10-4c5-3.5,8.6-8.7,10-14.8c0.4-1.7,0.6-3.6,0.6-5.4v-11.5
		c0-1.899-0.199-3.699-0.6-5.399C706.457,629.715,702.857,624.415,697.857,621.015z"/>
	<path d="M297.657,677.315h56.3c13.601,0,24.601-11,24.601-24.6v-11.5c0-13.601-11-24.601-24.601-24.601h-56.3
		c-0.9,0-1.8,0.101-2.8,0.2c-3.6,0.4-7,1.6-10,3.4c-4.5,2.699-8,6.8-10,11.699c-1.2,2.9-1.8,6-1.8,9.4v11.5c0,3.3,0.7,6.5,1.8,9.4
		c2,4.899,5.5,9,10,11.7c3,1.8,6.4,3,10,3.399C295.757,677.315,296.657,677.315,297.657,677.315z"/>
	<path d="M771.357,320.415c25,0,53.9-7.1,86.9-25.2c5.1-2.8,8.5-7,10.3-11.6c1.2-3.2,1.7-6.7,1.399-10.1c-0.399-4.4-2-8.6-4.8-12.1
		s-6.8-6.3-11.899-7.6c-10.801-2.8-23.101-5.7-36.7-8.5c-18.4-3.8-39-7.3-61-9.8c-18.8-2.1-38.601-3.5-58.8-3.8
		c-1.801,0-3.7,0-5.5,0c-2.4,0-4.9,0-7.301,0.1c-5.1,0.1-9.5,1.7-13.1,4.4c-3.9,2.9-6.7,7-8.1,11.5c-2.101,6.8-1.101,14.7,4.3,21.1
		C687.457,292.615,721.758,320.415,771.357,320.415z"/>
	<path d="M480.957,403.215c0.301,0.3,0.5,0.5,0.801,0.8c2.899,2.7,9.1,7.3,9.199,7.3c0.301-0.2,7-5.6,10-8.5
		c0.301-0.3,0.5-0.5,0.801-0.8c32.699-32,52.699-90,63-121.7c2.1-6.4-1.2-12.5-6.301-15.1c-1.699-0.9-3.699-1.4-5.699-1.4
		c-1.801,0-3.7,0.4-5.601,1.3c-2.3,1.1-4.5,2.2-6.7,3.1c-9.6,4.2-19.5,7.4-29.8,9.2c-23.4,4.1-47.701,0.4-69.3-9
		c-0.4-0.2-0.8-0.3-1.1-0.5c-1.9-0.9-3.9-1.8-5.9-2.8c-1.9-0.9-3.8-1.3-5.6-1.3c-1.9,0-3.7,0.5-5.301,1.2c-5.3,2.5-8.8,8.7-6.6,15.3
		C427.157,312.415,447.557,371.415,480.957,403.215z"/>
</g>
<g>
</g>
<g>
</g>
<g>
</g>
<g>
</g>
<g>
</g>
<g>
</g>
<g>
</g>
<g>
</g>
<g>
</g>
<g>
</g>
<g>
</g>
<g>
</g>
<g>
</g>
<g>
</g>
<g>
</g>
</svg>
