<?xml version="1.0" encoding="iso-8859-1"?>
<!-- Generator: Adobe Illustrator 16.0.0, SVG Export Plug-In . SVG Version: 6.00 Build 0)  -->
<!DOCTYPE svg PUBLIC "-//W3C//DTD SVG 1.1//EN" "http://www.w3.org/Graphics/SVG/1.1/DTD/svg11.dtd">
<svg version="1.1" id="Capa_1" xmlns="http://www.w3.org/2000/svg" xmlns:xlink="http://www.w3.org/1999/xlink" x="0px" y="0px"
	 width="966.2px" height="966.2px" viewBox="0 0 966.2 966.2" style="enable-background:new 0 0 966.2 966.2;" xml:space="preserve"
	>
<g>
	<path d="M23.9,915h917.7c13.199,0,23.899-10.7,24-23.9l0.6-110.8c0-13.3-10.7-24-24-24h-27c-13.3,0-24,10.7-24,24V828
		c0,6.6-5.4,12-12,12h-50c-6.6,0-12-5.4-12-12v-47.7c0-13.3-10.7-24-24-24h-27c-13.3,0-24,10.7-24,24V828c0,6.6-5.4,12-12,12h-51
		c-6.6,0-12-5.4-12-12v-47.7c0-13.3-10.7-24-24-24h-27c-13.3,0-24,10.7-24,24V828c0,6.6-5.4,12-12,12h-47.9c-6.6,0-12-5.4-12-12
		V75.2c0-13.3-10.699-24-24-24h-27c-13.3,0-24,10.7-24,24V828c0,6.6-5.399,12-12,12H386c-6.6,0-12-5.4-12-12v-47.7
		c0-13.3-10.7-24-24-24h-27c-13.3,0-24,10.7-24,24V828c0,6.6-5.399,12-12,12h-50c-6.6,0-12-5.4-12-12v-47.7c0-13.3-10.7-24-24-24
		h-27c-13.3,0-24,10.7-24,24V828c0,6.6-5.4,12-12,12H87c-6.6,0-12-5.4-12-12v-47.7c0-13.3-10.7-24-24-24H24c-13.3,0-24,10.7-24,24
		L0.1,891C-0.1,904.3,10.7,915,23.9,915z"/>
	<path d="M49.1,535.7h161c7.7,0,14,6.3,14,14V625.1c0,7.7,6.3,14,14,14h75.7c7.7,0,14-6.3,14-14V549.7c0-7.7,6.301-14,14-14h31.4
		c7.7,0,14-6.3,14-14v-64.2c0-7.7-6.3-14-14-14h-31.4c-7.699,0-14-6.3-14-14V188.7c0-7.7-6.3-14-14-14h-73.2
		c-4.4,0-8.6,2.1-11.2,5.6L42,431.7c-4.5,6.1-7,13.399-7,21v69C35.1,529.5,41.4,535.7,49.1,535.7z M149.5,421.1l49.3-66.2
		c8.1-10.8,25.2-5.1,25.2,8.4v66.2c0,7.7-6.3,14-14,14h-49.3C149.2,443.5,142.6,430.4,149.5,421.1z"/>
	<path d="M825.5,177.9c-20.7-8-43.1-12.1-66.7-12.1c-23.1,0-45.3,4.1-66.1,12.1c-21.1,8.2-39.8,21.9-55.6,40.9
		C621.5,237.5,609,262.5,600,293.1c-8.899,30.2-13.399,67.9-13.399,112c0,45.301,4.5,83.801,13.399,114.5
		c9,31,21.5,56.301,37.101,75c15.8,18.9,34.5,32.7,55.6,40.9c20.7,8,42.9,12.1,66.1,12.1c23.5,0,46-4.1,66.7-12.1
		c21.101-8.2,39.9-21.9,55.9-40.8c15.8-18.7,28.399-44,37.5-75C927.8,489,932.3,450.5,932.3,405.2c0-44-4.5-81.7-13.399-112
		c-9-30.6-21.601-55.6-37.5-74.4C865.4,199.8,846.601,186,825.5,177.9z M822.8,450.9c-0.8,17.399-3.399,34.399-7.699,50.5
		C811,516.9,804.3,530.2,795.2,541.1c-8.3,9.9-20.2,14.7-36.4,14.7c-15.699,0-27.3-4.8-35.399-14.7
		c-8.9-10.899-15.601-24.199-19.7-39.8c-4.3-16.1-6.9-33.1-7.7-50.5c-0.8-17.7-1.3-33.2-1.3-45.899c0-7.9,0.1-17.2,0.3-27.601
		c0.2-10.5,0.9-21.5,2.2-32.7c1.2-11,3.3-22.1,6.1-32.9c2.8-10.4,6.601-19.9,11.5-28.1c4.601-7.8,10.601-14.1,17.8-18.9
		c6.801-4.5,15.601-6.8,26.101-6.8s19.5,2.3,26.5,6.9c7.399,4.8,13.6,11.2,18.399,19c5,8.1,8.801,17.5,11.4,27.8
		c2.7,10.9,4.8,22.1,6.2,33.2c1.4,11.1,2.3,22,2.5,32.6c0.2,11.1,0.3,20.1,0.3,27.6C824.101,417.5,823.7,433,822.8,450.9z"/>
</g>
<g>
</g>
<g>
</g>
<g>
</g>
<g>
</g>
<g>
</g>
<g>
</g>
<g>
</g>
<g>
</g>
<g>
</g>
<g>
</g>
<g>
</g>
<g>
</g>
<g>
</g>
<g>
</g>
<g>
</g>
</svg>
